1	A	J^--------------	a	O
2	věštci	NNMP1-----A-----	věštec	O
3	nadšení	NNNS2-----A-----	nadšení	O
4	jimž	PJNP3-----------	jenž	O
5	dal	VpMS---2R-AA---P	dát	O
6	jsi	VB-S---2P-AA---I	být	O
7	v	RR--4-----------	v	O
8	čelo	NNNS4-----A-----	čelo	O
9	plamen	NNIS1-----A-----	plamen	O
10	a	J^--------------	a	O
11	víru	NNFS4-----A-----	víra	O
12	v	RR--6-----------	v	O
13	ideal	X24-------------	ideal	O
14	ve	RV--4-----------	v	O
15	posvěcenou	AAFS4----1A-----	posvěcený	O
16	hruď	NNFS4-----A-----	hruď	O
17	i	J^--------------	i	O
18	ti	PDMP1-----------	ten	O
19	jimž	PJMP3-----------	jenž	O
20	do	RR--2-----------	do	O
21	ruky	NNFS2-----A-----	ruka	O
22	jsi	VB-S---2P-AA---I	být	O
23	proti	RR--3-----------	proti	O
24	nim	P5MP3--3--------	oni	O
25	dal	VpMS---2R-AA---P	dát	O
26	kámen	NNIS4-----A-----	kámen	O
27	a	J^--------------	a	O
28	slinu	NNFS4-----A-----	slina	O
29	na	RR--4-----------	na	O
30	ústa	NNNP4-----A-----	ústa	O
31	by	Vc-------------I	být	O
32	plvali	X24-------------	plvali	O
33	jim	PPFP3--3--------	oni	O
34	v	RR--4-----------	v	O
35	tvář	NNFS4-----A-----	tvář	O
36	Ret	NNIS1-----A-----	ret	O
37	kletbou	NNFS7-----A-----	kletba	O
38	zkřivený	AAIS1----1A-----	zkřivený	O
39	a	J^--------------	a	O
40	čelo	NNNS1-----A-----	čelo	O
41	v	RR--6-----------	v	O
42	znoji	NNIS6-----A-----	znoj	O
43	mrazném	X24-------------	mrazném	O
44	tak	Db--------------	tak	O
45	všichni	PLMP1-----------	všechen	O
46	stáli	VpMP---3R-AA---B	stát	O
47	tu	Db------------1-	tu	O
48	do	RR--2-----------	do	O
49	ráje	NNIS2-----A-----	ráj	O
50	zlatých	AAFP2----1A-----	zlatý	O
51	bran	NNFP2-----A-----	brána	O
52	jak	Db--------------	jak	O
53	bouře	NNFS1-----A-----	bouře	O
54	hřímali	VpMP---3R-AA---I	hřímat	O
55	a	J^--------------	a	O
56	do	RR--2-----------	do	O
57	nich	P5IP2--3--------	oni	O
58	bili	VpMP---3R-AA---I	bít	O
59	čelem	NNNS7-----A-----	čelo	O
60	a	J^--------------	a	O
61	krev	NNFS1-----A-----	krev	O
62	jim	PPFP3--3--------	oni	O
63	stékala	VpFS---2R-AA---I	stékat	O
64	z	RR--2-----------	z	O
65	ni	J^--------------	ni	O
66	nezhojených	AAFP2----1N-----	zhojený	O
67	ran	NNFP2-----A-----	rána	O

