1	Jdou	VB-P---3P-AA---I	jít	O
2	stíny	NNIP1-----A-----	stín	O
3	duší	NNFP2-----A-----	duše	O
4	mou	PSFS7-S1------1-	můj	O
5	a	J^--------------	a	O
6	hlava	NNFS1-----A-----	hlava	O
7	níž	Dg-------2A-----	nízko	O
8	se	P7-X4-----------	se	O
9	chýlí	VB-S---3P-AA---I	chýlit	O
10	kol	NNNP2-----A-----	kolo	O
11	večerem	NNIS7-----A-----	večer	O
12	a	J^--------------	a	O
13	tmou	NNFS7-----A-----	tma	O
14	stín	NNIS1-----A-----	stín	O
15	lásky	NNFS2-----A-----	láska	O
16	přešel	VpIS---3R-AA---P	přejít	O
17	bílý	AAMS1----1A-----	bílý	O

