1	Kdes	Db--------------	kdes	O
2	na	RR--6-----------	na	O
3	sibiřské	AAFS6----1A-----	sibiřský	O
4	dráze	NNFS6-----A-----	dráha	O
5	vozy	NNIP7-----A-----	vůz	O
6	stojí	VB-S---3P-AA---B	stát	O
7	a	J^--------------	a	O
8	vězni	NNMP1-----A-----	vězeň	O
9	kol	NNNP2-----A-----	kolo	O
10	a	J^--------------	a	O
11	stráže	NNFS2-----A-----	stráž	O
12	v	RR--6-----------	v	O
13	plné	AAFS6----1A-----	plný	O
14	zbroji	NNFS6-----A-----	zbroj	O

