1	vše	PLNS1---------1-	všechen	
2	vzplálo	VpNS---3R-AA---P	vzplát	
3	v	RR--6-----------	v	
4	duši	NNFS6-----A-----	duše	
5	mé	PSFS6-S1------1-	můj	
6	a	J^--------------	a	
7	v	RR--6-----------	v	
8	hudbě	NNFS6-----A-----	hudba	
9	mrtvých	AANP2----1A-----	mrtvý	
10	přání	NNNP2-----A-----	přání	
11	zaštkáním	NNNP3-----A-----	zaštkání	
12	smrtelným	AAMP3----1A-----	smrtelný	
13	se	P7-X4-----------	se	
14	třáslo	VpNS---3R-AA---I	třást	
15	ozvěnou	NNFS7-----A-----	ozvěna	
16	nad	RR--4-----------	nad	
17	Mládí	NNNS4-----A-----	mládí	SUSPICIOUS_TYPE
18	mrtvolou	NNFS7-----A-----	mrtvola	
19	jsem	VB-S---1P-AA---I	být	
20	stanul	VpMS---1R-AA---P	stanout	
21	v	RR--6-----------	v	
22	zadumání	NNNS6-----A-----	zadumání	
23	jak	Db--------------	jak	
24	milenec	NNMS1-----A-----	milenec	
25	nad	RR--7-----------	nad	
26	mrtvou	AAFS7----1A-----	mrtvý	
27	dívkou	NNFS7-----A-----	dívka	
28	svedenou	AAFS7----1A-----	svedený	

