1	Nechť	TT--------------	nechť	O
2	poví	VB-S---3P-AA---P	povědět	O
3	Vám	PP-P3--2--------	vy	O
4	jak	Db--------------	jak	O
5	Jste	VB-P---2P-AA---I	být	O
6	mně	PP-S3--1--------	já	O
7	milá	AAFS1----1A-----	milý	O
8	ba	TT--------------	ba	O
9	drahý	AAIS1----1A-----	drahý	O
10	pocit	NNIS1-----A-----	pocit	O
11	neznámý	AAMS1----1N-----	známý	O
12	Jste	VB-P---2P-AA---I	být	O
13	v	RR--6-----------	v	O
14	duši	NNFS6-----A-----	duše	O
15	mojí	PSFS6-S1--------	můj	O
16	probudila	VpFS---2R-AA---P	probudit	O
17	jak	Db--------------	jak	O
18	žádná	PWFS1-----------	žádný	O
19	jiná	AAFS1----1A-----	jiný	O
20	před	RR--7-----------	před	O
21	Vámi	PP-P7--2--------	vy	O

