1	Pracuje	VB-S---3P-AA---I	pracovat	O
2	v	RR--6-----------	v	O
3	poli	NNNS6-----A-----	pole	O
4	chudý	AAIS1----1A-----	chudý	O
5	lid	NNIS1-----A-----	lid	O
6	čeládka	NNFS1-----A-----	čeládka	O
7	nízká	AAFS1----1A-----	nízký	O
8	chátra	NNFS1-----A-----	chátra	O
9	Skřivánek	NNMS1-----A-----	skřivánek	O
10	přestal	VpMS---3R-AA---P	přestat	O
11	šveholit	Vf--------A----I	šveholit	O
12	A	J^--------------	a	O
13	velmož	NNMS1-----A-----	velmož	O
14	hledí	VB-S---3P-AA---I	hledět	O
15	pátrá	VB-S---3P-AA---I	pátrat	O
16	tak	Db--------------	tak	O
17	jako	J,--------------	jako	O
18	sám	PLMS1-----------	sám	O
19	Excelenc	X24-------------	Excelenc	SUSPICIOUS_TYPE
20	pán	X24-------------	pán	O
21	kdyby	J,--------------	kdyby	O
22	se	P7-X4-----------	se	O
23	blížil	VpMS---3R-AA---I	blížit	O
24	s	RR--7-----------	s	O
25	úctou	NNFS7-----A-----	úcta	O
26	zřejmou	AAFS7----1A-----	zřejmý	O
27	čepice	NNFP1-----A-----	čepice	O
28	muži	NNMP1-----A-----	muž	O
29	s	RR--2-----------	s	O
30	hlavy	NNFS2-----A-----	hlava	O
31	sejmou	VB-P---3P-AA---P	sejmout	O
32	jakž	Db--------------	jakž	O
33	jinak	Db--------------	jinak	O
34	blíží	VB-S---3P-AA---I	blížit	O
35	se	P7-X4-----------	se	O
36	pan	NNMS1-----A-----	pan	O
37	Žán	X24-------------	Žán	SUSPICIOUS_TYPE

