1	Svou	P8FS4---------1-	svůj	O
2	hlavu	NNFS4-----A-----	hlava	O
3	ke	RV--3-----------	k	O
4	mně	PP-S3--1--------	já	O
5	skloň	Vi-S---2--A----P	sklonit	O
6	chci	VB-S---1P-AA---I	chtít	O
7	růže	NNFP4-----A-----	růže	O
8	kol	RR--2-----------	kol	O
9	ní	P5FS2--3--------	on	O
10	uvít	Vf--------A----P	uvít	O
11	v	RR--6-----------	v	O
12	svých	P8FP6-----------	svůj	O
13	písních	NNFP6-----A-----	píseň	O
14	alespoň	Db--------------	alespoň	O
15	smím	VB-S---1P-AA---I	smět	O
16	šťasten	ACMS------A-----	šťastný	O
17	s	RR--7-----------	s	O
18	tebou	PP-S7--2--------	ty	O
19	mluvit	Vf--------A----I	mluvit	O

