1	Ó	II--------------	ó	O
2	matko	NNFS5-----A-----	matka	O
3	jak	Db--------------	jak	O
4	tvůj	PSIS1-S2--------	tvůj	O
5	stín	NNIS1-----A-----	stín	O
6	tam	Db--------------	tam	O
7	stává	VB-S---3P-AA---I	stávat	O
8	když	J,--------------	když	O
9	vůkol	RR--2-----------	vůkol	O
10	tebe	PP-S2--2--------	ty	O
11	všecko	PLNS1-----------	všecek	O
12	dřímá	VB-S---3P-AA---I	dřímat	O
13	a	J^--------------	a	O
14	nohy	NNFP1-----A-----	noha	O
15	tvoje	PSMP4-S2--------	tvůj	O
16	obejímá	X24-------------	obejímá	O
17	tam	Db--------------	tam	O
18	osiřelá	AAFS1----1A-----	osiřelý	O
19	česká	AAFS1----1A-----	český	O
20	sláva	NNFS1-----A-----	sláva	O
21	A	J^--------------	a	O
22	koruny	NNFP1-----A-----	koruna	O
23	té	PDFS2-----------	ten	O
24	lesk	NNIS1-----A-----	lesk	O
25	a	J^--------------	a	O
26	svit	NNIS1-----A-----	svit	O
27	tam	Db--------------	tam	O
28	dále	Db------------1-	dále	O
29	hoří	VB-S---3P-AA---I	hořet	O
30	při	RR--6-----------	při	O
31	měsíci	NNIS6-----A-----	měsíc	O
32	a	J^--------------	a	O
33	na	RR--6-----------	na	O
34	kolenou	NNNP6-----A---1-	koleno	O
35	němý	AAIS1----1A-----	němý	O
36	lid	NNIS1-----A-----	lid	O
37	a	J^--------------	a	O
38	vůkol	Db--------------	vůkol	O
39	všude	Db--------------	všude	O
40	slavný	AAIS1----1A-----	slavný	O
41	klid	NNIS1-----A-----	klid	O
42	leč	J^--------------	leč	O
43	svatá	AAFS1----1A-----	svatý	O
44	zář	NNFS1-----A-----	zář	O
45	už	Db--------------	už	O
46	na	RR--6-----------	na	O
47	tvé	PSFS6-S2------1-	tvůj	O
48	líci	NNFS6-----A-----	líce	O
49	Zpěv	NNIS1-----A-----	zpěv	O
50	náhle	Dg-------1A-----	náhle	O
51	roste	VB-S---3P-AA---I	růst	O
52	na	RR--4-----------	na	O
53	chorál	NNIS4-----A-----	chorál	O
54	ty	PDFP1-----------	ten	O
55	matko	NNFS5-----A-----	matka	O
56	víš	VB-S---2P-AA---I	vědět	O
57	že	J,--------------	že	O
58	v	RR--6-----------	v	O
59	chvíli	NNFS6-----A-----	chvíle	O
60	jedné	ClFS6-----------	jeden	O
61	tu	PDFS4-----------	ten	O
62	korunu	NNFS4-----A-----	koruna	O
63	prý	TT--------------	prý	O
64	ruka	NNFS1-----A-----	ruka	O
65	zvedne	VB-S---3P-AA---P	zvednout	O
66	že	J,--------------	že	O
67	na	RR--4-----------	na	O
68	trůn	NNIS4-----A-----	trůn	O
69	k	RR--3-----------	k	O
70	tobě	PP-S3--2--------	ty	O
71	v	RR--6-----------	v	O
72	slávě	NNFS6-----A-----	sláva	O
73	sedne	VB-S---3P-AA---P	sednout	O
74	si	P7-X3-----------	se	O
75	posvěcený	AAMS1----1A-----	posvěcený	O
76	český	AAMS1----1A-----	český	O
77	král	NNMS1-----A-----	král	O

