1	A	J^--------------	a	O
2	bojar	NNMS1-----A-----	bojar	O
3	věří	VB-S---3P-AA---I	věřit	O
4	šťasten	ACIS------A-----	šťastný	O
5	věří	VB-S---3P-AA---I	věřit	O
6	Když	J,--------------	když	O
7	do	RR--2-----------	do	O
8	komnaty	NNFS2-----A-----	komnata	O
9	na	RR--6-----------	na	O
10	prah	NNIS1-----A-----	prah	O
11	dveří	NNFP2-----A-----	dveře	O
12	vstoup	X24-------------	vstoup´	O
13	číšník	NNMS1-----A-----	číšník	O
14	štíhlý	AAMS1----1A-----	štíhlý	O
15	krásný	AAMS1----1A-----	krásný	O
16	hoch	NNMS1-----A-----	hoch	O
17	tu	PDFS4-----------	ten	O
18	číš	NNFS4-----A-----	číš	O
19	kde	Db--------------	kde	O
20	plála	VpFS---3R-AA---I	planout	O
21	réva	NNFS1-----A-----	réva	O
22	zlatem	NNNS7-----A-----	zlato	O
23	a	J^--------------	a	O
24	rubíny	NNIP1-----A-----	rubín	O
25	v	RR--4-----------	v	O
26	dlaň	NNFS4-----A-----	dlaň	O
27	chopil	VpMS---3R-AA---P	chopit	O
28	s	RR--7-----------	s	O
29	chvatem	NNIS7-----A-----	chvat	O
30	a	J^--------------	a	O
31	vzdych	X24-------------	vzdych´	O
32	Kéž	TT--------------	kéž	O
33	už	Db--------------	už	O
34	bych	Vc-S---1-------I	být	O
35	líbal	VpMS---1R-AA---I	líbat	O
36	moh	X24-------------	moh´	O

