1	Chceš	VB-S---2P-AA---I	chtít	O
2	li	J,--------------	li	O
3	být	Vf--------A----I	být	O
4	velikým	AAMS7----1A-----	veliký	O
5	rozmilý	AAMS5----1A-----	rozmilý	O
6	synáčku	NNMS5-----A-----	synáček	O
7	nejprve	Db--------------	nejprve	O
8	rozsekej	Vi-S---2--A----P	rozsekat	O
9	na	RR--4-----------	na	O
10	cucky	NNIP4-----A-----	cucek	O
11	na	RR--4-----------	na	O
12	dračku	NNFS4-----A-----	dračka	O
13	kde	Db--------------	kde	O
14	koho	PKM-4-----------	kdo	O
15	kol	NNNP2-----A-----	kolo	O
16	na	RR--6-----------	na	O
17	místě	NNNS6-----A-----	místo	O
18	pera	NNNS2-----A-----	pero	O
19	hleď	Vi-S---2--A----I	hledět	O
20	raděj	X24-------------	raděj´	O
21	si	P7-X3-----------	se	O
22	obušku	NNIS2-----A-----	obušek	O
23	jednoho	ClMS4-----------	jeden	O
24	z	RR--2-----------	z	O
25	básníků	NNMP2-----A-----	básník	O
26	po	RR--6-----------	po	O
27	druhém	AAIS6----1A-----	druhý	O
28	na	RR--4-----------	na	O
29	mušku	NNFS4-----A-----	muška	O
30	hezky	Dg-------1A-----	hezky	O
31	si	P7-X3-----------	se	O
32	zvol	Vi-S---2--A----P	zvolit	O

