1	Boa	NNFS1-----A-----	boa	O
2	si	P7-X3-----------	se	O
3	kol	RR--2-----------	kol	O
4	šíje	NNFS2-----A-----	šíje	O
5	vine	VB-S---3P-AA---I	vinout	O
6	a	J^--------------	a	O
7	vždy	Db--------A-----	vždy	O
8	balík	NNMS1-----A-----	balík	O
9	v	RR--6-----------	v	O
10	ruce	NNFS6-----A-----	ruka	O
11	jedné	ClFS2-----------	jeden	O
12	od	RR--2-----------	od	O
13	skříně	NNFS2-----A-----	skříň	O
14	ke	RV--3-----------	k	O
15	skříni	NNFS3-----A-----	skříň	O
16	jiné	AAFS3----1A-----	jiný	O
17	bloudí	VB-S---3P-AA---I	bloudit	O
18	celé	AANS4----1A-----	celý	O
19	dopoledne	NNNS4-----A-----	dopoledne	O

