1	Ó	II--------------	ó	O
2	slečinky	NNFP1-----A-----	slečinka	O
3	vy	PP-P1--2--------	vy	O
4	drobné	NNIP1-----A-----	drobné	O
5	sporé	AAIP1----1A-----	sporý	O
6	jichž	PJIP2-----------	jenž	O
7	nenudí	VB-S---3P-NA---I	nudit	O
8	náš	PSIS1-P1--------	náš	O
9	nudný	AAIS1----1A-----	nudný	O
10	věk	NNIS1-----A-----	věk	O
11	jen	TT--------------	jen	O
12	vy	PP-P1--2--------	vy	O
13	jste	VB-P---2P-AA---I	být	O
14	pravá	AAFS1----1A-----	pravý	O
15	jeunesse	X24-------------	jeunesse	O
16	dorée	X24-------------	dorée	O
17	vy	PP-P1--2--------	vy	O
18	zlato	NNNS1-----A-----	zlato	O
19	svojich	X24-------------	svojich	O
20	matinek	NNFP2-----A-----	matinka	O

