1	Kdo	PKM-1-----------	kdo	O
2	ještě	Db--------------	ještě	O
3	tady	Db--------------	tady	O
4	s	RR--7-----------	s	O
5	neprodaným	AANS7----1N-----	prodaný	O
6	čelem	NNNS7-----A-----	čelo	O
7	poctivé	AANS1----1A-----	poctivý	O
8	srdce	NNNS1-----A-----	srdce	O
9	má	VB-S---3P-AA---I	mít	O
10	v	RR--6-----------	v	O
11	svém	P8NS6-----------	svůj	O
12	ňadru	NNNS6-----A-----	ňadro	O
13	českém	AANS6----1A-----	český	O
14	ó	II--------------	ó	O
15	rcete	Vi-P---2--A----P	říci	O
16	jak	Db--------------	jak	O
17	by	Vc-------------I	být	O
18	nezachvěl	VpMS---3R-NA---P	zachvět	O
19	se	RV--7-----------	s	O
20	žalem	NNIS7-----A-----	žal	O
21	a	J^--------------	a	O
22	hněvem	NNIS7-----A-----	hněv	O
23	jak	Db--------------	jak	O
24	by	Vc-------------I	být	O
25	nezaplakal	VpMS---3R-NA---P	zaplakat	O
26	steskem	NNIS7-----A-----	stesk	O
27	nad	RR--7-----------	nad	O
28	odrodilou	AAFS7----1A-----	odrodilý	O
29	lájí	NNFS7-----A-----	láj	O
30	jež	PJNS1-----------	jenž	O
31	nepřátel	NNMP2-----A-----	nepřítel	O
32	je	VB-S---3P-AA---I	být	O
33	cizích	AAMP2----1A-----	cizí	O
34	horší	AAMS1----2A-----	špatný	O
35	z	RR--2-----------	z	O
36	mála	NNNS2-----A-----	málo	O
37	jež	PJFS1-----------	jenž	O
38	českých	AAFP2----1A-----	český	O
39	matek	NNFP2-----A-----	matka	O
40	kdysi	Db--------------	kdysi	O
41	mléko	NNNS4-----A-----	mléko	O
42	ssála	VpNP---3R-AA---I	sát	O
43	a	J^--------------	a	O
44	nestoudně	Dg-------1A-----	nestoudně	O
45	teď	Db--------------	teď	O
46	hříšná	AAFS1----1A-----	hříšný	O
47	zapírá	VB-S---3P-AA---I	zapírat	O
48	ji	PPFS4--3--------	ona	O
49	když	J,--------------	když	O
50	matka	NNFS1-----A-----	matka	O
51	bědná	AAFS1----1A-----	bědný	O
52	pomoci	NNFS2-----A-----	pomoc	O
53	a	J^--------------	a	O
54	práva	NNNS2-----A-----	právo	O
55	se	RV--7-----------	s	O
56	zoufanlivým	AAIS7----1A-----	zoufanlivý	O
57	hlasem	NNIS7-----A-----	hlas	O
58	dovolává	VB-S---3P-AA---I	dovolávat	O

