1	Náš	PSIS1-P1--------	náš	O
2	celý	AAIS1----1A-----	celý	O
3	život	NNIS1-----A-----	život	O
4	to	PDNS1-----------	ten	O
5	je	VB-S---3P-AA---I	být	O
6	mráz	NNIS1-----A-----	mráz	O
7	a	J^--------------	a	O
8	kletba	NNFS1-----A-----	kletba	O
9	a	J^--------------	a	O
10	pustý	AAIS1----1A-----	pustý	O
11	výkřik	NNIS1-----A-----	výkřik	O
12	jehož	P1MS1IS3--------	jenž	O
13	nikdo	PWM-1-----------	nikdo	O
14	nedbá	VB-S---3P-NA---I	dbát	O
15	Břeh	NNIS1-----A-----	břeh	O
16	pod	RR--7-----------	pod	O
17	námi	PP-P7--1--------	my	O
18	se	P7-X4-----------	se	O
19	každým	PLIS7-----------	každý	O
20	krokem	NNIS7-----A-----	krok	O
21	láme	VB-S---3P-AA---I	lámat	O
22	a	J^--------------	a	O
23	jestli	J,--------------	jestli	O
24	někde	Db--------------	někde	O
25	cestou	NNFS7-----A-----	cesta	O
26	zanikáme	VB-P---1P-AA---I	zanikat	O
27	vzkřik	VpIS---3R-AA--6P	vzkřiknout	O
28	na	RR--6-----------	na	O
29	ústech	NNNP6-----A-----	ústa	O
30	a	J^--------------	a	O
31	beznaději	NNFS6-----A-----	beznaděj	O
32	v	RR--6-----------	v	O
33	duši	NNFS6-----A-----	duše	O
34	co	PQ--4-----------	co	O
35	víc	Dg-------2A---1-	hodně	O
36	Kol	NNNP2-----A-----	kolo	O
37	stejně	Dg-------1A-----	stejně	O
38	chodí	VB-P---3P-AA---I	chodit	O
39	lidé	NNMP1-----A---1-	člověk	O
40	hluší	AAMP1----1A-----	hluchý	O
41	a	J^--------------	a	O
42	toho	PDMS4-----------	ten	O
43	každý	PLMS1-----------	každý	O
44	zapomene	VB-S---3P-AA---P	zapomenout	O
45	záhy	Db--------------	záhy	O
46	kdo	PKM-1-----------	kdo	O
47	nedoletěl	VpMS---3R-NA---P	doletět	O
48	ani	J^--------------	ani	O
49	konce	NNIS2-----A-----	konec	O
50	dráhy	NNFS2-----A-----	dráha	O
51	a	J^--------------	a	O
52	z	RR--2-----------	z	O
53	půle	NNFS2-----A-----	půle	O
54	zapad	VpMS---3R-AA--6P	zapadnout	O
55	do	RR--2-----------	do	O
56	prachu	NNIS2-----A-----	prach	O
57	a	J^--------------	a	O
58	bláta	NNNS2-----A-----	bláto	O
59	I	J^--------------	i	O
60	soudruh	NNMS1-----A-----	soudruh	O
61	jeho	PSMS2XS3--------	jeho	O
62	mlčky	Db--------------	mlčky	O
63	dále	Db------------1-	dále	O
64	chvátá	VB-S---3P-AA---I	chvátat	O
65	a	J^--------------	a	O
66	myslí	VB-S---3P-AA---I	myslet	O
67	jak	Db--------------	jak	O
68	tam	Db--------------	tam	O
69	bez	RR--2-----------	bez	O
70	pomoci	NNFS2-----A-----	pomoc	O
71	hyne	VB-S---3P-AA---I	hynout	O
72	dnes	Db--------------	dnes	O
73	ten	PDIS1-----------	ten	O
74	a	J^--------------	a	O
75	zítra	Db--------------	zítra	O
76	osud	NNIS1-----A-----	osud	O
77	zvolí	VB-S---3P-AA---P	zvolit	O
78	jiné	AANS4----1A-----	jiný	O

