1	Svou	P8FS4---------1-	svůj	O
2	hlavu	NNFS4-----A-----	hlava	O
3	ke	RV--3-----------	k	O
4	mně	PP-S3--1--------	já	O
5	skloň	Vi-S---2--A----P	sklonit	O
6	své	P8NS4---------1-	svůj	O
7	čelo	NNNS4-----A-----	čelo	O
8	k	RR--3-----------	k	O
9	mojí	PSFS3-S1--------	můj	O
10	skráni	NNFS3-----A-----	skráň	O
11	v	RR--6-----------	v	O
12	mých	PSFP6-S1--------	můj	O
13	písních	NNFP6-----A-----	píseň	O
14	alespoň	Db--------------	alespoň	O
15	ti	PDMP1-----------	ten	O
16	nikdo	PWM-1-----------	nikdo	O
17	neubrání	VB-S---3P-NA---P	ubránit	O

