1	Buď	J^--------------	buď	O
2	atamane	NNMS5-----A-----	ataman	O
3	zdráv	ACIS------A-----	zdravý	O
4	Skráň	NNFS4-----A-----	skráň	O
5	hrdě	Dg-------1A-----	hrdě	O
6	vznes	VpMS---3R-AA--6P	vznést	O
7	však	J^--------------	však	O
8	nevytrpěls	VpMS---2R-NA---P	vytrpět	O
9	v	RR--6-----------	v	O
10	celém	AANS6----1A-----	celý	O
11	žití	NNNS6-----A-----	žití	O
12	málo	Dg-------1A-----	málo	O
13	co	PQ--1-----------	co	O
14	bylo	VpNS---3R-AA---I	být	O
15	bylo	VpNS---3R-AA---I	být	O
16	Vítězem	NNMS7-----A-----	vítěz	O
17	jsi	VB-S---2P-AA---I	být	O
18	dnes	Db--------------	dnes	O
19	však	J^--------------	však	O
20	nikdo	PWM-1-----------	nikdo	O
21	neví	VB-S---3P-NA---I	vědět	O
22	co	PQ--1-----------	co	O
23	to	PDNS4-----------	ten	O
24	krve	NNFP4-----A-----	krev	O
25	stálo	VpNS---3R-AA---B	stát	O

