1	Kol	NNNP2-----A-----	kolo	O
2	mlha	NNFS1-----A-----	mlha	O
3	která	P4FS1-----------	který	O
4	stoupne	VB-S---3P-AA---P	stoupnout	O
5	za	RR--2-----------	za	O
6	dne	NNIS2-----A-----	den	O
7	Je	VB-S---3P-AA---I	být	O
8	zimní	AANS1----1A-----	zimní	O
9	tmavé	AANS1----1A-----	tmavý	O
10	ráno	NNNS1-----A-----	ráno	O
11	chladné	AANS1----1A-----	chladný	O
12	jež	PJNS1-----------	jenž	O
13	ve	RV--6-----------	v	O
14	smutku	NNIS6-----A-----	smutek	O
15	se	P7-X4-----------	se	O
16	budit	Vf--------A----I	budit	O
17	zdá	VB-S---3P-AA---I	zdát	O
18	Plyn	NNIS1-----A-----	plyn	O
19	kalně	Dg-------1A-----	kalně	O
20	svítí	VB-S---3P-AA---I	svítit	O
21	v	RR--4-----------	v	O
22	mlhy	NNFP4-----A-----	mlha	O
23	šedé	AAFP4----1A-----	šedý	O
24	a	J^--------------	a	O
25	první	CrMP1-----------	první	O
26	tramway	X24-------------	tramway	O
27	zvolna	Db--------------	zvolna	O
28	jede	VB-S---3P-AA---I	jet	O
29	a	J^--------------	a	O
30	kočí	NNMS1-----A-----	kočí	O
31	zdlouha	Db--------------	zdlouha	O
32	zahvízdá	VB-S---3P-AA---P	zahvízdat	O

