1	Nechť	TT--------------	nechť	O
2	požehnáním	NNNS7-----A-----	požehnání	O
3	nebes	NNNP2-----A-----	nebesa	O
4	plně	Dg-------1A-----	plně	O
5	zkvétá	VB-S---3P-AA---I	zkvétat	O
6	to	PDNS1-----------	ten	O
7	símě	NNNS1-----A-----	símě	O
8	Vaší	PSFS2-P2--------	váš	O
9	práce	NNFS2-----A-----	práce	O
10	Vaší	PSFS2-P2--------	váš	O
11	snahy	NNFS2-----A-----	snaha	O
12	Vám	PP-P3--2--------	vy	O
13	přejem	VB-P---1P-AA--6I	přát	O
14	k	RR--3-----------	k	O
15	tomu	PDNS3-----------	ten	O
16	příteli	NNMS3-----A-----	přítel	O
17	náš	PSIS4-P1--------	náš	O
18	drahý	AAIS4----1A-----	drahý	O
19	vždy	Db--------A-----	vždy	O
20	štěstí	NNNS1-----A-----	štěstí	O
21	zdar	NNIS1-----A-----	zdar	O
22	a	J^--------------	a	O
23	dlouhá	AAFS1----1A-----	dlouhý	O
24	dlouhá	AANP4----1A-----	dlouhý	O
25	léta	NNNP4-----A---2-	rok	O

