1	Za	RR--4-----------	za	O
2	drahé	AAIP4----1A-----	drahý	O
3	pohledy	NNIP4-----A-----	pohled	O
4	věrných	AAFP2----1A-----	věrný	O
5	tvých	PSFP2-S2--------	tvůj	O
6	očí	NNFP2-----A-----	oko	O
7	naposled	Db--------------	naposled	O
8	šáteček	NNIS1-----A-----	šáteček	O
9	v	RR--6-----------	v	O
10	dálce	NNFS6-----A-----	dálka	O
11	se	P7-X4-----------	se	O
12	točí	VB-S---3P-AA---I	točit	O

