1	Tvá	PSFS1-S2------1-	tvůj	O
2	loď	NNFS1-----A-----	loď	O
3	jde	VB-S---3P-AA---I	jít	O
4	po	RR--6-----------	po	O
5	vysokém	AANS6----1A-----	vysoký	O
6	moři	NNNS6-----A-----	moře	O
7	v	RR--4-----------	v	O
8	ně	P5MP4--3--------	oni	O
9	brázdu	NNFS4-----A-----	brázda	O
10	jako	J,--------------	jako	O
11	stříbro	NNNS4-----A-----	stříbro	O
12	reje	NNIS2-----A-----	rej	O
13	svou	P8FS4---------1-	svůj	O
14	přídu	VB-S---1P-AA---P	přijít	O
15	v	RR--4-----------	v	O
16	modré	AAFP4----1A-----	modrý	O
17	vlny	NNFP4-----A-----	vlna	O
18	noří	VB-S---3P-AA---I	nořit	O
19	a	J^--------------	a	O
20	bok	NNIS1-----A-----	bok	O
21	svůj	P8IS4-----------	svůj	O
22	pěnné	X24-------------	pěnné	O
23	do	RR--2-----------	do	O
24	peřeje	NNFS2-----A-----	peřej	O

