1	A	J^--------------	a	O
2	řekne	VB-S---3P-AA---P	říci	O
3	mu	PHNS3--3--------	on	O
4	když	J,--------------	když	O
5	přišla	VpFS---3R-AA---P	přijít	O
6	domů	Db--------------	domů	O
7	že	J,--------------	že	O
8	zoufalosti	NNFS3-----A-----	zoufalost	O
9	byla	VpFS---3R-AA---I	být	O
10	blízká	AAFS1----1A-----	blízký	O
11	a	J^--------------	a	O
12	s	RR--7-----------	s	O
13	usmíváním	NNNS7-----A-----	usmívání	O
14	dodá	VB-S---3P-AA---P	dodat	O
15	k	RR--3-----------	k	O
16	tomu	PDNS3-----------	ten	O
17	zda	J,--------------	zda	O
18	také	Db--------------	také	O
19	jemu	PPMS3--3--------	on	O
20	tak	Db--------------	tak	O
21	se	P7-X4-----------	se	O
22	stýská	VB-S---3P-AA---I	stýskat	O

