1	Kdys	Db--------------	kdys	O
2	dítě	NNNS4-----A-----	dítě	O
3	zřel	VpMS---1R-AA---I	zřít	O
4	jsem	VB-S---1P-AA---I	být	O
5	na	RR--6-----------	na	O
6	rozhraní	NNNS6-----A-----	rozhraní	O
7	třídy	NNFS2-----A-----	třída	O
8	Tam	Db--------------	tam	O
9	stálo	VpNS---3R-AA---B	stát	O
10	plaché	AAFP4----1A-----	plachý	O
11	bázlivé	AAFP4----1A-----	bázlivý	O
12	a	J^--------------	a	O
13	bosé	AAFP4----1A-----	bosý	O
14	to	PDNS1-----------	ten	O
15	dítě	NNNS1-----A-----	dítě	O
16	nouze	NNFS2-----A-----	nouze	O
17	bídy	NNFS2-----A-----	bída	O
18	jak	Db--------------	jak	O
19	matce	NNFS3-----A-----	matka	O
20	s	RR--2-----------	s	O
21	očí	NNFP2-----A-----	oko	O
22	právě	Db--------------	právě	O
23	ztratilo	VpNS---3R-AA---P	ztratit	O
24	se	P7-X4-----------	se	O

