1	Spatřil	VpIS---3R-AA---P	spatřit	O
2	potom	Db--------------	potom	O
3	Žolinku	X24-------------	Žolinku	SUSPICIOUS_TYPE
4	šel	VpMS---3R-AA---I	jít	O
5	za	RR--7-----------	za	O
6	ní	P5FS7--3--------	on	O
7	ale	J^--------------	ale	O
8	nepochodil	VpMS---3R-NA---P	pochodit	O
9	k	RR--3-----------	k	O
10	ní	P5FS3--3--------	on	O
11	se	P7-X4-----------	se	O
12	hláse	VeMS------A----I	hlásit	O
13	Jste	VB-P---2P-AA---I	být	O
14	mi	PH-S3--1--------	já	O
15	nějak	Db--------------	nějak	O
16	povědomý	AAIS1----1A-----	povědomý	O
17	zdá	VB-S---3P-AA---I	zdát	O
18	se	P7-X4-----------	se	O
19	řekla	VpFS---3R-AA---P	říci	O
20	jen	TT--------------	jen	O
21	však	J^--------------	však	O
22	nevzpomenu	VB-S---1P-NA---P	vzpomenout	O
23	ani	J^--------------	ani	O

