1	A	J^--------------	a	O
2	mládí	NNNS1-----A-----	mládí	O
3	své	P8NS4---------1-	svůj	O
4	svůj	P8IS4-----------	svůj	O
5	čistý	AAIS4----1A-----	čistý	O
6	sen	NNIS4-----A-----	sen	O
7	jež	PJNS1-----------	jenž	O
8	na	RR--4-----------	na	O
9	tvé	PSNS4-S2------1-	tvůj	O
10	čelo	NNNS4-----A-----	čelo	O
11	májem	NNIS7-----A-----	máj	O
12	pad	X24-------------	pad´	O
13	máš	VB-S---2P-AA---I	mít	O
14	drze	Dg-------1A-----	drze	O
15	nechat	Vf--------A----P	nechat	O
16	pošlapat	Vf--------A----P	pošlapat	O
17	hladovým	AANS7----1A-----	hladový	O
18	hejnem	NNNS7-----A-----	hejno	O
19	kritiků	NNMP2-----A-----	kritik	O
20	Tvůj	PSIS1-S2--------	tvůj	O
21	zrak	NNIS1-----A-----	zrak	O
22	je	VB-S---3P-AA---I	být	O
23	drahá	AAFS1----1A-----	drahý	O
24	zarosen	VsMS---3P-AP---P	zarosit	O
25	Až	J,--------------	až	O
26	budeš	VB-S---2F-AA---I	být	O
27	míti	Vf--------A---2I	mít	O
28	na	RR--6-----------	na	O
29	té	PDFS6-----------	ten	O
30	skráni	NNFS6-----A-----	skráň	O
31	jen	TT--------------	jen	O
32	hrdý	AAIS1----1A-----	hrdý	O
33	úsměv	NNIS1-----A-----	úsměv	O
34	pohrdání	NNNS2-----A-----	pohrdání	O
35	pak	Db--------------	pak	O
36	v	RR--6-----------	v	O
37	největším	AANS6----3A-----	velký	O
38	tom	PDNS6-----------	ten	O
39	divadle	NNNS6-----A-----	divadlo	O
40	ti	PDMP1-----------	ten	O
41	život	X24-------------	život	O
42	kritik	X24-------------	kritik	O
43	zatleská	VB-S---3P-AA---P	zatleskat	O

