1	Je	VB-S---3P-AA---I	být	O
2	už	Db--------------	už	O
3	pozdě	Dg-------1A-----	pozdě	O
4	kol	NNNP2-----A-----	kolo	O
5	se	P7-X4-----------	se	O
6	stmívá	VB-S---3P-AA---I	stmívat	O
7	Vše	PLNS1---------1-	všechen	O
8	už	Db--------------	už	O
9	nudí	VB-S---3P-AA---I	nudit	O
10	Jde	VB-S---3P-AA---I	jít	O
11	se	P7-X4-----------	se	O
12	spat	Vf--------A----I	spát	O
13	Kol	NNNP2-----A-----	kolo	O
14	noc	NNFS1-----A-----	noc	O
15	tmavá	AAFS1----1A-----	tmavý	O
16	pustá	AAFS1----1A-----	pustý	O
17	lehla	VpFS---3R-AA--1P	lehnout	O
18	v	RR--4-----------	v	O
19	lidskou	AAFS4----1A-----	lidský	O
20	duši	NNFS4-----A-----	duše	O
21	smutek	NNIS1-----A-----	smutek	O
22	pad	X24-------------	pad´	O

