1	Kde	Db--------------	kde	O
2	však	J^--------------	však	O
3	to	PDNS1-----------	ten	O
4	jediné	AANS1----1A-----	jediný	O
5	ta	PDFS1-----------	ten	O
6	láska	NNFS1-----A-----	láska	O
7	pravá	AAFS1----1A-----	pravý	O
8	z	RR--2-----------	z	O
9	níž	P9FS2-----------	jenž	O
10	velké	AANS1----1A-----	velký	O
11	svaté	AANS1----1A-----	svatý	O
12	nadšení	NNNS1-----A-----	nadšení	O
13	se	P7-X4-----------	se	O
14	prýští	VB-S---3P-AA---I	prýštit	O
15	Kde	Db--------------	kde	O
16	ona	PDFS1-----------	onen	O
17	láska	NNFS1-----A-----	láska	O
18	nejsvětější	AAFS1----3A-----	svatý	O
19	z	RR--2-----------	z	O
20	níž	P9FS2-----------	jenž	O
21	ti	PH-S3--2--------	ty	O
22	naděje	NNFP4-----A-----	naděje	O
23	svitnout	Vf--------A----P	svitnout	O
24	může	VB-S---3P-AA---I	moci	O
25	do	RR--2-----------	do	O
26	mlhava	X24-------------	mlhava	O

