1	Hle	II--------------	hle	O
2	život	NNIS1-----A-----	život	O
3	náš	PSIS1-P1--------	náš	O
4	jak	Db--------------	jak	O
5	podoben	ACMS------A-----	podobný	O
6	je	VB-S---3P-AA---I	být	O
7	tomu	PDNS3-----------	ten	O
8	je	VB-S---3P-AA---I	být	O
9	pole	NNNS1-----A-----	pole	O
10	chudé	AANS1----1A-----	chudý	O
11	kamení	NNNS1-----A-----	kamení	O
12	a	J^--------------	a	O
13	skály	NNFP1-----A-----	skála	O
14	a	J^--------------	a	O
15	vzejde	VB-S---3P-AA---P	vzejít	O
16	úroda	NNFS1-----A-----	úroda	O
17	Jen	TT--------------	jen	O
18	strach	NNIS1-----A-----	strach	O
19	tu	Db------------1-	tu	O
20	stálý	AAIS1----1A-----	stálý	O
21	žeň	NNFS4-----A-----	žeň	O
22	chudou	AAFS4----1A-----	chudý	O
23	šťastně	Dg-------1A-----	šťastně	O
24	dostanem	VB-P---1P-AA--6P	dostat	O
25	li	J,--------------	li	O
26	domů	Db--------------	domů	O

