1	Hubené	AAFP1----1A-----	hubený	O
2	dvě	ClFP1-----------	dva	O
3	ruce	NNFP1-----A-----	ruka	O
4	bílé	AAFP1----1A-----	bílý	O
5	chvějí	VB-P---3P-AA--1I	chvět	O
6	se	P7-X4-----------	se	O
7	tvář	NNFS1-----A-----	tvář	O
8	siná	AAFS1----1A-----	siný	O
9	bledá	AAFS1----1A-----	bledý	O
10	zkameněl	VpIS---3R-AA---P	zkamenět	O
11	v	RR--6-----------	v	O
12	ní	P5FS6--3--------	on	O
13	výraz	NNIS1-----A-----	výraz	O
14	touhy	NNFS2-----A-----	touha	O
15	Mroucí	AGNS4-----A-----	mroucí	O
16	oko	NNNS4-----A-----	oko	O
17	vůkol	Db--------------	vůkol	O
18	hledá	VB-S---3P-AA---I	hledat	O
19	pohled	NNIS1-----A-----	pohled	O
20	ztrnulý	AAIS1----1A-----	strnulý	O
21	a	J^--------------	a	O
22	dlouhý	AAIS1----1A-----	dlouhý	O
23	utkvěl	VpIS---3R-AA---P	utkvět	O
24	kdesi	Db--------------	kdesi	O
25	v	RR--4-----------	v	O
26	daleku	ACFS4-----A-----	daleký	O

