1	Poušť	NNFS1-----A-----	poušť	O
2	je	VB-S---3P-AA---I	být	O
3	zprahlá	AAFS1----1A-----	zprahlý	O
4	bez	RR--2-----------	bez	O
5	vody	NNFS2-----A-----	voda	O
6	i	J^--------------	i	O
7	piva	NNNS2-----A-----	pivo	O
8	vysychá	VB-S---3P-AA---I	vysychat	O
9	i	J^--------------	i	O
10	v	RR--6-----------	v	O
11	hadu	NNMS6-----A---1-	had	O
12	zbytek	NNIS4-----A-----	zbytek	O
13	morku	NNIS2-----A-----	morek	O
14	Jenom	TT--------------	jenom	O
15	v	RR--6-----------	v	O
16	dáli	NNFS6-----A-----	dál	O
17	Memnon	X24-------------	Memnon	SUSPICIOUS_TYPE
18	v	RR--6-----------	v	O
19	poušti	NNFS6-----A-----	poušť	O
20	zpívá	VB-S---3P-AA---I	zpívat	O
21	že	J,--------------	že	O
22	se	P7-X4-----------	se	O
23	mu	PHMS3--3--------	on	O
24	chce	VB-S---3P-AA---I	chtít	O
25	zpívat	Vf--------A----I	zpívat	O
26	v	RR--6-----------	v	O
27	tomhle	PDNS6-----------	tenhle	O
28	horku	NNNS6-----A-----	horko	O

