1	Buď	J^--------------	buď	O
2	atamane	NNMS5-----A-----	ataman	O
3	zdráv	ACIS------A-----	zdravý	O
4	Hle	II--------------	hle	O
5	tedy	TT--------------	tedy	O
6	přec	Db------------2-	přece	O
7	nadarmo	Db--------------	nadarmo	O
8	nebyla	VpFS---3R-NA---I	být	O
9	ta	PDFS1-----------	ten	O
10	krušná	AAFS1----1A-----	krušný	O
11	práce	NNFS1-----A-----	práce	O
12	a	J^--------------	a	O
13	nepodlomen	VsMS---3R-NP---P	podlomit	O
14	chrabrý	AAMS1----1A-----	chrabrý	O
15	moloděc	NNMS1-----A-----	moloděc	O
16	dnes	Db--------------	dnes	O
17	dospěl	VpMS---2R-AA---P	dospět	O
18	Jsi	VB-S---2P-AA---I	být	O
19	ku	RV--3---------1-	k	O
20	let	NNNP2-----A-----	rok	O
21	svých	P8IP2-----------	svůj	O
22	padesátce	NNFS3-----A-----	padesátka	O

