1	Vše	PLNS1---------1-	všechen	O
2	zachvátí	VB-S---3P-AA---P	zachvátit	O
3	strach	NNIS4-----A-----	strach	O
4	proklatý	AAIS4----1A-----	proklatý	O
5	co	PQ--1-----------	co	O
6	nohy	NNFP4-----A-----	noha	O
7	má	VB-S---3P-AA---I	mít	O
8	i	J^--------------	i	O
9	pracky	NNFP4-----A-----	pracka	O
10	ubíhá	VB-S---3P-AA---I	ubíhat	O
11	kvočna	NNFS1-----A-----	kvočna	O
12	s	RR--7-----------	s	O
13	kuřaty	NNNP7-----A-----	kuře	O
14	i	J^--------------	i	O
15	kohout	NNMS1-----A-----	kohout	O
16	hrdý	AAMS1----1A-----	hrdý	O
17	čacký	AAMS1----1A-----	čacký	O

