1	Jak	Db--------------	jak	O
2	nezdá	VB-S---3P-NA---I	zdát	O
3	se	P7-X4-----------	se	O
4	vám	PP-P3--2--------	vy	O
5	slovíčko	NNNS1-----A-----	slovíčko	O
6	mi	PH-S3--1--------	já	O
7	říci	Vf--------A---1P	říci	O
8	Vy	PP-P1--2--------	vy	O
9	hněváte	VB-P---2P-AA---I	hněvat	O
10	se	P7-X4-----------	se	O
11	aj	II--------------	aj	O
12	to	PDNS1-----------	ten	O
13	vskutku	Db--------------	vskutku	O
14	pěkné	AANS1----1A-----	pěkný	O
15	Zatočil	VpIS---3R-AA---P	zatočit	O
16	knír	NNIS4-----A-----	knír	O
17	a	J^--------------	a	O
18	poslouchal	VpMS---3R-AA---I	poslouchat	O
19	co	PQ--4-----------	co	O
20	řekne	VB-S---3P-AA---P	říci	O
21	leč	J^--------------	leč	O
22	slyšel	VpIS---3R-AA---I	slyšet	O
23	pouze	Db--------------	pouze	O
24	stony	NNIP4-----A-----	ston	O
25	vzlykající	AGIP4-----A-----	vzlykající	O

