1	A	J^--------------	a	O
2	oni	PPMP1--3--------	oni	O
3	přec	Db------------2-	přece	O
4	ó	II--------------	ó	O
5	velcí	AAMP1----1A-----	velký	O
6	předci	NNMP1-----A-----	předek	O
7	malých	AAMP2----1A-----	malý	O
8	ne	TT--------------	ne	O
9	pro	RR--4-----------	pro	O
10	sebe	P6-X4-----------	se	O
11	však	J^--------------	však	O
12	pro	RR--4-----------	pro	O
13	vás	PP-P4--2--------	vy	O
14	pro	RR--4-----------	pro	O
15	budoucí	AAMP4----1A-----	budoucí	O
16	šli	VpMP---3R-AA---I	jít	O
17	dál	Dg-------2A-----	daleko	O
18	a	J^--------------	a	O
19	pili	VpMP---3R-AA---I	pít	O
20	utrpení	NNNS4-----A-----	utrpení	O
21	kalich	NNIS1-----A-----	kalich	O
22	až	J^--------------	až	O
23	velké	AANS1----1A-----	velký	O
24	srdce	NNNS1-----A-----	srdce	O
25	přestalo	VpNS---3R-AA---P	přestat	O
26	jim	PPNP3--3--------	oni	O
27	tlouci	Vf--------A---1I	tlouci	O
28	Ó	II--------------	ó	O
29	jaký	P4IS4-----------	jaký	O
30	v	RR--6-----------	v	O
31	jejich	PSFS6FP3--------	jejich	O
32	duši	NNFS6-----A-----	duše	O
33	to	PDNS1-----------	ten	O
34	zázrak	NNIS1-----A-----	zázrak	O
35	byl	VpIS---3R-AA---I	být	O
36	jenž	PJIS1-----------	jenž	O
37	na	RR--6-----------	na	O
38	trnité	AAFS6----1A-----	trnitý	O
39	pouti	NNFS6-----A-----	pouť	O
40	jich	PPIP2--3--------	oni	O
41	sílil	VpIS---3R-AA---I	sílit	O
42	a	J^--------------	a	O
43	jim	PPNP3--3--------	oni	O
44	nedal	VpMS---3R-NA---P	dát	O
45	poklesnouti	Vf--------A---2P	poklesnout	O
46	a	J^--------------	a	O
47	zoufati	Vf--------A---2I	zoufat	O
48	ni	J^--------------	ni	O
49	ve	RV--6-----------	v	O
50	žalářův	X24-------------	žalářův	O
51	hluši	X24-------------	hluši	O
52	že	J,--------------	že	O
53	věřili	VpMP---3R-AA---I	věřit	O
54	jak	Db--------------	jak	O
55	z	RR--2-----------	z	O
56	mužů	NNMP2-----A-----	muž	O
57	vzrostou	VB-P---3P-AA---P	vzrůst	O
58	v	RR--4-----------	v	O
59	obry	NNMP4-----A-----	obr	O
60	když	J,--------------	když	O
61	jejich	PSIS1NP3--------	jejich	O
62	boj	NNIS1-----A-----	boj	O
63	je	VB-S---3P-AA---I	být	O
64	poctivý	AAIS1----1A-----	poctivý	O
65	a	J^--------------	a	O
66	dobrý	AAIS1----1A-----	dobrý	O

