1	Tak	Db--------------	tak	O
2	vzpomenete	VB-P---2P-AA---P	vzpomenout	O
3	jen	TT--------------	jen	O
4	a	J^--------------	a	O
5	v	RR--6-----------	v	O
6	duši	NNFS6-----A-----	duše	O
7	neklid	NNIS4-----A-----	neklid	O
8	náhle	Dg-------1A-----	náhle	O
9	se	P7-X4-----------	se	O
10	divný	AAIS1----1A-----	divný	O
11	uhostil	VpIS---3R-AA---P	uhostit	O
12	a	J^--------------	a	O
13	stesk	NNIS4-----A-----	stesk	O
14	ó	II--------------	ó	O
15	stesk	NNIS4-----A-----	stesk	O
16	vám	PP-P3--2--------	vy	O
17	sedá	VB-S---3P-AA---I	sedat	O
18	stesk	NNIS4-----A-----	stesk	O
19	po	RR--6-----------	po	O
20	čems	PQ--6--2--------	co	O
21	neznámém	AANS6----1N-----	známý	O
22	v	RR--4-----------	v	O
23	to	PDNS4-----------	ten	O
24	nitro	NNNS4-----A-----	nitro	O
25	jako	J,--------------	jako	O
26	spráhlé	X24-------------	spráhlé	O
27	A	J^--------------	a	O
28	doma	Db--------------	doma	O
29	zůstati	Vf--------A---2P	zůstat	O
30	vám	PP-P3--2--------	vy	O
31	neklid	NNIS1-----A-----	neklid	O
32	v	RR--6-----------	v	O
33	duši	NNFS6-----A-----	duše	O
34	nedá	VB-S---3P-NA---P	dát	O

