1	Má	VB-S---3P-AA---I	mít	O
2	dneska	Db--------------	dneska	O
3	volno	NNNS4-----A-----	volno	O
4	nepílí	VB-S---3P-NA---I	pílit	O
5	grandseigneur	NNMS1-----A-----	grandseigneur	O
6	ve	RV--6-----------	v	O
7	všem	PLNS6-----------	všechen	O
8	pravý	AAIS1----1A-----	pravý	O
9	se	P7-X4-----------	se	O
10	v	RR--6-----------	v	O
11	zubech	NNIP6-----A-----	zub	O
12	šťárá	VB-S---3P-AA---I	šťárat	O
13	na	RR--4-----------	na	O
14	chvíli	NNFS4-----A-----	chvíle	O
15	a	J^--------------	a	O
16	zíváním	NNNS7-----A-----	zívání	O
17	se	P7-X4-----------	se	O
18	baví	VB-P---3P-AA---I	bavit	O
19	Nad	RR--7-----------	nad	O
20	věží	NNFS7-----A-----	věž	O
21	tíhne	VB-S---3P-AA---I	tíhnout	O
22	hejno	NNNS1-----A-----	hejno	O
23	vran	NNFP2-----A-----	vrána	O
24	na	RR--6-----------	na	O
25	střeše	NNFS6-----A-----	střecha	O
26	vrzne	VB-S---3P-AA---P	vrznout	O
27	korouhvička	NNFS1-----A-----	korouhvička	O
28	bohatýr	NNMS1-----A-----	bohatýr	O
29	ještě	Db--------------	ještě	O
30	chvíli	NNFS3-----A-----	chvíle	O
31	vyčká	VB-S---3P-AA---P	vyčkat	O
32	pak	Db--------------	pak	O
33	na	RR--4-----------	na	O
34	procházku	NNFS4-----A-----	procházka	O
35	jde	VB-S---3P-AA---I	jít	O
36	pan	NNMS1-----A-----	pan	O
37	Žán	X24-------------	Žán	SUSPICIOUS_TYPE

