1	Tak	Db--------------	tak	O
2	jdou	VB-P---3P-AA---I	jít	O
3	vás	PP-P4--2--------	vy	O
4	řady	NNFP1-----A-----	řada	O
5	nepřehledné	AAFP1----1N-----	přehledný	O
6	vy	PP-P1--2--------	vy	O
7	svěží	AANS1----1A-----	svěží	O
8	jaro	NNNS1-----A-----	jaro	O
9	velkých	AANP2----1A-----	velký	O
10	měst	NNNP2-----A-----	město	O
11	Tři	ClFP1-----------	tři	O
12	hodiny	NNFP1-----A-----	hodina	O
13	jsou	VB-P---3P-AA---I	být	O
14	odpoledne	Db--------------	odpoledne	O
15	a	J^--------------	a	O
16	krásně	Dg-------1A-----	krásně	O
17	jako	J,--------------	jako	O
18	z	RR--2-----------	z	O
19	jara	NNNS2-----A-----	jaro	O
20	jest	VB-S---3P-AA--2I	být	O

