1	Z	RR--2-----------	z	
2	Krkonoší	X24-------------	Krkonoší	SUSPICIOUS_TYPE
3	bouře	NNFS1-----A-----	bouře	
4	hrozí	VB-S---3P-AA---I	hrozit	
5	na	RR--6-----------	na	
6	Bělině	NNFS6-----A-----	Bělina	SUSPICIOUS_TYPE
7	skále	NNFS3-----A-----	skála	
8	v	RR--6-----------	v	
9	černých	AAIP6----1A-----	černý	
10	mracích	NNIP6-----A-----	mrak	
11	blesk	NNIS1-----A-----	blesk	
12	za	RR--7-----------	za	
13	bleskem	NNIS7-----A-----	blesk	
14	křižuje	VB-S---3P-AA---I	křižovat	
15	se	P7-X4-----------	se	
16	stále	Db--------------	stále	

