1	Tys	PP-S1--2P-AA----	ty	O
2	přišla	VpFS---2R-AA---P	přijít	O
3	krásná	AAFS1----1A-----	krásný	O
4	dobrá	AAFS1----1A-----	dobrý	O
5	milá	AAFS1----1A-----	milý	O
6	a	J^--------------	a	O
7	život	NNIS1-----A-----	život	O
8	můj	PSIS1-S1--------	můj	O
9	mé	PSIP1-S1------1-	můj	O
10	sny	NNIP1-----A-----	sen	O
11	a	J^--------------	a	O
12	dumy	NNFP1-----A-----	duma	O
13	jsi	VB-S---2P-AA---I	být	O
14	tichou	AAFS7----1A-----	tichý	O
15	září	NNFS7-----A-----	záře	O
16	vyzlatila	VpFS---2R-AA---P	vyzlatit	O
17	jak	Db--------------	jak	O
18	jenom	TT--------------	jenom	O
19	láska	NNFS1-----A-----	láska	O
20	umí	VB-S---3P-AA---B	umět	O

