1	Ros	NNFP2-----A-----	rosa	O
2	marné	AANS1----1A-----	marný	O
3	bohatství	NNNS1-----A-----	bohatství	O
4	jež	PJNS1-----------	jenž	O
5	bílý	AAIS1----1A-----	bílý	O
6	požár	NNIS1-----A-----	požár	O
7	žehne	VB-S---3P-AA---I	žehnout	O
8	a	J^--------------	a	O
9	v	RR--6-----------	v	O
10	slzách	NNFP6-----A-----	slza	O
11	ohnivých	AAFP6----1A-----	ohnivý	O
12	na	RR--6-----------	na	O
13	ňadrech	NNNP6-----A-----	ňadro	O
14	květů	NNIP2-----A-----	květ	O
15	pálí	VB-S---3P-AA---I	pálit	O
16	i	J^--------------	i	O
17	výheň	NNFS1-----A-----	výheň	O
18	západů	NNIP2-----A-----	západ	O
19	jež	PJFS1-----------	jenž	O
20	teplou	AAFS7----1A-----	teplý	O
21	krví	NNFS7-----A-----	krev	O
22	šlehne	VB-S---3P-AA---P	šlehnout	O
23	jak	Db--------------	jak	O
24	z	RR--2-----------	z	O
25	poraněných	AAFP2----1A-----	poraněný	O
26	žil	NNFP2-----A-----	žíla	O
27	by	Vc-------------I	být	O
28	stříkala	VpNP---3R-AA---I	stříkat	O
29	ti	PH-S3--2--------	ty	O
30	dálí	NNFP2-----A-----	dál	O

