1	Jen	TT--------------	jen	O
2	jedněch	ChFP2-----------	jeden	O
3	očí	NNFP2-----A-----	oko	O
4	pozdravení	NNNS2-----A-----	pozdravení	O
5	vlídné	AANS1----1A-----	vlídný	O
6	tam	Db--------------	tam	O
7	nekmitne	VB-S---3P-NA---P	kmitnout	O
8	mi	PH-S3--1--------	já	O
9	letos	Db--------------	letos	O
10	nikdy	Db--------------	nikdy	O
11	víc	Dg-------2A---1-	hodně	O
12	a	J^--------------	a	O
13	té	PDFS3-----------	ten	O
14	tam	Db--------------	tam	O
15	oko	NNNS4-----A-----	oko	O
16	nikdy	Db--------------	nikdy	O
17	nezahlídne	VB-S---3P-NA---P	zahlédnout	O
18	jíž	PJFS7-----------	jenž	O
19	s	RR--7-----------	s	O
20	růžemi	NNFP7-----A-----	růže	O
21	jsem	VB-S---1P-AA---I	být	O
22	loni	Db------------1-	vloni	O
23	chodil	VpMS---1R-AA---I	chodit	O
24	vstříc	Db--------------	vstříc	O

