1	Ó	II--------------	ó	O
2	zašeptej	Vi-S---2--A----P	zašeptat	O
3	ó	II--------------	ó	O
4	rci	Vi-S---2--A----P	říci	O
5	že	J,--------------	že	O
6	to	PDNS1-----------	ten	O
7	snem	NNIS7-----A-----	sen	O
8	že	J,--------------	že	O
9	nemožné	AANS1----1N-----	možný	O
10	to	PDNS4-----------	ten	O
11	by	Vc-------------I	být	O
12	tak	Db--------------	tak	O
13	tak	Db--------------	tak	O
14	příliš	Db--------------	příliš	O
15	záhy	Db--------------	záhy	O
16	ti	PDMP1-----------	ten	O
17	žití	AAMP1----1A-----	žitý	O
18	prchlo	VpNS---3R-AA--1P	prchnout	O
19	léto	NNNS4-----A-----	léto	O

