1	Umřely	VpFP---3R-AA---P	umřít	O
2	mu	PHMS3--3--------	on	O
3	staré	AAFP1----1A-----	starý	O
4	tetky	NNFP1-----A-----	tetka	O
5	dědil	VpIS---3R-AA---I	dědit	O
6	Honem	Db--------------	honem	O
7	pro	RR--4-----------	pro	O
8	baletky	NNFP4-----A-----	baletka	O
9	Kočár	NNIS1-----A-----	kočár	O
10	sem	Db--------------	sem	O
11	a	J^--------------	a	O
12	hned	Db--------------	hned	O

