1	To	PDNS1-----------	ten	O
2	tedy	TT--------------	tedy	O
3	květy	NNIP1-----A-----	květ	O
4	tvé	PSFS2-S2------1-	tvůj	O
5	z	RR--2-----------	z	O
6	nichž	P9IP2-----------	jenž	O
7	v	RR--6-----------	v	O
8	plese	NNIS6-----A-----	ples	O
9	svatební	AAIS1----1A-----	svatební	O
10	vínek	NNIS1-----A-----	vínek	O
11	dětských	AAFP2----1A-----	dětský	O
12	her	NNFP2-----A-----	hra	O
13	jste	VB-P---2P-AA---I	být	O
14	splétávali	VpMP---2R-AA---I	splétávat	O
15	v	RR--4-----------	v	O
16	podvečer	NNIS4-----A-----	podvečer	O
17	to	PDNS4-----------	ten	O
18	vínek	NNIS1-----A-----	vínek	O
19	tvůj	PSIS1-S2--------	tvůj	O
20	jejž	PJIS4---------1-	jenž	O
21	tobě	PP-S3--2--------	ty	O
22	nese	VB-S---3P-AA---I	nést	O
23	tvá	PSFS1-S2------1-	tvůj	O
24	družička	NNFS1-----A-----	družička	O
25	jej	PPIS4--3------2-	on	O
26	nese	VB-S---3P-AA---I	nést	O
27	ti	PH-S3--2--------	ty	O

