1	To	PDNS1-----------	ten	O
2	ty	PP-S1--2--------	ty	O
3	jsi	VB-S---2P-AA---I	být	O
4	která	P4NP4-----------	který	O
5	štěstí	NNNP4-----A-----	štěstí	O
6	kdy	Db--------------	kdy	O
7	dechem	NNIS7-----A-----	dech	O
8	kol	RR--2-----------	kol	O
9	mých	PSFP2-S1--------	můj	O
10	skrání	NNFP2-----A-----	skráň	O
11	chvěla	VpFS---3R-AA---I	chvět	O
12	je	PPFP4--3--------	oni	O
13	růží	NNFS7-----A-----	růže	O
14	lásky	NNFS2-----A-----	láska	O
15	ovíjela	VpFS---3R-AA---I	ovíjet	O
16	i	J^--------------	i	O
17	lauru	X24-------------	lauru	O
18	ratolestí	NNFS7-----A-----	ratolest	O

