1	Tvé	PSIP4-S2------1-	tvůj	O
2	rtíky	NNIP4-----A-----	rtík	O
3	sotva	Db--------------	sotva	O
4	uviděl	VpIS---3R-AA---P	uvidět	O
5	zaplesal	VpIS---3R-AA---P	zaplesat	O
6	v	RR--4-----------	v	O
7	kraje	NNIP4-----A-----	kraj	O
8	myslil	VpIS---3R-AA--1I	myslet	O
9	že	J,--------------	že	O
10	první	CrMP1-----------	první	O
11	na	RR--6-----------	na	O
12	sněhu	NNIS6-----A-----	sníh	O
13	jahoda	NNFS1-----A-----	jahoda	O
14	zraje	VB-S---3P-AA---I	zrát	O

