1	Já	PP-S1--1--------	já	O
2	zřím	VB-S---1P-AA---I	zřít	O
3	jej	PPMS4--3------2-	on	O
4	v	RR--6-----------	v	O
5	myšlénkách	NNFP6-----A-----	myšlénka	O
6	za	RR--4-----------	za	O
7	kolik	C?--4-----------	kolik	O
8	dlouhých	AAIP2----1A-----	dlouhý	O
9	roků	NNIP2-----A-----	rok	O
10	jde	VB-S---3P-AA---I	jít	O
11	hrdě	Dg-------1A-----	hrdě	O
12	jako	J,--------------	jako	O
13	král	NNMS1-----A-----	král	O
14	v	RR--6-----------	v	O
15	svém	P8IS6-----------	svůj	O
16	chudém	AAIS6----1A-----	chudý	O
17	haveloku	NNIS6-----A-----	havelok	O
18	na	RR--6-----------	na	O
19	vlasů	NNIP2-----A-----	vlas	O
20	kučerách	NNFP6-----A-----	kučera	O
21	jež	PJFP4-----------	jenž	O
22	volně	Dg-------1A-----	volně	O
23	růsti	Vf--------A---2I	růst	O
24	nechá	VB-S---3P-AA---P	nechat	O
25	se	P7-X4-----------	se	O
26	houpá	VB-S---3P-AA---I	houpat	O
27	při	RR--6-----------	při	O
28	chůzi	NNFS6-----A-----	chůze	O
29	širáku	NNIS2-----A-----	širák	O
30	mastná	AAFS1----1A-----	mastný	O
31	střecha	NNFS1-----A-----	střecha	O

