1	Jak	Db--------------	jak	O
2	nad	RR--7-----------	nad	O
3	hlavou	NNFS7-----A-----	hlava	O
4	když	J,--------------	když	O
5	zahoří	VB-S---3P-AA---P	zahořet	O
6	v	RR--4-----------	v	O
7	to	PDNS4-----------	ten	O
8	žhavé	AANS4----1A-----	žhavý	O
9	odpoledne	NNNS4-----A-----	odpoledne	O
10	vše	PLNS1---------1-	všechen	O
11	utíká	VB-S---3P-AA---I	utíkat	O
12	jak	Db--------------	jak	O
13	tenoři	NNMP1-----A---1-	tenor	O
14	když	J,--------------	když	O
15	zas	Db--------------	zas	O
16	to	PDNS4-----------	ten	O
17	na	RR--4-----------	na	O
18	ně	P5MP4--3--------	oni	O
19	sedne	VB-S---3P-AA---P	sednout	O

