1	A	J^--------------	a	O
2	pták	NNMS1-----A-----	pták	O
3	zlatý	NNMS1-----A-----	zlatý	O
4	který	P4MS1-----------	který	O
5	nyje	VB-S---3P-AA---I	nýt	O
6	rozkoší	NNFS7-----A-----	rozkoš	O
7	i	J^--------------	i	O
8	touhou	NNFS7-----A-----	touha	O
9	hle	II--------------	hle	O
10	mne	PP-S4--1--------	já	O
11	vítá	VB-S---3P-AA---I	vítat	O
12	u	RR--2-----------	u	O
13	pinie	NNFS2-----A-----	pinie	O
14	písní	NNFS7-----A-----	píseň	O
15	dlouhou	AAFS7----1A-----	dlouhý	O

