1	I	J^--------------	i	O
2	to	PDNS1-----------	ten	O
3	však	J^--------------	však	O
4	rovněž	TT--------------	rovněž	O
5	možno	ACNS------A-----	možný	O
6	jest	VB-S---3P-AA--2I	být	O
7	že	J,--------------	že	O
8	někde	Db--------------	někde	O
9	v	RR--6-----------	v	O
10	boží	AAFS6----1A-----	boží	O
11	bázni	NNFS6-----A-----	bázeň	O
12	za	RR--7-----------	za	O
13	džbánkem	NNIS7-----A-----	džbánek	O
14	džbánek	NNIS1-----A-----	džbánek	O
15	o	RR--4-----------	o	O
16	sto	ClNS4-----------	sto	O
17	šest	Cn-S4-----------	šest	O
18	snad	TT--------------	snad	O
19	někde	Db--------------	někde	O
20	dále	Db------------1-	dále	O
21	prázdní	AAMP1----1A-----	prázdný	O

