1	Ó	II--------------	ó	O
2	věřte	Vi-P---2--A----I	věřit	O
3	paní	NNFS5-----A-----	paní	O
4	když	J,--------------	když	O
5	vás	PP-P4--2--------	vy	O
6	vidím	VB-S---1P-AA---I	vidět	O
7	ač	J,--------------	ač	O
8	zachví	VB-S---3P-AA---P	zachvět	O
9	to	PDNS1-----------	ten	O
10	přec	Db------------2-	přece	O
11	někdy	Db--------------	někdy	O
12	mnou	PP-S7--1--------	já	O
13	že	J,--------------	že	O
14	vám	PP-P3--2--------	vy	O
15	ni	J^--------------	ni	O
16	muži	NNMS3-----A-----	muž	O
17	nezávidím	VB-S---1P-NA---I	závidět	O
18	tu	PDFS4-----------	ten	O
19	lásku	NNFS4-----A-----	láska	O
20	vaši	PSFS4-P2--------	váš	O
21	ohromnou	AAFS4----1A-----	ohromný	O

