1	Kdys	Db--------------	kdys	O
2	dávno	Dg-------1A-----	dávno	O
3	viděl	VpMS---1R-AA---I	vidět	O
4	jsem	VB-S---1P-AA---I	být	O
5	tu	Db------------1-	tu	O
6	illustraci	X24-------------	illustraci	O
7	vždy	Db--------A-----	vždy	O
8	znovu	Db--------------	znovu	O
9	do	RR--2-----------	do	O
10	mých	PSFP2-S1--------	můj	O
11	vzpomínek	NNFP2-----A-----	vzpomínka	O
12	se	P7-X4-----------	se	O
13	vrací	VB-S---3P-AA---I	vracet	O

