1	Klid	NNIS1-----A-----	klid	O
2	bílých	AAFP2----1A-----	bílý	O
3	linií	NNFP2-----A-----	linie	O
4	se	P7-X4-----------	se	O
5	tíše	X24-------------	tíše	O
6	krajem	NNIS7-----A-----	kraj	O
7	snoval	VpIS---3R-AA---I	snovat	O
8	v	RR--4-----------	v	O
9	šat	NNIS4-----A-----	šat	O
10	slabě	Dg-------1A-----	slabě	O
11	vzdmutých	AAFP2----1A-----	vzdmutý	O
12	ploch	NNFP2-----A-----	plocha	O
13	a	J^--------------	a	O
14	lesů	NNIP2-----A-----	les	O
15	mrtvým	AAMP3----1A-----	mrtvý	O
16	ladem	Db--------------	ladem	O
17	let	NNIS1-----A-----	let	O
18	ptáků	NNMP2-----A-----	pták	O
19	v	RR--6-----------	v	O
20	azuru	NNIS6-----A-----	azur	O
21	čar	NNFP2-----A-----	čára	O
22	sítě	NNFS2-----A-----	síť	O
23	nerýsoval	VpIS---3R-NA---I	rýsovat	O
24	dech	NNIS1-----A-----	dech	O
25	živých	AAIP2----1A-----	živý	O
26	nesrážel	VpIS---3R-NA---I	srážet	O
27	se	P7-X4-----------	se	O
28	v	RR--4-----------	v	O
29	bílou	AAFS4----1A-----	bílý	O
30	páru	NNFS4-----A-----	pára	O
31	chladem	NNIS7-----A-----	chlad	O

