1	Zahrádkou	NNFS7-----A-----	zahrádka	O
2	i	J^--------------	i	O
3	polem	NNNS7-----A-----	pólo	O
4	trhali	VpMP---1R-AA---I	trhat	O
5	jsme	VB-P---1P-AA---I	být	O
6	kolem	Db--------------	kolem	O
7	pomněnky	NNFP1-----A-----	pomněnka	O
8	i	J^--------------	i	O
9	modrý	AAIS1----1A-----	modrý	O
10	vřes	NNIS1-----A-----	vřes	O
11	snášeli	VpMP---3R-AA---I	snášet	O
12	si	P7-X3-----------	se	O
13	modré	AANS4----1A-----	modrý	O
14	s	RR--2-----------	s	O
15	nebe	NNNS2-----A-----	nebe	O
16	rádi	ACMP------A-----	rád	O
17	byli	VpMP---3R-AA---I	být	O
18	vedle	RR--2-----------	vedle	O
19	sebe	P6-X2-----------	se	O
20	tak	Db--------------	tak	O
21	rádi	ACMP------A-----	rád	O
22	jako	J,--------------	jako	O
23	dnes	Db--------------	dnes	O

