1	Bez	RR--2-----------	bez	O
2	smutných	AAFP2----1A-----	smutný	O
3	očí	NNFP2-----A-----	oko	O
4	tvých	PSFP2-S2--------	tvůj	O
5	mě	PH-S4--1--------	já	O
6	pouští	VB-S---3P-AA---I	pouštět	O
7	celý	AAIS1----1A-----	celý	O
8	svět	NNIS1-----A-----	svět	O
9	bez	RR--2-----------	bez	O
10	smutných	AAFP2----1A-----	smutný	O
11	očí	NNFP2-----A-----	oko	O
12	tvých	PSFP2-S2--------	tvůj	O
13	bych	Vc-S---1-------I	být	O
14	touhou	NNFS7-----A-----	touha	O
15	umřel	VpMS---1R-AA---P	umřít	O
16	hned	Db--------------	hned	O

