1	Lecjaké	PZIP1-----------	lecjaký	O
2	zjevy	NNIP1-----A-----	zjev	O
3	se	P7-X4-----------	se	O
4	vyskytnou	VB-P---3P-AA---P	vyskytnout	O
5	v	RR--6-----------	v	O
6	okruhu	NNIS6-----A-----	okruh	O
7	nebeských	AANP2----1A-----	nebeský	O
8	těles	NNNP2-----A-----	těleso	O
9	kde	Db--------------	kde	O
10	srážka	NNFS1-----A-----	srážka	O
11	tří	ClFP2-----------	tři	O
12	hmot	NNFP2-----A-----	hmota	O
13	je	VB-S---3P-AA---I	být	O
14	nezbytnou	AAFS7----1A-----	nezbytný	O
15	ty	PDFP1-----------	ten	O
16	čtvrtý	CrFP1---------6-	čtvrtý	O
17	mezi	RR--4-----------	mezi	O
18	ně	P5MP4--3--------	oni	O
19	nelez	X24-------------	nelez´	O

