1	Však	J^--------------	však	O
2	viděl	VpMS---3R-AA---I	vidět	O
3	po	RR--6-----------	po	O
4	čase	NNIS6-----A-----	čas	O
5	jak	Db--------------	jak	O
6	láme	VB-S---3P-AA---I	lámat	O
7	se	P7-X4-----------	se	O
8	a	J^--------------	a	O
9	tříští	VB-S---3P-AA---I	tříštit	O
10	ten	PDIS1-----------	ten	O
11	jeho	PSIS1XS3--------	jeho	O
12	ideál	NNIS1-----A-----	ideál	O
13	člověka	NNMS2-----A-----	člověk	O
14	šťastným	AAMS7----1A-----	šťastný	O
15	zříti	Vf--------A---2I	zřít	O
16	na	RR--4-----------	na	O
17	bratra	NNMS4-----A-----	bratr	O
18	vlastního	AAMS4----1A-----	vlastní	O
19	se	P7-X4-----------	se	O
20	s	RR--7-----------	s	O
21	mečem	NNIS7-----A-----	meč	O
22	v	RR--6-----------	v	O
23	ruce	NNFS6-----A-----	ruka	O
24	řítí	VB-S---3P-AA---I	řítit	O
25	že	J,--------------	že	O
26	z	RR--2-----------	z	O
27	otevřených	AAFP2----1A-----	otevřený	O
28	ran	NNFP2-----A-----	rána	O
29	krev	NNFS1-----A-----	krev	O
30	rudá	AAFS1----1A-----	rudý	O
31	v	RR--4-----------	v	O
32	zem	NNFS4-----A---1-	země	O
33	se	P7-X4-----------	se	O
34	prýští	VB-S---3P-AA---I	prýštit	O

