1	A	J^--------------	a	O
2	vzpomíná	VB-S---3P-AA---I	vzpomínat	O
3	co	PQ--1-----------	co	O
4	bylo	VpNS---3R-AA---I	být	O
5	kdys	Db--------------	kdys	O
6	a	J^--------------	a	O
7	hledí	VB-S---3P-AA---I	hledět	O
8	do	RR--2-----------	do	O
9	té	PDFS2-----------	ten	O
10	knížky	NNFS2-----A-----	knížka	O
11	a	J^--------------	a	O
12	líbá	VB-S---3P-AA---I	líbat	O
13	drahý	AAIS4----1A-----	drahý	O
14	rukopis	NNIS4-----A-----	rukopis	O
15	tři	ClIP1-----------	tři	O
16	bohatýrské	AAIP1----1A-----	bohatýrský	O
17	křížky	NNIP1-----A-----	křížek	O

