1	Sám	PLIS1-----------	sám	O
2	v	RR--6-----------	v	O
3	tiché	AAFS6----1A-----	tichý	O
4	klausuře	NNFS6-----A-----	klausura	O
5	jsem	VB-S---1P-AA---I	být	O
6	počet	NNIS4-----A-----	počet	O
7	žití	NNNS2-----A-----	žití	O
8	řešil	VpMS---1R-AA---I	řešit	O
9	a	J^--------------	a	O
10	jenom	TT--------------	jenom	O
11	nad	RR--7-----------	nad	O
12	svých	P8IP2-----------	svůj	O
13	snů	NNIP2-----A-----	sen	O
14	jsem	VB-S---1P-AA---I	být	O
15	záhonem	NNIS7-----A-----	záhon	O
16	se	P7-X4-----------	se	O
17	shýbal	VpMS---1R-AA---I	shýbat	O
18	víc	Dg-------2A---1-	hodně	O
19	nežli	J,--------------	nežli	O
20	v	RR--6-----------	v	O
21	životě	NNIS6-----A-----	život	O
22	jen	TT--------------	jen	O
23	v	RR--6-----------	v	O
24	myšlenkách	NNFP6-----A-----	myšlenka	O
25	jsem	VB-S---1P-AA---I	být	O
26	hřešil	VpMS---1R-AA---I	hřešit	O
27	a	J^--------------	a	O
28	přelud	NNIS4-----A-----	přelud	O
29	miloval	VpIS---3R-AA---I	milovat	O
30	a	J^--------------	a	O
31	páru	NNIS3-----A-----	pár	O
32	tuh	NNFP2-----A-----	tuha	O
33	svých	P8FP2-----------	svůj	O
34	líbal	VpMS---3R-AA---I	líbat	O

