1	Vím	VB-S---1P-AA---I	vědět	O
2	den	NNIS4-----A-----	den	O
3	můj	PSMS1-S1--------	můj	O
4	k	RR--3-----------	k	O
5	večeru	NNIS3-----A-----	večer	O
6	se	P7-X4-----------	se	O
7	chýlí	VB-S---3P-AA---I	chýlit	O
8	den	NNIS1-----A-----	den	O
9	Váš	PSIS1-P2--------	váš	O
10	se	P7-X4-----------	se	O
11	teprv	Db--------------	teprve	O
12	rozední	VB-S---3P-AA---P	rozednít	O
13	ó	II--------------	ó	O
14	zůstaň	Vi-S---2--A----P	zůstat	O
15	se	RV--7-----------	s	O
16	mnou	PP-S7--1--------	já	O
17	zůstaň	Vi-S---2--A----P	zůstat	O
18	chvíli	NNFS3-----A-----	chvíle	O
19	má	PSFS5-S1------1-	můj	O
20	svatá	AAFS5----1A-----	svatý	O
21	lásko	NNFS5-----A-----	láska	O
22	poslední	AAFS5----1A-----	poslední	O

