1	Od	RR--2-----------	od	O
2	rána	NNNS2-----A-----	ráno	O
3	až	TT--------------	až	O
4	ku	RV--3---------1-	k	O
5	večeru	NNIS3-----A-----	večer	O
6	bez	RR--2-----------	bez	O
7	oddechu	NNIS2-----A-----	oddech	O
8	známá	AAFS1----1A-----	známý	O
9	věc	NNFS1-----A-----	věc	O
10	jako	J,--------------	jako	O
11	blázen	NNMS1-----A-----	blázen	O
12	dře	VB-S---3P-AA---I	dřít	O
13	se	P7-X4-----------	se	O
14	věru	Db--------------	věru	O
15	malinký	AAMS1----1A-----	malinký	O
16	ten	PDMS1-----------	ten	O
17	mravenec	NNMS1-----A-----	mravenec	O

