1	A	J^--------------	a	O
2	je	VB-S---3P-AA---I	být	O
3	to	PDNS1-----------	ten	O
4	sen	NNIS1-----A-----	sen	O
5	a	J^--------------	a	O
6	myšlénka	NNFS1-----A-----	myšlénka	O
7	a	J^--------------	a	O
8	je	VB-S---3P-AA---I	být	O
9	to	PDNS1-----------	ten	O
10	lidské	AANS1----1A-----	lidský	O
11	snění	NNNS1-----A-----	snění	O
12	jež	PJNS1-----------	jenž	O
13	těší	VB-S---3P-AA---I	těšit	O
14	dál	Db--------------	dále	O
15	když	J,--------------	když	O
16	spásy	NNFS2-----A-----	spása	O
17	už	Db--------------	už	O
18	víc	Dg-------2A---1-	hodně	O
19	není	VB-S---3P-NA---I	být	O
20	není	VB-S---3P-NA---I	být	O
21	není	VB-S---3P-NA---I	být	O

