1	A	J^--------------	a	O
2	tak	Db--------------	tak	O
3	ji	PPFS4--3--------	ona	O
4	vídám	VB-S---1P-AA---I	vídat	O
5	jak	Db--------------	jak	O
6	skráň	NNFS4-----A-----	skráň	O
7	v	RR--6-----------	v	O
8	dumách	NNFP6-----A-----	duma	O
9	kloní	VB-S---3P-AA---I	klonit	O
10	a	J^--------------	a	O
11	v	RR--6-----------	v	O
12	duši	NNFS6-----A-----	duše	O
13	nevím	VB-S---1P-NA---I	vědět	O
14	proč	Db--------------	proč	O
15	zbyl	VpIS---3R-AA---P	zbýt	O
16	smutek	NNIS1-----A-----	smutek	O
17	po	RR--6-----------	po	O
18	ní	P5FS6--3--------	on	O

