1	I	J^--------------	i	O
2	tenkrát	Db--------------	tenkrát	O
3	zklamán	VsMS---3R-AP---P	zklamat	O
4	byv	VmMS------A----I	být	O
5	genius	NNMS1-----A-----	genius	O
6	v	RR--6-----------	v	O
7	hoři	NNNS6-----A-----	hoře	O
8	maně	Db--------------	maně	O
9	na	RR--4-----------	na	O
10	dávný	AAIS4----1A-----	dávný	O
11	vzpomněl	VpIS---3R-AA---P	vzpomenout	O
12	ráj	NNIS4-----A-----	ráj	O
13	O	RR--6-----------	o	O
14	velkosti	NNFS6-----A-----	velkost	O
15	sen	NNIS1-----A-----	sen	O
16	krátký	AAIS1----1A-----	krátký	O
17	již	Db--------------	již	O
18	dosnil	VpIS---3R-AA---P	dosnít	O
19	v	RR--6-----------	v	O
20	duši	NNFS6-----A-----	duše	O
21	své	P8FS2---------1-	svůj	O
22	a	J^--------------	a	O
23	navracel	VpMS---3R-AA---I	navracet	O
24	se	P7-X4-----------	se	O
25	zpátky	Db--------------	zpátky	O
26	ku	RV--3---------1-	k	O
27	branám	NNFP3-----A---1-	brána	O
28	ráje	NNIS2-----A-----	ráj	O
29	zas	Db--------------	zas	O
30	nadarmo	Db--------------	nadarmo	O
31	bušil	VpIS---3R-AA---I	bušit	O
32	na	RR--4-----------	na	O
33	ně	P5MP4--3--------	oni	O

