1	Do	RR--2-----------	do	O
2	výkladních	AAFP2----1A-----	výkladní	O
3	skříní	NNFP2-----A-----	skříň	O
4	zahledím	VB-S---1P-AA---P	zahledět	O
5	se	P7-X4-----------	se	O
6	rád	ACMS------A-----	rád	O
7	Co	PQ--1-----------	co	O
8	v	RR--6-----------	v	O
9	nich	P5FP6--3--------	oni	O
10	pokladů	NNIP2-----A-----	poklad	O
11	se	P7-X4-----------	se	O
12	kryje	VB-S---3P-AA---I	krýt	O
13	Ale	J^--------------	ale	O
14	jaké	P4FP4-----------	jaký	O
15	historie	NNFP4-----A-----	historie	O
16	čteš	VB-S---2P-AA---I	číst	O
17	tam	Db--------------	tam	O
18	kolikrát	Co--------------	kolikrát	O

