1	A	J^--------------	a	O
2	bylo	VpNS---3R-AA---I	být	O
3	ráno	NNNS1-----A-----	ráno	O
4	poznovu	Db--------------	poznovu	O
5	a	J^--------------	a	O
6	třetí	CrNS1-----------	třetí	O
7	čtvrté	CrNS1-----------	čtvrtý	O
8	páté	CrNS1-----------	pátý	O
9	však	J^--------------	však	O
10	na	RR--6-----------	na	O
11	cestě	NNFS6-----A-----	cesta	O
12	k	RR--3-----------	k	O
13	jich	PPIP2--3--------	oni	O
14	domovu	NNIS3-----A-----	domov	O
15	kumpánů	NNMP2-----A-----	kumpán	O
16	nepotkáte	VB-P---2P-NA---P	potkat	O

