1	I	J^--------------	i	O
2	šel	VpMS---3R-AA---I	jít	O
3	a	J^--------------	a	O
4	uviděl	VpMS---3R-AA---P	uvidět	O
5	jak	Db--------------	jak	O
6	zatím	Db--------------	zatím	O
7	lidé	NNMP1-----A---1-	člověk	O
8	sami	PLMP1-----------	sám	O
9	si	P7-X3-----------	se	O
10	bohy	NNMP4-----A-----	bůh	O
11	stvořili	VpMP---3R-AA---P	stvořit	O
12	jak	Db--------------	jak	O
13	blud	NNIS1-----A-----	blud	O
14	jich	PPIP2--3--------	oni	O
15	srdce	NNNS4-----A-----	srdce	O
16	svírá	VB-S---3P-AA---I	svírat	O
17	zřel	VpIS---3R-AA---I	zřít	O
18	kterak	Db--------------	kterak	O
19	prázdnou	AAFS7----1A-----	prázdný	O
20	je	VB-S---3P-AA---I	být	O
21	těch	PDFP2-----------	ten	O
22	pobloudilých	AAFP2----1A-----	pobloudilý	O
23	víra	NNFS1-----A-----	víra	O
24	když	J,--------------	když	O
25	v	RR--6-----------	v	O
26	prachu	NNIS6-----A-----	prach	O
27	skláněli	VpMP---3R-AA---I	sklánět	O
28	svá	P8NP4---------1-	svůj	O
29	čela	NNNP4-----A-----	čelo	O
30	před	RR--7-----------	před	O
31	modlami	NNFP7-----A-----	modla	O

