1	A	J^--------------	a	O
2	dřív	Dg-------2A---5-	brzy	O
3	snad	TT--------------	snad	O
4	než	J,--------------	než	O
5	na	RR--4-----------	na	O
6	zemi	NNFS4-----A-----	země	O
7	chudé	AAMP4----1A-----	chudý	O
8	ten	PDIS1-----------	ten	O
9	první	CrIS1-----------	první	O
10	lupen	NNIS1-----A-----	lupen	O
11	věnce	NNIS2-----A-----	věnec	O
12	svad	X24-------------	svad	O
13	má	PSFS1-S1------1-	můj	O
14	sladká	AAFS1----1A-----	sladký	O
15	paní	NNFS1-----A-----	paní	O
16	dál	Db--------------	dále	O
17	se	P7-X4-----------	se	O
18	bude	VB-S---3F-AA---I	být	O
19	jak	Db--------------	jak	O
20	dnes	Db--------------	dnes	O
21	tak	Db--------------	tak	O
22	vlídně	Dg-------1A-----	vlídně	O
23	usmívat	Vf--------A----I	usmívat	O

