1	Za	RR--4-----------	za	O
2	lásku	NNFS4-----A-----	láska	O
3	hlubokou	AAFS4----1A-----	hluboký	O
4	kterou	P4FS4-----------	který	O
5	jsi	VB-S---2P-AA---I	být	O
6	měla	VpFS---2R-AA---I	mít	O
7	za	RR--4-----------	za	O
8	slova	NNNP4-----A-----	slovo	O
9	upřímná	AANP1----1A-----	upřímný	O
10	sladká	AAFS1----1A-----	sladký	O
11	a	J^--------------	a	O
12	vřelá	AAFS1----1A-----	vřelý	O

