1	Nutí	VB-S---3P-AA---I	nutit	O
2	mne	PP-S4--1--------	já	O
3	to	PDNS1-----------	ten	O
4	vichru	NNIS3-----A-----	vichr	O
5	říci	Vf--------A---1P	říci	O
6	bratře	NNMS5-----A-----	bratr	O
7	nutí	VB-S---3P-AA---I	nutit	O
8	mne	PP-S4--1--------	já	O
9	to	PDNS1-----------	ten	O
10	bouři	NNFS4-----A-----	bouře	O
11	sestro	NNFS5-----A-----	sestra	O
12	říci	Vf--------A---1P	říci	O
13	o	RR--4-----------	o	O
14	hrob	NNIS4-----A-----	hrob	O
15	zemi	NNFS3-----A-----	země	O
16	a	J^--------------	a	O
17	zas	Db--------------	zas	O
18	o	RR--4-----------	o	O
19	blesk	NNIS4-----A-----	blesk	O
20	mrakům	NNIP3-----A-----	mrak	O
21	a	J^--------------	a	O
22	mám	VB-S---1P-AA---I	mít	O
23	vše	PLNS4---------1-	všechen	O
24	v	RR--6-----------	v	O
25	té	PDFS6-----------	ten	O
26	skráni	NNFS6-----A-----	skráň	O
27	sálající	AGFP4-----A-----	sálající	O

