1	A	J^--------------	a	O
2	já	PP-S1--1--------	já	O
3	se	P7-X4-----------	se	O
4	modlit	Vf--------A----I	modlit	O
5	musím	VB-S---1P-AA---I	muset	O
6	dnes	Db--------------	dnes	O
7	a	J^--------------	a	O
8	hlava	NNFS1-----A-----	hlava	O
9	těžká	AAFS1----1A-----	těžký	O
10	klesá	VB-S---3P-AA---I	klesat	O
11	níž	Dg-------2A-----	nízko	O
12	a	J^--------------	a	O
13	já	PP-S1--1--------	já	O
14	bych	Vc-S---1-------I	být	O
15	tu	Db------------1-	tu	O
16	jak	J,--------------	jak	O
17	dítě	NNNS1-----A-----	dítě	O
18	kles	X24-------------	kles´	O
19	a	J^--------------	a	O
20	zaplakal	VpIS---3R-AA---P	zaplakat	O
21	tak	Db--------------	tak	O
22	z	RR--2-----------	z	O
23	celé	AAFS2----1A-----	celý	O
24	duše	NNFS2-----A-----	duše	O
25	na	RR--6-----------	na	O
26	hrobě	NNIS6-----A-----	hrob	O
27	tom	PDIS6-----------	ten	O
28	kde	Db--------------	kde	O
29	hochu	NNMS3-----A---1-	hoch	O
30	spíš	TT--------------	spíš	O

