1	Ó	II--------------	ó	O
2	naši	PSMP1-P1--------	náš	O
3	otcové	NNMP1-----A---1-	otec	O
4	ta	PDFS1-----------	ten	O
5	vaše	PSFS1-P2--------	váš	O
6	víra	NNFS1-----A-----	víra	O
7	ta	PDFS1-----------	ten	O
8	vaše	PSFS1-P2--------	váš	O
9	láska	NNFS1-----A-----	láska	O
10	v	RR--6-----------	v	O
11	dětech	NNFP6-----A-----	dítě	O
12	žije	VB-S---3P-AA---I	žít	O
13	dál	Db--------------	dále	O
14	to	PDNS1-----------	ten	O
15	svaté	AANS1----1A-----	svatý	O
16	nadšení	NNNS1-----A-----	nadšení	O
17	jež	PJNS1-----------	jenž	O
18	neumírá	VB-S---3P-NA---I	umírat	O
19	ta	PDFS1-----------	ten	O
20	vaše	PSFS1-P2--------	váš	O
21	naděje	NNFS1-----A-----	naděje	O
22	váš	PSIS1-P2--------	váš	O
23	ideál	NNIS1-----A-----	ideál	O
24	vše	PLNS1---------1-	všechen	O
25	žije	VB-S---3P-AA---I	žít	O
26	v	RR--6-----------	v	O
27	nás	PP-P6--1--------	my	O
28	a	J^--------------	a	O
29	svatým	AAIS7----1A-----	svatý	O
30	žárem	NNIS7-----A-----	žár	O
31	svým	P8IS7-----------	svůj	O
32	zahynout	Vf--------A----P	zahynout	O
33	nedá	VB-S---3P-NA---P	dát	O
34	nám	PP-P3--1--------	my	O
35	ni	J^--------------	ni	O
36	budoucím	AAMP3----1A-----	budoucí	O

