1	A	J^--------------	a	O
2	již	Db--------------	již	O
3	můj	PSMS5-S1--------	můj	O
4	hochu	NNMS5-----A-----	hoch	O
5	tě	PH-S4--2--------	ty	O
6	tam	Db--------------	tam	O
7	rdousí	VB-S---3P-AA---I	rdousit	O
8	a	J^--------------	a	O
9	u	RR--2-----------	u	O
10	okna	NNNS2-----A-----	okno	O
11	kde	Db--------------	kde	O
12	nejednou	Cv--------------	nejednou	O
13	jsi	VB-S---2P-AA---I	být	O
14	stál	VpMS---3R-AA---B	stát	O
15	v	RR--6-----------	v	O
16	zamyšlení	NNNS6-----A-----	zamyšlení	O
17	věrný	AAIS1----1A-----	věrný	O
18	brat	X24-------------	brat	O
19	tam	Db--------------	tam	O
20	pláčí	VB-P---3P-AA--1I	plakat	O
21	tvoji	PSMP1-S2--------	tvůj	O
22	drazí	AAMP1----1A-----	drahý	O
23	pro	RR--4-----------	pro	O
24	tě	PH-S4--2--------	ty	O
25	z	RR--2-----------	z	O
26	nich	P5IP2--3--------	oni	O
27	každý	PLMS1-----------	každý	O
28	vzlyká	VB-S---3P-AA---I	vzlykat	O
29	o	RR--6-----------	o	O
30	samotě	NNFS6-----A-----	samota	O
31	jak	Db--------------	jak	O
32	vidí	VB-S---3P-AA---I	vidět	O
33	tebe	PP-S4--2--------	ty	O
34	umírat	Vf--------A----I	umírat	O

