1	A	J^--------------	a	O
2	ty	PP-S1--2--------	ty	O
3	jsi	VB-S---2P-AA---I	být	O
4	byla	VpFS---2R-AA---I	být	O
5	tak	Db--------------	tak	O
6	milá	AAFS1----1A-----	milý	O
7	tak	Db--------------	tak	O
8	plna	ACFS------A-----	plný	O
9	něhy	NNFS2-----A-----	něha	O
10	a	J^--------------	a	O
11	krásy	NNFS2-----A-----	krása	O
12	Kol	RR--2-----------	kol	O
13	země	NNFS2-----A-----	země	O
14	o	RR--6-----------	o	O
15	lásce	NNFS6-----A-----	láska	O
16	snila	VpFS---3R-AA---I	snít	O
17	jež	PJNS1-----------	jenž	O
18	k	RR--3-----------	k	O
19	nám	PP-P3--1--------	my	O
20	se	P7-X4-----------	se	O
21	odevšad	Db--------------	odevšad	O
22	hlásí	VB-P---3P-AA---I	hlásit	O
23	A	J^--------------	a	O
24	rty	NNIP1-----A-----	ret	O
25	mé	PSNS1-S1------1-	můj	O
26	tiše	Dg-------1A-----	tiše	O
27	se	P7-X4-----------	se	O
28	chvěly	VpIP---3R-AA---I	chvět	O
29	a	J^--------------	a	O
30	oko	NNNS1-----A-----	oko	O
31	v	RR--6-----------	v	O
32	duši	NNFS6-----A-----	duše	O
33	tvé	PSFS6-S2------1-	tvůj	O
34	hádá	VB-S---3P-AA---I	hádat	O
35	Rci	NNMP1-----A-----	Rek	O
36	máš	VB-S---2P-AA---I	mít	O
37	mne	PP-S4--1--------	já	O
38	opravdu	TT--------------	opravdu	O
39	ráda	ACFS------A-----	rád	O
40	tak	Db--------------	tak	O
41	ráda	ACNP------A-----	rád	O
42	pro	RR--4-----------	pro	O
43	život	NNIS4-----A-----	život	O
44	celý	AAIS4----1A-----	celý	O

