1	Šla	VpFS---3R-AA---I	jít	O
2	panenka	NNFS1-----A-----	panenka	O
3	zamyšlená	AAFS1----1A-----	zamyšlený	O
4	doubravou	NNFS7-----A-----	doubrava	O
5	žežulka	NNFS1-----A-----	žežulka	O
6	jí	PPFS3--3--------	ona	O
7	zakukala	VpFS---3R-AA---P	zakukat	O
8	nad	RR--7-----------	nad	O
9	hlavou	NNFS7-----A-----	hlava	O

