1	Já	PP-S1--1--------	já	O
2	nevím	VB-S---1P-NA---I	vědět	O
3	proč	Db--------------	proč	O
4	však	J^--------------	však	O
5	pocit	NNIS1-----A-----	pocit	O
6	neznámý	AAMS1----1N-----	známý	O
7	vždy	Db--------A-----	vždy	O
8	obrací	VB-S---3P-AA---I	obracet	O
9	můj	PSIS1-S1--------	můj	O
10	pohled	NNIS1-----A-----	pohled	O
11	za	RR--7-----------	za	O
12	vámi	PP-P7--2--------	vy	O
13	a	J^--------------	a	O
14	za	RR--7-----------	za	O
15	růží	NNFS7-----A-----	růže	O
16	již	Db--------------	již	O
17	máte	VB-P---2P-AA---I	mít	O
18	na	RR--6-----------	na	O
19	živůtku	NNIS6-----A-----	živůtek	O
20	a	J^--------------	a	O
21	zdává	VB-S---3P-AA---I	zdávat	O
22	se	P7-X4-----------	se	O
23	mi	PH-S3--1--------	já	O
24	že	J,--------------	že	O
25	váš	PSIS1-P2--------	váš	O
26	obraz	NNIS1-----A-----	obraz	O
27	měl	VpMS---3R-AA---I	mít	O
28	jsem	VB-S---1P-AA---I	být	O
29	v	RR--6-----------	v	O
30	duši	NNFS6-----A-----	duše	O
31	dávno	Dg-------1A-----	dávno	O
32	dřív	Dg-------2A---5-	brzy	O
33	než	J,--------------	než	O
34	zapomněl	VpMS---1R-AA---P	zapomenout	O
35	jsem	VB-S---1P-AA---I	být	O
36	šťastným	AAMS7----1A-----	šťastný	O
37	být	Vf--------A----I	být	O
38	v	RR--6-----------	v	O
39	těch	PDNP6-----------	ten	O
40	dlouhých	AANP6----1A-----	dlouhý	O
41	letech	NNNP6-----A-----	rok	O
42	smutku	NNIS2-----A-----	smutek	O

