1	To	PDNS1-----------	ten	O
2	zbývá	VB-S---3P-AA---I	zbývat	O
3	bez	RR--2-----------	bez	O
4	obrany	NNFS2-----A-----	obrana	O
5	tiše	Dg-------1A-----	tiše	O
6	vzdát	Vf--------A----P	vzdát	O
7	se	P7-X4-----------	se	O
8	či	J^--------------	či	O
9	hrdě	Dg-------1A-----	hrdě	O
10	vzdorovat	Vf--------A----I	vzdorovat	O
11	i	J^--------------	i	O
12	nesnázím	NNFP3-----A-----	nesnáz	O
13	a	J^--------------	a	O
14	s	RR--7-----------	s	O
15	celou	AAFS7----1A-----	celý	O
16	duší	NNFS7-----A-----	duše	O
17	chopiti	Vf--------A---2P	chopit	O
18	se	P7-X4-----------	se	O
19	práce	NNFS2-----A-----	práce	O

