1	Již	Db--------------	již	O
2	všichni	PLMP1-----------	všechen	O
3	odešli	VpMP---3R-AA---P	odejít	O
4	a	J^--------------	a	O
5	zbyl	VpMS---3R-AA---P	zbýt	O
6	jen	TT--------------	jen	O
7	hrobník	NNMS1-----A-----	hrobník	O
8	sám	PLMS1-----------	sám	O
9	sám	PLIS1-----------	sám	O
10	zbyl	VpMS---3R-AA---P	zbýt	O
11	tu	Db------------1-	tu	O
12	nad	RR--7-----------	nad	O
13	hrobem	NNIS7-----A-----	hrob	O
14	jenž	PJIS1-----------	jenž	O
15	tmí	VB-S---3P-AA---I	tmít	O
16	se	P7-X4-----------	se	O
17	jako	J,--------------	jako	O
18	rána	NNFS1-----A-----	rána	O
19	Tam	Db--------------	tam	O
20	dole	Dg-------1A-----	dole	O
21	rakev	NNFS4-----A-----	rakev	O
22	zřít	Vf--------A----I	zřít	O
23	jež	PJMP4-----------	jenž	O
24	před	RR--7-----------	před	O
25	chvílí	NNFS7-----A-----	chvíle	O
26	sem	Db--------------	sem	O
27	dána	VsFS---3R-AP---P	dát	O
28	a	J^--------------	a	O
29	hrobník	NNMS1-----A-----	hrobník	O
30	řekl	VpMS---3R-AA---P	říci	O
31	si	P7-X3-----------	se	O
32	Již	Db--------------	již	O
33	také	Db--------------	také	O
34	přišels	X24-------------	přišel´s	O
35	k	RR--3-----------	k	O
36	nám	PP-P3--1--------	my	O

