1	Však	J^--------------	však	O
2	nejen	TT--------------	nejen	O
3	v	RR--4-----------	v	O
4	boj	NNIS4-----A-----	boj	O
5	jsi	VB-S---2P-AA---I	být	O
6	vedla	VpFS---2R-AA---I	vést	O
7	český	AAIS4----1A-----	český	O
8	lid	NNIS4-----A-----	lid	O
9	a	J^--------------	a	O
10	věrně	Dg-------1A-----	věrně	O
11	s	RR--7-----------	s	O
12	ním	P5MS7--3--------	on	O
13	šla	VpNP---3R-AA---I	jít	O
14	dobou	NNFS7-----A-----	doba	O
15	zlou	AAFS4----1A-----	zlý	O
16	i	J^--------------	i	O
17	velkou	AAFS4----1A-----	velký	O
18	on	PPMS1--3--------	on	O
19	tebou	PP-S7--2--------	ty	O
20	uměl	VpMS---3R-AA---B	umět	O
21	se	P7-X4-----------	se	O
22	i	J^--------------	i	O
23	pomodlit	Vf--------A----P	pomodlit	O
24	a	J^--------------	a	O
25	jak	Db--------------	jak	O
26	mu	PHMS3--3--------	on	O
27	v	RR--6-----------	v	O
28	trudech	NNIP6-----A-----	trud	O
29	bylas	VpFS---2R-AA---I	být	O
30	těšitelkou	NNFS7-----A-----	těšitelka	O
31	tak	Db--------------	tak	O
32	při	RR--6-----------	při	O
33	něm	P5IS6--3--------	on	O
34	bylas	VpFS---2R-AA---I	být	O
35	věrná	AAFS1----1A-----	věrný	O
36	družka	NNFS1-----A-----	družka	O
37	světlá	AAFS1----1A-----	světlý	O
38	i	J^--------------	i	O
39	tehdy	Db--------------	tehdy	O
40	když	J,--------------	když	O
41	skráň	NNFS1-----A-----	skráň	O
42	smutkem	NNIS7-----A-----	smutek	O
43	nachýlí	VB-S---3P-AA---P	nachýlit	O
44	a	J^--------------	a	O
45	když	J,--------------	když	O
46	alespoň	Db--------------	alespoň	O
47	časem	NNIS7-----A-----	čas	O
48	na	RR--4-----------	na	O
49	chvíli	NNFS4-----A-----	chvíle	O
50	i	J^--------------	i	O
51	jemu	PPMS3--3--------	on	O
52	plachá	AAFS1----1A-----	plachý	O
53	radost	NNFS1-----A-----	radost	O
54	v	RR--6-----------	v	O
55	srdci	NNNS6-----A-----	srdce	O
56	zkvetla	VpFS---3R-AA---P	zkvést	O

