1	Jen	TT--------------	jen	O
2	v	RR--6-----------	v	O
3	lázních	NNFP6-----A-----	lázně	O
4	spali	VpMP---3R-AA---I	spát	O
5	dál	Db--------------	dále	O
6	U	RR--2-----------	u	O
7	krajní	AAFS2----1A-----	krajní	O
8	villy	X24-------------	villy	O
9	vůz	NNIS1-----A-----	vůz	O
10	krytý	AAIS1----1A-----	krytý	O
11	stanul	VpIS---3R-AA---P	stanout	O
12	Náhle	Dg-------1A-----	náhle	O
13	bylo	VpNS---3R-AA---I	být	O
14	slyšet	Vf--------A----I	slyšet	O
15	skřípění	NNNS1-----A-----	skřípění	O
16	klíče	NNIS2-----A-----	klíč	O
17	dvéře	NNFP1-----A-----	dveře	O
18	povolily	VpFP---3R-AA---P	povolit	O
19	a	J^--------------	a	O
20	rozespalý	AAMS1----1A-----	rozespalý	O
21	sluha	NNMS1-----A-----	sluha	O
22	mlčky	Db--------------	mlčky	O
23	vyšed	VmMS------A----P	vyjít	O
24	pokynul	VpMS---3R-AA---P	pokynout	O
25	kočímu	NNMS3-----A-----	kočí	O
26	Šli	VpMP---3R-AA---I	jít	O
27	do	RR--2-----------	do	O
28	vnitř	XX--------------	vnitř	O
29	síně	NNFS2-----A-----	síň	O
30	a	J^--------------	a	O
31	odtud	Db--------------	odtud	O
32	potom	Db--------------	potom	O
33	vynášeli	VpMP---3R-AA---I	vynášet	O
34	k	RR--3-----------	k	O
35	vozu	NNIS3-----A-----	vůz	O
36	cestovní	AAIP1----1A-----	cestovní	O
37	vaky	NNIP1-----A-----	vak	O
38	všecko	PLNS1-----------	všecek	O
39	mlčky	Db--------------	mlčky	O
40	líně	Dg-------1A-----	líně	O
41	vše	PLNS1---------1-	všechen	O
42	tiše	Dg-------1A-----	tiše	O
43	bez	RR--2-----------	bez	O
44	řečí	NNFP2-----A-----	řeč	O
45	a	J^--------------	a	O
46	bez	RR--2-----------	bez	O
47	hlomozu	NNIS2-----A-----	hlomoz	O

