1	V	RR--6-----------	v	O
2	takové	PDFS6-----------	takový	O
3	chvíli	NNFS6-----A-----	chvíle	O
4	dosnídav	VmMS------A----P	dosnídat	O
5	jen	TT--------------	jen	O
6	zřídka	Db--------A-----	zřídka	O
7	vyběhl	VpMS---3R-AA--1P	vyběhnout	O
8	z	RR--2-----------	z	O
9	domu	NNIS2-----A-----	dům	O
10	běžel	VpIS---3R-AA---I	běžet	O
11	dál	Db--------------	dále	O
12	a	J^--------------	a	O
13	dál	Db--------------	dále	O
14	šel	VpIS---3R-AA---I	jít	O
15	dolů	Db--------------	dolů	O
16	k	RR--3-----------	k	O
17	řece	NNFS3-----A-----	řeka	O
18	vykasal	VpMS---3R-AA---P	vykasat	O
19	si	P7-X3-----------	se	O
20	lýtka	NNNP4-----A-----	lýtko	O
21	a	J^--------------	a	O
22	do	RR--2-----------	do	O
23	večera	NNIS2-----A---1-	večer	O
24	na	RR--4-----------	na	O
25	kameně	VeMS------A----I	kamenět	O
26	stál	VpIS---3R-AA---B	stát	O

