1	I	J^--------------	i	O
2	nadál	Db--------------	nadál	O
3	vždy	Db--------A-----	vždy	O
4	až	TT--------------	až	O
5	v	RR--4-----------	v	O
6	nejpozdnější	AANS4----3A-----	pozdní	O
7	stáří	NNNS4-----A-----	stáří	O
8	nechť	TT--------------	nechť	O
9	zlaté	AANS1----1A-----	zlatý	O
10	slunce	NNNS1-----A-----	slunce	O
11	štěstí	NNNS2-----A-----	štěstí	O
12	vždy	Db--------A-----	vždy	O
13	Vám	PP-P3--2--------	vy	O
14	září	NNNS2-----A-----	září	O
15	a	J^--------------	a	O
16	vyzlatí	VB-S---3P-AA---P	vyzlatit	O
17	i	J^--------------	i	O
18	Vašich	PSFP2-P2--------	váš	O
19	dětí	NNFP2-----A-----	dítě	O
20	mládí	NNNS2-----A-----	mládí	O

