1	Co	PQ--4-----------	co	O
2	na	RR--4-----------	na	O
3	ně	P5MP4--3--------	oni	O
4	sedlo	NNNS4-----A-----	sedlo	O
5	dopátrat	Vf--------A----P	dopátrat	O
6	se	P7-X4-----------	se	O
7	nelze	VB-S---3P-NA---I	lze	O
8	z	RR--2-----------	z	O
9	lidských	AAFP2----1A-----	lidský	O
10	řečí	NNFP2-----A-----	řeč	O
11	lze	VB-S---3P-AA---I	lze	O
12	tušit	Vf--------A----I	tušit	O
13	jen	TT--------------	jen	O
14	že	J,--------------	že	O
15	měli	VpMP---3R-AA---I	mít	O
16	snad	TT--------------	snad	O
17	jen	TT--------------	jen	O
18	žízeň	NNFS1-----A-----	žízeň	O
19	stále	Db--------------	stále	O
20	větší	AAFS1----2A-----	velký	O

