1	Po	RR--6-----------	po	O
2	tobě	PP-S6--2--------	ty	O
3	spínám	VB-S---1P-AA---I	spínat	O
4	ruce	NNFP4-----A-----	ruka	O
5	obě	ClFP4-----------	oba	O
6	a	J^--------------	a	O
7	slzy	NNFP1-----A-----	slza	O
8	darmo	Db--------------	darmo	O
9	kanou	VB-P---3P-AA---I	kanout	O
10	s	RR--2-----------	s	O
11	řas	NNFP2-----A-----	řasa	O
12	ach	II--------------	ach	O
13	nedoletí	VB-S---3P-NA---P	doletět	O
14	drahá	AAFS1----1A-----	drahý	O
15	k	RR--3-----------	k	O
16	tobě	PP-S3--2--------	ty	O
17	můj	PSIS1-S1--------	můj	O
18	osamělý	AAIS1----1A-----	osamělý	O
19	hlas	NNIS1-----A-----	hlas	O

