1	Ó	II--------------	ó	O
2	čas	NNIS1-----A-----	čas	O
3	když	J,--------------	když	O
4	jsme	VB-P---1P-AA---I	být	O
5	se	P7-X4-----------	se	O
6	měli	VpMP---1R-AA---I	mít	O
7	rádi	ACMP------A-----	rád	O
8	ó	II--------------	ó	O
9	štěstí	NNNS1-----A-----	štěstí	O
10	zašlé	AANS1----1A-----	zašlý	O
11	bez	RR--2-----------	bez	O
12	památky	NNFS2-----A-----	památka	O
13	ó	II--------------	ó	O
14	že	J,--------------	že	O
15	ta	PDFS1-----------	ten	O
16	něha	NNFS1-----A-----	něha	O
17	štěstí	NNNS1-----A-----	štěstí	O
18	mládí	NNNS1-----A-----	mládí	O
19	že	J,--------------	že	O
20	nevrátí	VB-S---3P-NA---P	vrátit	O
21	se	P7-X4-----------	se	O
22	nám	PP-P3--1--------	my	O
23	už	Db--------------	už	O
24	zpátky	Db--------------	zpátky	O

