1	Ó	II--------------	ó	O
2	ukaž	Vi-S---2--A----P	ukázat	O
3	jim	PPMP3--3--------	oni	O
4	i	J^--------------	i	O
5	nám	PP-P3--1--------	my	O
6	jak	Db--------------	jak	O
7	otužilý	AAMS1----1A-----	otužilý	O
8	bděním	NNNS7-----A-----	bdění	O
9	kdys	Db--------------	kdys	O
10	v	RR--6-----------	v	O
11	prachu	NNIS6-----A-----	prach	O
12	zašlapán	VsIS---3R-AP---P	zašlapat	O
13	ten	PDIS1-----------	ten	O
14	národ	NNIS1-----A-----	národ	O
15	žije	VB-S---3P-AA---I	žít	O
16	dnes	Db--------------	dnes	O
17	a	J^--------------	a	O
18	velkým	AAIS7----1A-----	velký	O
19	bolem	NNIS7-----A-----	bolus	O
20	svým	P8NS7-----------	svůj	O
21	i	J^--------------	i	O
22	dávným	AANS7----1A-----	dávný	O
23	utrpením	NNNS7-----A-----	utrpení	O
24	je	VB-S---3P-AA---I	být	O
25	větší	AAFS7----2A-----	velký	O
26	silou	NNFS7-----A-----	síla	O
27	svou	P8FS7---------1-	svůj	O
28	než	J,--------------	než	O
29	aby	J,--------------	aby	O
30	v	RR--4-----------	v	O
31	pouta	NNNP4-----A-----	pouto	O
32	kles	NNIS1-----A-----	kles	O

