1	Podzemní	AAIS1----1A-----	podzemní	O
2	večer	NNIS1-----A-----	večer	O
3	plný	AAIS1----1A-----	plný	O
4	soumraku	NNIS2-----A-----	soumrak	O
5	a	J^--------------	a	O
6	vzpomínek	NNFP2-----A-----	vzpomínka	O
7	jež	PJFP1-----------	jenž	O
8	lehnou	VB-P---3P-AA---P	lehnout	O
9	na	RR--4-----------	na	O
10	prsa	NNNP4-----A-----	prsa	O
11	jak	Db--------------	jak	O
12	netopýra	NNMS2-----A-----	netopýr	O
13	křídlo	NNNS1-----A-----	křídlo	O
14	ponuré	AANS1----1A-----	ponurý	O
15	Podzimní	AAIS1----1A-----	podzimní	O
16	večer	NNIS1-----A-----	večer	O
17	večer	Db--------------	večer	O
18	poslední	AAIP1----1A-----	poslední	O
19	Dvě	ClFP1-----------	dva	O
20	dlouhé	AAFP1----1A-----	dlouhý	O
21	noci	NNFP1-----A-----	noc	O
22	druhý	CrIS1-----------	druhý	O
23	večer	NNIS1-----A-----	večer	O
24	už	Db--------------	už	O
25	a	J^--------------	a	O
26	druhý	CrIS4-----------	druhý	O
27	den	NNIS4-----A-----	den	O
28	já	PP-S1--1--------	já	O
29	stál	VpMS---1R-AA---B	stát	O
30	jsem	VB-S---1P-AA---I	být	O
31	nad	RR--7-----------	nad	O
32	tebou	PP-S7--2--------	ty	O
33	a	J^--------------	a	O
34	já	PP-S1--1--------	já	O
35	tě	PH-S4--2--------	ty	O
36	volal	VpMS---3R-AA---I	volat	O
37	jménem	NNNS7-----A-----	jméno	O
38	nejsladším	AANS7----3A-----	sladký	O
39	a	J^--------------	a	O
40	já	PP-S1--1--------	já	O
41	jsem	VB-S---1P-AA---I	být	O
42	hladil	VpMS---1R-AA---I	hladit	O
43	tu	PDFS4-----------	ten	O
44	tvou	PSFS4-S2------1-	tvůj	O
45	dětskou	AAFS4----1A-----	dětský	O
46	skráň	NNFS4-----A-----	skráň	O
47	jak	Db--------------	jak	O
48	byla	VpFS---3R-AA---I	být	O
49	chladná	AAFS1----1A-----	chladný	O
50	A	J^--------------	a	O
51	už	Db--------------	už	O
52	druhou	CrFS4-----------	druhý	O
53	noc	NNFS4-----A-----	noc	O
54	jsem	VB-S---1P-AA---I	být	O
55	sebe	P6-X2-----------	se	O
56	ptal	VpMS---1R-AA---I	ptát	O
57	se	P7-X4-----------	se	O
58	v	RR--6-----------	v	O
59	mukách	NNNP6-----A-----	muka	O
60	duše	NNFS2-----A-----	duše	O
61	své	P8FS2---------1-	svůj	O
62	proč	Db--------------	proč	O
63	ona	PPFS1--3--------	ona	O
64	velká	AAFS1----1A-----	velký	O
65	zádumčivá	AAFS1----1A-----	zádumčivý	O
66	smrt	NNFS1-----A-----	smrt	O
67	jež	PJFS1-----------	jenž	O
68	vše	PLNS4---------1-	všechen	O
69	ti	PH-S3--2--------	ty	O
70	vzala	VpNP---3R-AA---P	vzít	O
71	jako	J,--------------	jako	O
72	vzala	VpNP---3R-AA---P	vzít	O
73	nám	PP-P3--1--------	my	O
74	ti	PDMP1-----------	ten	O
75	vlídný	AAIS4----1A-----	vlídný	O
76	úsměv	NNIS4-----A-----	úsměv	O
77	vdechla	VpFS---3R-AA--1P	vdechnout	O
78	na	RR--4-----------	na	O
79	ústa	NNNP4-----A-----	ústa	O
80	a	J^--------------	a	O
81	proč	Db--------------	proč	O
82	se	P7-X4-----------	se	O
83	dítě	NNNS1-----A-----	dítě	O
84	v	RR--6-----------	v	O
85	rakvi	NNFS6-----A-----	rakev	O
86	usmíváš	VB-S---2P-AA---I	usmívat	O

