1	Zakukej	Vi-S---2--A----P	zakukat	O
2	mi	PH-S3--1--------	já	O
3	žežulinko	NNFS5-----A-----	žežulinka	O
4	má	VB-S---3P-AA---I	mít	O
5	mne	PP-S4--1--------	já	O
6	rád	ACMS------A-----	rád	O
7	Má	VB-S---3P-AA---I	mít	O
8	mne	PP-S4--1--------	já	O
9	rád	ACMS------A-----	rád	O
10	A	J^--------------	a	O
11	žežulka	NNFS1-----A-----	žežulka	O
12	zakukala	VpFS---3R-AA---P	zakukat	O
13	nastokrát	Cv--------------	nastokrát	O
14	nastokrát	Cv--------------	nastokrát	O

