1	Procházkou	NNFS7-----A-----	procházka	O
2	do	RR--2-----------	do	O
3	lesa	NNIS2-----A-----	les	O
4	šli	VpMP---3R-AA---I	jít	O
5	zvolna	Db--------------	zvolna	O
6	jedni	ChMP1-----------	jeden	O
7	lawn	X24-------------	lawn	O
8	tennis	NNIS4-----A-----	tenis	O
9	druzí	CrMP1-----------	druhý	O
10	před	RR--7-----------	před	O
11	obědem	NNIS7-----A-----	oběd	O
12	hráli	VpMP---3R-AA---I	hrát	O
13	Nevelké	AAFP1----1N-----	velký	O
14	lázně	NNFP1-----A-----	lázně	O
15	teprv	Db--------------	teprve	O
16	o	RR--6-----------	o	O
17	poledni	NNNS6-----A-----	poledne	O
18	se	P7-X4-----------	se	O
19	oživily	VpIP---3R-AA---P	oživit	O
20	Všechněch	PLMP2---------6-	všechen	O
21	zřetel	NNIS1-----A-----	zřetel	O
22	stálý	AAIS1----1A-----	stálý	O
23	obrácen	VsIS---3R-AP---P	obrátit	O
24	ke	RV--3-----------	k	O
25	zvonku	NNIS3-----A-----	zvonek	O
26	jest	VB-S---3P-AA--2I	být	O
27	kterým	P4IS7-----------	který	O
28	vždycky	Db--------A-----	vždycky	O
29	že	J,--------------	že	O
30	oběd	NNIS1-----A-----	oběd	O
31	hotov	ACIS------A-----	hotový	O
32	znamení	NNNS1-----A-----	znamení	O
33	se	P7-X4-----------	se	O
34	dává	VB-S---3P-AA---I	dávat	O
35	všem	PLIP3-----------	všechen	O
36	zvuk	NNIS1-----A-----	zvuk	O
37	ten	PDIS1-----------	ten	O
38	k	RR--3-----------	k	O
39	podivu	NNIS3-----A-----	podiv	O
40	je	VB-S---3P-AA---I	být	O
41	sympatický	AAIS1----1A-----	sympatický	O
42	a	J^--------------	a	O
43	toužebně	Dg-------1A-----	toužebně	O
44	jej	PPMS4--3------2-	on	O
45	každý	PLMS1-----------	každý	O
46	očekává	VB-S---3P-AA---I	očekávat	O

