1	Chtěl	VpIS---3R-AA---I	chtít	O
2	patrně	TT--------------	patrně	O
3	mi	PH-S3--1--------	já	O
4	cosi	PZ--1-----------	cosi	O
5	říci	Vf--------A---1P	říci	O
6	a	J^--------------	a	O
7	hleděl	VpMS---3R-AA---I	hledět	O
8	na	RR--4-----------	na	O
9	mne	PP-S4--1--------	já	O
10	Přešel	VpIS---3R-AA---P	přejít	O
11	ale	J^--------------	ale	O
12	a	J^--------------	a	O
13	jenom	TT--------------	jenom	O
14	vztek	NNIS1-----A-----	vztek	O
15	byl	VpIS---3R-AA---I	být	O
16	v	RR--6-----------	v	O
17	jeho	PSIS6XS3--------	jeho	O
18	líci	NNFS6-----A-----	líce	O
19	unavené	AAFP1----1A-----	unavený	O
20	a	J^--------------	a	O
21	nevyspalé	AAFP1----1N-----	vyspalý	O

