1	A	J^--------------	a	O
2	myslil	VpMS---1R-AA--1I	myslet	O
3	jsem	VB-S---1P-AA---I	být	O
4	dva	ClIP4-----------	dva	O
5	roky	NNIP4-----A-----	rok	O
6	dnes	Db--------------	dnes	O
7	jak	Db--------------	jak	O
8	zoufalost	NNFS1-----A-----	zoufalost	O
9	mi	PH-S3--1--------	já	O
10	srdce	NNNP4-----A-----	srdce	O
11	rvala	VpNP---3R-AA---I	rvát	O
12	jak	J,--------------	jak	O
13	šílený	AAIS4----1A-----	šílený	O
14	jsem	VB-S---1P-AA---I	být	O
15	v	RR--6-----------	v	O
16	pláči	NNIS6-----A-----	pláč	O
17	kles	X24-------------	kles´	O
18	nad	RR--7-----------	nad	O
19	matkou	NNFS7-----A-----	matka	O
20	která	P4FS1-----------	který	O
21	umírala	VpFS---3R-AA---I	umírat	O

