1	těch	PDFP2-----------	ten	O
2	zahrad	NNFP2-----A-----	zahrada	O
3	odkud	Db--------------	odkud	O
4	jsi	VB-S---2P-AA---I	být	O
5	přišla	VpFS---2R-AA---P	přijít	O
6	ti	PH-S3--2--------	ty	O
7	slzami	NNFP7-----A-----	slza	O
8	v	RR--4-----------	v	O
9	zraky	NNIP4-----A-----	zraky	O
10	se	P7-X4-----------	se	O
11	velne	VB-S---3P-AA---P	velnout	O
12	Samota	NNFS1-----A-----	samota	O
13	přadlena	NNFS1-----A-----	přadlena	O
14	němá	AAFS1----1A-----	němý	O
15	ve	RV--6-----------	v	O
16	vychladlé	AAFS6----1A-----	vychladlý	O
17	síni	NNFS6-----A-----	síň	O
18	sedne	VB-S---3P-AA---P	sednout	O
19	ti	PH-S3--2--------	ty	O
20	k	RR--3-----------	k	O
21	boku	NNIS3-----A-----	bok	O
22	a	J^--------------	a	O
23	v	RR--4-----------	v	O
24	tváře	NNFP4-----A-----	tvář	O
25	tvé	PSFS2-S2------1-	tvůj	O
26	blednoucí	AGMS1-----A-----	blednoucí	O
27	ponoří	VB-P---3P-AA---P	ponořit	O
28	zraky	NNIP1-----A-----	zraky	O
29	své	P8IP4---------1-	svůj	O
30	ztuhlé	AAIP4----1A-----	ztuhlý	O
31	a	J^--------------	a	O
32	skelné	AAIP4----1A-----	skelný	O
33	v	RR--6-----------	v	O
34	nichž	P9NP6-----------	jenž	O
35	dříme	VB-S---3P-AA---I	dřímat	O
36	tajemství	NNNS1-----A-----	tajemství	O
37	posledních	AAIP2----1A-----	poslední	O
38	snů	NNIP2-----A-----	sen	O
39	Až	J,--------------	až	O
40	v	RR--6-----------	v	O
41	šedivém	AAIS6----1A-----	šedivý	O
42	toku	NNIS6-----A-----	tok	O

