1	jak	Db--------------	jak	O
2	v	RR--6-----------	v	O
3	narudlém	AAIS6----1A-----	narudlý	O
4	pláči	NNIS6-----A-----	pláč	O
5	i	J^--------------	i	O
6	náhrobní	AAIS1----1A-----	náhrobní	O
7	mramor	NNIS1-----A-----	mramor	O
8	A	J^--------------	a	O
9	stmělou	X32-------------	stmělou	O
10	stepí	NNFP2-----A-----	step	O
11	před	RR--7-----------	před	O
12	blížící	AGFS7-----A-----	blížící	O
13	se	P7-X4-----------	se	O
14	bouří	NNFS7-----A-----	bouře	O
15	i	J^--------------	i	O
16	ticho	NNNS1-----A-----	ticho	O
17	úzkostně	Dg-------1A-----	úzkostně	O
18	zalká	VB-S---3P-AA---P	zalkat	O
19	A	J^--------------	a	O
20	ty	PP-S1--2--------	ty	O
21	jsi	VB-S---2P-AA---I	být	O
22	se	P7-X4-----------	se	O
23	vrátila	VpFS---2R-AA---P	vrátit	O
24	Do	RR--2-----------	do	O
25	věčného	AANS2----1A-----	věčný	O
26	šera	NNNS2-----A-----	šero	O
27	kde	Db--------------	kde	O
28	úsměv	NNIS1-----A-----	úsměv	O
29	tvůj	PSIS1-S2--------	tvůj	O
30	lepý	AAIS1----1A-----	lepý	O
31	ti	PDMP1-----------	ten	O
32	uhasne	VB-S---3P-AA---P	uhasnout	O
33	v	RR--6-----------	v	O
34	tváři	NNFS6-----A-----	tvář	O
35	zbělí	VB-S---3P-AA---P	zbělet	O
36	ti	PH-S3--2--------	ty	O
37	na	RR--6-----------	na	O
38	rtech	NNIP6-----A-----	ret	O
39	a	J^--------------	a	O
40	únavná	AAFS1----1A-----	únavný	O
41	dálka	NNFS1-----A-----	dálka	O

