1	V	RR--6-----------	v	O
2	té	PDFS6-----------	ten	O
3	zahrádce	NNFS6-----A-----	zahrádka	O
4	naší	PSFS2-P1--------	náš	O
5	kvete	VB-S---3P-AA---I	kvést	O
6	bílý	AAIS1----1A-----	bílý	O
7	hloh	NNIS1-----A-----	hloh	O
8	ach	II--------------	ach	O
9	kde	Db--------------	kde	O
10	je	VB-S---3P-AA---I	být	O
11	můj	PSIS1-S1--------	můj	O
12	znejmilejší	AAIS1----1A-----	znejmilejší	O
13	ten	PDMS1-----------	ten	O
14	můj	PSMS1-S1--------	můj	O
15	drahý	AAMS1----1A-----	drahý	O
16	hoch	NNMS1-----A-----	hoch	O

