1	Čis	X24-------------	Či´s	SUSPICIOUS_TYPE
2	paprskem	NNIS7-----A-----	paprsek	O
3	byl	VpMS---3R-AA---I	být	O
4	který	P4MS1-----------	který	O
5	v	RR--4-----------	v	O
6	klín	NNIS4-----A-----	klín	O
7	dlouhé	AANS4----1A-----	dlouhý	O
8	skanul	VpMS---3R-AA---P	skanout	O
9	tmy	NNFS2-----A-----	tma	O
10	čis	X24-------------	či´s	O
11	dobrý	AAMS1----1A-----	dobrý	O
12	byl	VpMS---3R-AA---I	být	O
13	můj	PSMS1-S1--------	můj	O
14	anděl	NNMS1-----A-----	anděl	O
15	jenž	PJMS1-----------	jenž	O
16	na	RR--4-----------	na	O
17	vždy	Db--------A-----	vždy	O
18	ulét	X24-------------	ulét´	O
19	mi	PH-S3--1--------	já	O

