1	A	J^--------------	a	O
2	paprsk	X24-------------	paprsk	O
3	zářící	AGMP1-----A-----	zářící	O
4	pak	Db--------------	pak	O
5	prvý	AAMS1----1A-----	prvý	O
6	druhý	AAMS1----1A-----	druhý	O
7	třetí	CrMS1-----------	třetí	O
8	se	P7-X4-----------	se	O
9	do	RR--2-----------	do	O
10	tmy	NNFS2-----A-----	tma	O
11	zachvěje	VB-S---3P-AA---P	zachvět	O
12	a	J^--------------	a	O
13	září	NNNS1-----A-----	září	O
14	zaplápolá	VB-S---3P-AA---P	zaplápolat	O
15	jak	Db--------------	jak	O
16	duha	NNFS1-----A-----	duha	O
17	vzklene	VB-S---3P-AA---P	vzklenout	O
18	se	P7-X4-----------	se	O
19	a	J^--------------	a	O
20	do	RR--2-----------	do	O
21	azuru	NNIS2-----A-----	azur	O
22	vzletí	VB-S---3P-AA---P	vzletět	O
23	půl	NNFS4-----A-----	půl	O
24	míry	NNFS2-----A-----	míra	O
25	hrdlička	NNFS1-----A-----	hrdlička	O
26	a	J^--------------	a	O
27	slávy	NNFP1-----A-----	sláva	O
28	orel	NNMS1-----A-----	orel	O
29	zpola	Db--------------	zpola	O

