1	V	RR--4-----------	v	O
2	boj	NNIS4-----A-----	boj	O
3	se	P7-X4-----------	se	O
4	tam	Db--------------	tam	O
5	utká	VB-S---3P-AA---P	utkat	O
6	žárlivost	NNFS1-----A-----	žárlivost	O
7	s	RR--7-----------	s	O
8	láskou	NNFS7-----A-----	láska	O
9	a	J^--------------	a	O
10	bída	NNFS1-----A-----	bída	O
11	nutká	VB-S---3P-AA---I	nutkat	O
12	v	RR--4-----------	v	O
13	zlobu	NNFS4-----A-----	zloba	O
14	a	J^--------------	a	O
15	lest	NNFS4-----A-----	lest	O
16	v	RR--6-----------	v	O
17	mravenčím	AAIS6----1A-----	mravenčí	O
18	reji	NNIS6-----A-----	rej	O
19	honí	VB-P---3P-AA---I	honit	O
20	se	P7-X4-----------	se	O
21	lidé	NNMP1-----A---1-	člověk	O
22	slyš	Vi-S---2--A----I	slyšet	O
23	jak	Db--------------	jak	O
24	se	P7-X4-----------	se	O
25	smějí	VB-P---3P-AA--1I	smát	O
26	a	J^--------------	a	O
27	spějí	VB-P---3P-AA--1I	spět	O
28	v	RR--6-----------	v	O
29	propasti	NNFS6-----A-----	propast	O
30	neznámých	AAFP2----1N-----	známý	O
31	cest	NNFP2-----A-----	cesta	O

