1	Cosi	PZ--1-----------	cosi	O
2	jej	PPNS4--3------2-	ono	O
3	tam	Db--------------	tam	O
4	živou	AAFS7----1A-----	živý	O
5	mocí	NNFS7-----A-----	moc	O
6	nutí	VB-S---3P-AA---I	nutit	O
7	s	RR--7-----------	s	O
8	hořem	NNNS7-----A-----	hoře	O
9	svým	P8NS7-----------	svůj	O
10	se	P7-X4-----------	se	O
11	tedy	TT--------------	tedy	O
12	dovnitř	Db--------------	dovnitř	O
13	utek	X24-------------	utek´	O
14	Blahoslavené	AANS1----1A-----	blahoslavený	O
15	to	PDNS1-----------	ten	O
16	rozhodnutí	NNNS1-----A-----	rozhodnutí	O
17	třikrát	Cv--------------	třikrát	O
18	blahoslaven	VsIS---3R-AP---B	blahoslavit	O
19	mužný	AAIS4----1A-----	mužný	O
20	skutek	NNIS4-----A-----	skutek	O

