1	Jde	VB-S---3P-AA---I	jít	O
2	upřeně	Dg-------1A-----	upřeně	O
3	kams	Db------------1-	kam	O
4	v	RR--4-----------	v	O
5	prázno	X24-------------	prázno	O
6	hledí	NNNS4-----A-----	hledí	O
7	a	J^--------------	a	O
8	kol	NNNP2-----A-----	kolo	O
9	se	P7-X4-----------	se	O
10	dívá	VB-S---3P-AA---I	dívat	O
11	jako	J,--------------	jako	O
12	v	RR--6-----------	v	O
13	snách	NNIP6-----A---1-	sen	O
14	Zdar	NNIS1-----A-----	zdar	O
15	vám	PP-P3--2--------	vy	O
16	vy	PP-P1--2--------	vy	O
17	andílkové	NNMP1-----A---1-	andílek	O
18	bledí	AAMP1----1A-----	bledý	O
19	vy	PP-P1--2--------	vy	O
20	větší	AAFS1----2A-----	velký	O
21	i	J^--------------	i	O
22	vy	PP-P1--2--------	vy	O
23	v	RR--6-----------	v	O
24	peřinkách	NNFP6-----A-----	peřinka	O

