1	A	J^--------------	a	O
2	vedle	RR--2-----------	vedle	O
3	něho	P5IS2--3------1-	on	O
4	matka	NNFS1-----A-----	matka	O
5	jeho	PSFS1XS3--------	jeho	O
6	stará	AAFS1----1A-----	starý	O
7	si	P7-X3-----------	se	O
8	tiše	Dg-------1A-----	tiše	O
9	usedla	VpFS---2R-AA--1P	usednout	O
10	ó	NN------------8-	ó	O
11	tuto	PDFS4-----------	tento	O
12	chvíli	NNFS4-----A-----	chvíle	O
13	ubohá	AAFS1----1A-----	ubohý	O
14	tušila	VpFS---3R-AA---I	tušit	O
15	už	Db--------------	už	O
16	v	RR--6-----------	v	O
17	zimě	NNFS6-----A-----	zima	O
18	z	RR--2-----------	z	O
19	jara	NNNS2-----A-----	jaro	O
20	však	J^--------------	však	O
21	přemoci	Vf--------A----P	přemoci	O
22	se	P7-X4-----------	se	O
23	měla	VpNP---3R-AA---I	mít	O
24	dosti	Dg-------1A---3-	dost	O
25	síly	NNFS2-----A-----	síla	O
26	a	J^--------------	a	O
27	hovořila	VpNP---3R-AA---I	hovořit	O
28	s	RR--7-----------	s	O
29	lázeňskou	NNFS7-----A-----	lázeňská	O
30	jež	PJFS1-----------	jenž	O
31	za	RR--7-----------	za	O
32	ní	P5FS7--3--------	on	O
33	plaid	X24-------------	plaid	O
34	těžký	AAIS1----1A-----	těžký	O
35	nesla	VpFS---2R-AA---I	nést	O
36	pro	RR--4-----------	pro	O
37	mladého	AAMS4----1A-----	mladý	O
38	pána	NNMS4-----A-----	pán	O
39	I	J^--------------	i	O
40	druhá	CrFS1-----------	druhý	O
41	služka	NNFS1-----A-----	služka	O
42	přišla	VpFS---3R-AA---P	přijít	O
43	k	RR--3-----------	k	O
44	milostpaní	NNFS3-----A-----	milostpaní	O
45	a	J^--------------	a	O
46	byla	VpNP---3R-AA---I	být	O
47	celá	AAFS1----1A-----	celý	O
48	jaksi	Db--------------	jaksi	O
49	ulekána	VsFS---3R-AP---P	ulekat	O

