1	Však	J^--------------	však	O
2	nezávidím	VB-S---1P-NA---I	závidět	O
3	jí	PPFS3--3--------	ona	O
4	tam	Db--------------	tam	O
5	velké	AAFP4----1A-----	velký	O
6	gáže	NNFP4-----A-----	gáže	O
7	ni	J^--------------	ni	O
8	potlesku	NNIS2-----A-----	potlesk	O
9	ni	J^--------------	ni	O
10	kytic	NNFP2-----A-----	kytice	O
11	úspěchů	NNIP2-----A-----	úspěch	O
12	když	J,--------------	když	O
13	zpívá	VB-S---3P-AA---I	zpívat	O
14	jako	J,--------------	jako	O
15	nejkrásnější	AANS1----3A-----	krásný	O
16	páže	NNNS1-----A-----	páže	O
17	až	J^--------------	až	O
18	mladí	AAMP1----1A-----	mladý	O
19	páni	NNMP1-----A---1-	pán	O
20	jsou	VB-P---3P-AA---I	být	O
21	prý	TT--------------	prý	O
22	bez	RR--2-----------	bez	O
23	dechu	NNIS2-----A-----	dech	O

