1	Ta	PDFS1-----------	ten	O
2	kolosální	AAFS1----1A-----	kolosální	O
3	láska	NNFS1-----A-----	láska	O
4	z	RR--2-----------	z	O
5	nich	P5FP2--3--------	oni	O
6	se	P7-X4-----------	se	O
7	ztratila	VpFS---2R-AA---P	ztratit	O
8	jak	Db--------------	jak	O
9	z	RR--2-----------	z	O
10	jara	NNNS2-----A-----	jaro	O
11	sníh	NNIS1-----A-----	sníh	O
12	je	VB-S---3P-AA---I	být	O
13	rozvod	NNIS1-----A-----	rozvod	O
14	od	RR--2-----------	od	O
15	stolu	NNIS2-----A-----	stůl	O
16	i	J^--------------	i	O
17	lože	NNNS2-----A-----	lože	O
18	i	J^--------------	i	O
19	můj	PSMS5-S1--------	můj	O
20	bože	NNMS5-----A-----	bůh	O

