1	A	J^--------------	a	O
2	pak	Db--------------	pak	O
3	Oh	II--------------	oh	O
4	já	PP-S1--1--------	já	O
5	jít	Vf--------A----I	jít	O
6	musím	VB-S---1P-AA---I	muset	O
7	zpět	Db--------------	zpět	O
8	a	J^--------------	a	O
9	odříkání	NNNS1-----A-----	odříkání	O
10	hořkou	AAFS4----1A-----	hořký	O
11	číš	NNFS4-----A-----	číš	O
12	mám	VB-S---1P-AA---I	mít	O
13	ke	RV--3-----------	k	O
14	dnu	NNNS3-----A-----	dno	O
15	pít	Vf--------A----I	pít	O
16	tu	Db------------1-	tu	O
17	plnou	AAFS4----1A-----	plný	O
18	běd	NNFP2-----A-----	běda	O
19	a	J^--------------	a	O
20	plnou	AAFS7----1A-----	plný	O
21	muk	NNNP2-----A-----	muka	O
22	a	J^--------------	a	O
23	odříkání	NNNS2-----A-----	odříkání	O
24	a	J^--------------	a	O
25	zoufalství	NNNS1-----A-----	zoufalství	O
26	a	J^--------------	a	O
27	ty	PDFP1-----------	ten	O
28	jen	TT--------------	jen	O
29	spíš	Dg-------2A-----	spíše	O

