1	Zář	NNFS1-----A-----	zář	O
2	grandiosní	AAFS1----1A-----	grandiózní	O
3	vesmíru	NNIS2-----A-----	vesmír	O
4	když	J,--------------	když	O
5	v	RR--4-----------	v	O
6	zrak	NNIS4-----A-----	zrak	O
7	mi	PH-S3--1--------	já	O
8	padla	VpFS---3R-AA--1P	padnout	O
9	sil	NNFP2-----A-----	síla	O
10	věčných	AAFP2----1A-----	věčný	O
11	tajemstvím	NNNS7-----A-----	tajemství	O
12	a	J^--------------	a	O
13	osnovami	NNFP7-----A-----	osnova	O
14	světla	NNNS2-----A-----	světlo	O
15	v	RR--4-----------	v	O
16	mou	PSFS4-S1------1-	můj	O
17	duši	NNFS4-----A-----	duše	O
18	odražená	AAFS1----1A-----	odražený	O
19	kosmu	NNIS2-----A-----	kosmos	O
20	od	RR--2-----------	od	O
21	zrcadla	NNNS2-----A-----	zrcadlo	O
22	v	RR--4-----------	v	O
23	ohnisko	NNNS4-----A-----	ohnisko	O
24	palčivé	AANS4----1A-----	palčivý	O
25	a	J^--------------	a	O
26	krvavé	AANS4----1A-----	krvavý	O
27	se	P7-X4-----------	se	O
28	střetla	VpNP---3R-AA--1P	střetnout	O

