1	Své	P8NS4---------1-	svůj	O
2	mládí	NNNS4-----A-----	mládí	O
3	dlouho	Dg-------1A-----	dlouho	O
4	sobě	P6-X3-----------	se	O
5	ponech	Vi-S---2--A----P	ponechat	O
6	až	TT--------------	až	O
7	do	RR--2-----------	do	O
8	té	PDFS2-----------	ten	O
9	stovky	NNFS2-----A-----	stovka	O
10	Dočkej	Vi-S---2--A----P	dočkat	O
11	se	P7-X4-----------	se	O
12	jí	PPFS3--3--------	ona	O
13	mlád	ACIS------A-----	mladý	O
14	v	RR--6-----------	v	O
15	plném	AANS6----1A-----	plný	O
16	zdraví	NNNS6-----A-----	zdraví	O
17	Po	RR--6-----------	po	O
18	zákonech	NNIP6-----A-----	zákon	O
19	odvěkých	AAMP2----1A-----	odvěký	O
20	bohů	NNMP2-----A-----	bůh	O
21	tíha	NNFS1-----A-----	tíha	O
22	její	PSFS2FS3--------	její	O
23	až	J,--------------	až	O
24	dostaví	VB-S---3P-AA---P	dostavit	O
25	se	P7-X4-----------	se	O
26	potom	Db--------------	potom	O
27	stárni	Vi-S---2--A----I	stárnout	O
28	jak	Db--------------	jak	O
29	chceš	VB-S---2P-AA---I	chtít	O
30	Jsi	VB-S---2P-AA---I	být	O
31	ale	J^--------------	ale	O
32	moudrý	AAIS1----1A-----	moudrý	O
33	dost	Dg-------1A-----	dost	O
34	nespěchej	Vi-S---2--N----I	spěchat	O
35	na	RR--4-----------	na	O
36	to	PDNS4-----------	ten	O
37	Zjednotvární	VB-S---3P-AA---P	zjednotvárnět	O
38	pak	Db--------------	pak	O
39	život	NNIS1-----A-----	život	O
40	není	VB-S---3P-NA---I	být	O
41	nad	RR--4-----------	nad	O
42	mladost	NNFS4-----A-----	mladost	O

