1	A	J^--------------	a	O
2	jak	Db--------------	jak	O
3	se	P7-X4-----------	se	O
4	dohodnou	VB-P---3P-AA---P	dohodnout	O
5	zakrátko	Db--------------	zakrátko	O
6	oběma	ClIP3-----------	oba	O
7	v	RR--6-----------	v	O
8	očích	NNFP6-----A-----	oko	O
9	jen	TT--------------	jen	O
10	plane	VB-S---3P-AA---I	planout	O
11	on	PPMS1--3--------	on	O
12	hvězdě	NNFS3-----A-----	hvězda	O
13	říká	VB-S---3P-AA---I	říkat	O
14	jen	TT--------------	jen	O
15	poupátko	NNNS1-----A-----	poupátko	O
16	ona	PPFS1--3--------	ona	O
17	jen	TT--------------	jen	O
18	račte	Vi-P---2--A----I	ráčit	O
19	a	J^--------------	a	O
20	pane	TT--------------	pane	O

