1	Je	VB-S---3P-AA---I	být	O
2	luzná	AAFS1----1A-----	luzný	O
3	svěží	AAFS1----1A-----	svěží	O
4	v	RR--6-----------	v	O
5	té	PDFS6-----------	ten	O
6	své	P8FS6---------1-	svůj	O
7	mladé	AAFS6----1A-----	mladý	O
8	kráse	NNFS6-----A-----	krása	O
9	i	J^--------------	i	O
10	tupý	AAIS1----1A-----	tupý	O
11	žandarm	NNIS1-----A-----	žandarm	O
12	na	RR--4-----------	na	O
13	ni	P5FS4--3--------	on	O
14	zadívá	VB-S---3P-AA---P	zadívat	O
15	se	P7-X4-----------	se	O

