1	Ó	II--------------	ó	O
2	chvíle	NNFS2-----A-----	chvíle	O
3	zoufalé	AAFS2----1A-----	zoufalý	O
4	Ó	II--------------	ó	O
5	strašné	AAFS2----1A-----	strašný	O
6	chvíle	NNFS2-----A-----	chvíle	O
7	nudy	NNFS2-----A-----	nuda	O
8	a	J^--------------	a	O
9	hořké	AAFS2----1A-----	hořký	O
10	lítosti	NNFS2-----A-----	lítost	O
11	a	J^--------------	a	O
12	samoty	NNFS2-----A-----	samota	O
13	a	J^--------------	a	O
14	žele	VeMS------A----I	želet	O
15	Já	PP-S1--1--------	já	O
16	mnoho	Ca--4-----------	mnoho	O
17	prožil	VpMS---1R-AA---P	prožít	O
18	jich	PPNP2--3--------	oni	O
19	když	J,--------------	když	O
20	opuštěn	VsMS---3R-AP---P	opustit	O
21	a	J^--------------	a	O
22	chudý	AAMS1----1A-----	chudý	O
23	tíživá	AANP4----1A-----	tíživý	O
24	odpůldne	NNNP4-----A-----	odpůldne	O
25	jsem	VB-S---1P-AA---I	být	O
26	trávil	VpMS---1R-AA---I	trávit	O
27	za	RR--4-----------	za	O
28	neděle	NNFP4-----A-----	neděle	O

