1	Puch	NNIS1-----A-----	puch	SUSPICIOUS_TYPE
2	krve	NNFS2-----A-----	krev	
3	sražené	AAFS2----1A-----	sražený	
4	jsem	VB-S---1P-AA---I	být	
5	dýchal	VpMS---1R-AA---I	dýchat	
6	z	RR--2-----------	z	
7	dějin	NNFP2-----A-----	dějiny	
8	zvěstí	NNFP2-----A-----	zvěst	
9	a	J^--------------	a	
10	hrůzu	NNFS4-----A-----	hrůza	
11	Neznámého	AAMS2----1N-----	známý	SUSPICIOUS_TYPE
12	z	RR--2-----------	z	
13	vlastní	AAFS2----1A-----	vlastní	
14	duše	NNFS2-----A-----	duše	
15	hloubi	NNFS2-----A-----	hloub	
16	a	J^--------------	a	
17	zřel	VpMS---1R-AA---I	zřít	
18	jsem	VB-S---1P-AA---I	být	
19	v	RR--6-----------	v	
20	žití	NNNS6-----A-----	žití	
21	hru	NNFS4-----A-----	hra	
22	kde	Db--------------	kde	
23	bledý	AAIS1----1A-----	bledý	
24	přelud	NNIS1-----A-----	přelud	
25	štěstí	NNNS2-----A-----	štěstí	
26	jak	Db--------------	jak	
27	v	RR--6-----------	v	
28	perleti	NNFS6-----A-----	perleť	
29	se	P7-X4-----------	se	
30	lomem	NNIS7-----A-----	lom	
31	vrchních	AAFP2----1A-----	vrchní	
32	vrstev	NNFP2-----A-----	vrstva	
33	snoubí	VB-P---3P-AA---I	snoubit	

