1	Ó	II--------------	ó	O
2	co	PQ--1-----------	co	O
3	se	P7-X4-----------	se	O
4	ňadry	NNNP7-----A-----	ňadro	O
5	chvělo	VpNS---3R-AA---I	chvět	O
6	našimi	PSNP7-P1--------	náš	O
7	sám	PLMS1-----------	sám	O
8	nevím	VB-S---1P-NA---I	vědět	O
9	už	Db--------------	už	O
10	jen	TT--------------	jen	O
11	vím	VB-S---1P-AA---I	vědět	O
12	že	J,--------------	že	O
13	plaší	VB-S---3P-AA---I	plašit	O
14	mi	PH-S3--1--------	já	O
15	tak	Db--------------	tak	O
16	náhlé	AAFP1----1A-----	náhlý	O
17	snové	AAFP1----1A-----	snový	O
18	hlavou	NNFS7-----A-----	hlava	O
19	létli	X24-------------	létli	O
20	jak	Db--------------	jak	O
21	s	RR--7-----------	s	O
22	čímsi	PZ--7-----------	cosi	O
23	drahým	AANS7----1A-----	drahý	O
24	bych	Vc-S---1-------I	být	O
25	se	P7-X4-----------	se	O
26	loučit	Vf--------A----I	loučit	O
27	měl	VpMS---1R-AA---I	mít	O
28	A	J^--------------	a	O
29	kraj	NNIS1-----A-----	kraj	O
30	se	P7-X4-----------	se	O
31	zvolna	Db--------------	zvolna	O
32	víc	Dg-------2A---1-	hodně	O
33	a	J^--------------	a	O
34	více	Dg-------2A-----	hodně	O
35	tměl	VpMS---3R-AA---I	tmít	O
36	zrak	NNIS1-----A-----	zrak	O
37	oslněný	AAIS1----1A-----	oslněný	O
38	v	RR--4-----------	v	O
39	údol	NNIS4-----A-----	údol	O
40	vzhléd	X24-------------	vzhléd´	O
41	li	J,--------------	li	O

