1	A	J^--------------	a	O
2	usmívá	VB-S---3P-AA---I	usmívat	O
3	se	P7-X4-----------	se	O
4	všecko	PLNS1-----------	všecek	O
5	stejně	Dg-------1A-----	stejně	O
6	i	J^--------------	i	O
7	růže	NNFS1-----A-----	růže	O
8	nach	NNIS1-----A-----	nach	O
9	i	J^--------------	i	O
10	pták	NNMS1-----A-----	pták	O
11	jenž	PJMS1-----------	jenž	O
12	zpívá	VB-S---3P-AA---I	zpívat	O
13	v	RR--6-----------	v	O
14	rodném	AANS6----1A-----	rodný	O
15	hejně	NNNS6-----A-----	hejno	O
16	zlatý	NNMS1-----A-----	zlatý	O
17	paprsk	X24-------------	paprsk	O
18	na	RR--6-----------	na	O
19	vlnách	NNFP6-----A-----	vlna	O

