1	Ta	PDFS1-----------	ten	O
2	zlatá	AAFS1----1A-----	zlatý	O
3	procházka	NNFS1-----A-----	procházka	O
4	dnešní	AAFS1----1A-----	dnešní	O
5	v	RR--6-----------	v	O
6	aleji	NNFS6-----A-----	alej	O
7	kvetoucích	AGFP2-----A-----	kvetoucí	O
8	třešní	NNFP2-----A-----	třešeň	O

