1	Tu	PDFS4-----------	ten	O
2	hlavu	NNFS4-----A-----	hlava	O
3	skloníš	VB-S---2P-AA---P	sklonit	O
4	v	RR--6-----------	v	O
5	smutku	NNIS6-----A-----	smutek	O
6	v	RR--6-----------	v	O
7	srdci	NNNS6-----A-----	srdce	O
8	rmut	NNIS4-----A-----	rmut	O
9	a	J^--------------	a	O
10	prázdno	NNNS1-----A-----	prázdno	O
11	teskno	Dg-------1A-----	teskno	O
12	spásy	NNFS2-----A-----	spása	O
13	odnikud	Db--------------	odnikud	O
14	vše	PLNS1---------1-	všechen	O
15	lhalo	VpNS---3R-AA---I	lhát	O
16	a	J^--------------	a	O
17	vše	PLNS1---------1-	všechen	O
18	lže	VB-S---3P-AA---I	lhát	O
19	ti	PH-S3--2--------	ty	O
20	vše	PLNS1---------1-	všechen	O
21	víra	NNFS1-----A-----	víra	O
22	v	RR--4-----------	v	O
23	sebe	P6-X4-----------	se	O
24	v	RR--6-----------	v	O
25	jiné	AAFS6----1A-----	jiný	O
26	v	RR--4-----------	v	O
27	lásku	NNFS4-----A-----	láska	O
28	cnost	NNFS4-----A-----	cnost	O
29	jež	PJNS1-----------	jenž	O
30	prodá	VB-S---3P-AA---P	prodat	O
31	se	P7-X4-----------	se	O
32	Kde	Db--------------	kde	O
33	tady	Db--------------	tady	O
34	budoucnost	NNFS1-----A-----	budoucnost	O
35	jež	PJIP1-----------	jenž	O
36	mírem	NNIS7-----A-----	mír	O
37	život	NNIS1-----A-----	život	O
38	světí	VB-S---3P-AA---I	světit	O

