1	Jak	Db--------------	jak	O
2	vysíleni	VsMP---3P-AP---P	vysílit	O
3	pijí	VB-P---3P-AA--1I	pít	O
4	vzduch	NNIS4-----A-----	vzduch	O
5	ten	PDIS1-----------	ten	O
6	svěží	AAIS1----1A-----	svěží	O
7	všem	PLFP3-----------	všechen	O
8	na	RR--6-----------	na	O
9	skráních	NNFP6-----A-----	skráň	O
10	posupná	AAFS1----1A-----	posupný	O
11	starost	NNFS1-----A-----	starost	O
12	leží	VB-S---3P-AA---I	ležet	O

