1	Jsme	VB-P---1P-AA---I	být	O
2	k	RR--3-----------	k	O
3	smrti	NNFS3-----A-----	smrt	O
4	zemdleni	VsMP---1P-AP---P	zemdlít	O
5	jsme	VB-P---1P-AA---I	být	O
6	ospalí	AAMP1----1A-----	ospalý	O
7	a	J^--------------	a	O
8	malí	AAMP1----1A-----	malý	O
9	vše	PLNS1---------1-	všechen	O
10	plno	Db--------------	plno	O
11	mrákoty	NNFS2-----A-----	mrákota	O
12	my	PP-P1--1--------	my	O
13	jdeme	VB-P---1P-AA---I	jít	O
14	v	RR--4-----------	v	O
15	náruč	NNFS4-----A-----	náruč	O
16	tmám	NNFP3-----A-----	tma	O
17	a	J^--------------	a	O
18	co	PQ--4-----------	co	O
19	nám	PP-P3--1--------	my	O
20	velkého	AAIS2----1A-----	velký	O
21	a	J^--------------	a	O
22	svatého	AAIS2----1A-----	svatý	O
23	se	P7-X4-----------	se	O
24	halí	VB-S---3P-AA---I	halit	O
25	za	RR--4-----------	za	O
26	závoj	NNIS4-----A-----	závoj	O
27	vylhaný	AAIS4----1A-----	vylhaný	O
28	a	J^--------------	a	O
29	v	RR--6-----------	v	O
30	mlze	NNFS6-----A-----	mlha	O
31	hyne	VB-S---3P-AA---I	hynout	O
32	nám	PP-P3--1--------	my	O

