1	Paprsku	NNIS3-----A-----	paprsek	O
2	z	RR--2-----------	z	O
3	těch	PDFP2-----------	ten	O
4	snících	AGFP2-----A-----	snící	O
5	řas	NNFP2-----A-----	řasa	O
6	a	J^--------------	a	O
7	z	RR--2-----------	z	O
8	těch	PDIP2-----------	ten	O
9	rtů	NNIP2-----A-----	ret	O
10	už	Db--------------	už	O
11	slůvka	NNNP1-----A-----	slůvko	O
12	ani	J^--------------	ani	O
13	Ty	PP-S1--2--------	ty	O
14	už	Db--------------	už	O
15	spíš	VB-S---2P-AA---I	spát	O
16	Ten	PDIS1-----------	ten	O
17	umírání	NNNS1-----A-----	umírání	O
18	těžký	AAIS1----1A-----	těžký	O
19	hlas	NNIS1-----A-----	hlas	O
20	neslyšíš	VB-S---2P-NA---I	slyšet	O
21	jenž	PJIS1-----------	jenž	O
22	ze	RV--2-----------	z	O
23	všad	X24-------------	všad	O
24	vane	VB-S---3P-AA---I	vanout	O
25	do	RR--2-----------	do	O
26	dna	NNNS2-----A-----	dno	O
27	duše	NNFS2-----A-----	duše	O
28	rozervané	AAFS2----1A-----	rozervaný	O
29	Bude	VB-S---3F-AA---I	být	O
30	mráz	NNIS1-----A-----	mráz	O

