1	Vy	PP-P1--2--------	vy	O
2	bráníte	VB-P---2P-AA---I	bránit	O
3	se	P7-X4-----------	se	O
4	sice	Db--------------	sice	O
5	chabě	Dg-------1A-----	chabě	O
6	leč	J^--------------	leč	O
7	co	PQ--1-----------	co	O
8	to	PDNS4-----------	ten	O
9	platno	ACNS------A-----	platný	O
10	mezi	RR--7-----------	mezi	O
11	tím	PDMS7-----------	ten	O
12	doktore	NNMS5-----A-----	doktor	O
13	na	RR--4-----------	na	O
14	zdar	NNIS4-----A-----	zdar	O
15	servus	NNMS1-----A-----	servus	O
16	hrabě	NNMS1-----A-----	hrabě	O
17	se	P7-X4-----------	se	O
18	k	RR--3-----------	k	O
19	známým	AAMP3----1A-----	známý	O
20	hlásí	VB-P---3P-AA---I	hlásit	O
21	s	RR--7-----------	s	O
22	pohnutím	NNNS7-----A-----	pohnutí	O

