1	Byl	VpIS---3R-AA---I	být	O
2	ztracen	VsMS---3R-AP---P	ztratit	O
3	už	Db--------------	už	O
4	Dech	NNIS1-----A-----	dech	O
5	všecek	PLIS1-----------	všecek	O
6	jemu	PPIS3--3--------	on	O
7	scházel	VpIS---3R-AA---I	scházet	O
8	byl	VpIS---3R-AA---I	být	O
9	od	RR--2-----------	od	O
10	jara	NNNS2-----A-----	jaro	O
11	tu	Db------------1-	tu	O
12	již	Db--------------	již	O
13	leč	J^--------------	leč	O
14	kolik	C?--4-----------	kolik	O
15	neděl	NNFP2-----A---1-	neděle	O
16	na	RR--4-----------	na	O
17	chvíli	NNFS4-----A-----	chvíle	O
18	ani	J^--------------	ani	O
19	z	RR--2-----------	z	O
20	domu	NNIS2-----A-----	dům	O
21	nevycházel	VpIS---3R-NA---I	vycházet	O
22	jen	TT--------------	jen	O
23	když	J,--------------	když	O
24	mu	PHMS3--3--------	on	O
25	lépe	Dg-------2A-----	dobře	O
26	bylo	VpNS---3R-AA---I	být	O
27	mlčky	Db--------------	mlčky	O
28	seděl	VpMS---3R-AA---I	sedět	O
29	v	RR--6-----------	v	O
30	lenošce	NNFS6-----A-----	lenoška	O
31	u	RR--2-----------	u	O
32	okna	NNNS2-----A-----	okno	O
33	a	J^--------------	a	O
34	druhým	CrMS7-----------	druhý	O
35	hostem	NNMS7-----A-----	host	O
36	záviděl	VpIS---3R-AA---I	závidět	O
37	v	RR--6-----------	v	O
38	duši	NNFS6-----A-----	duše	O
39	své	P8NS4---------1-	svůj	O
40	hle	II--------------	hle	O
41	smích	NNIS1-----A-----	smích	O
42	tam	Db--------------	tam	O
43	zvučí	VB-S---3P-AA---I	zvučet	O
44	a	J^--------------	a	O
45	on	PPMS1--3--------	on	O
46	tu	Db------------1-	tu	O
47	ve	RV--6-----------	v	O
48	svém	P8IS6-----------	svůj	O
49	pokojíku	NNIS6-----A-----	pokojík	O
50	prostém	AAIS6----1A-----	prostý	O
51	se	P7-X4-----------	se	O
52	bolestnému	AANS3----1A-----	bolestný	O
53	odříkání	NNNS3-----A-----	odříkání	O
54	učí	VB-S---3P-AA---I	učit	O

