1	Ať	J^--------------	ať	O
2	bouře	NNFS1-----A-----	bouře	O
3	kolem	Db--------------	kolem	O
4	duje	VB-S---3P-AA---I	dout	O
5	prudce	Dg-------1A-----	prudce	O
6	a	J^--------------	a	O
7	daleko	Dg-------1A-----	daleko	O
8	ať	J^--------------	ať	O
9	ke	RV--3-----------	k	O
10	spáse	NNFS3-----A-----	spása	O
11	kdo	PKM-1-----------	kdo	O
12	mužem	NNMS7-----A-----	muž	O
13	je	VB-S---3P-AA---I	být	O
14	zde	Db--------------	zde	O
15	nevzdá	VB-S---3P-NA---P	vzdát	O
16	se	P7-X4-----------	se	O
17	a	J^--------------	a	O
18	padnout	Vf--------A----P	padnout	O
19	smí	VB-S---3P-AA---I	smět	O
20	jen	TT--------------	jen	O
21	s	RR--7-----------	s	O
22	mečem	NNIS7-----A-----	meč	O
23	v	RR--6-----------	v	O
24	ruce	NNFS6-----A-----	ruka	O

