1	Irkutský	AAIS1----1A-----	irkutský	O
2	sníh	NNIS1-----A-----	sníh	O
3	ten	PDIS1-----------	ten	O
4	všecky	PLFP1-----------	všecek	O
5	touhy	NNFP1-----A-----	touha	O
6	stlumí	X24-------------	stlumí	O
7	vše	PLNS1---------1-	všechen	O
8	marné	AANS1----1A-----	marný	O
9	naděje	NNFS2-----A-----	naděje	O
10	i	J^--------------	i	O
11	marné	AAFS2----1A-----	marný	O
12	dumy	NNFS2-----A-----	duma	O

