1	Má	VB-S---3P-AA---I	mít	O
2	drahá	AAFS1----1A-----	drahý	O
3	manžel	NNMS1-----A-----	manžel	O
4	po	RR--6-----------	po	O
5	odchodu	NNIS6-----A-----	odchod	O
6	hostí	NNMP2-----A---1-	host	O
7	k	RR--3-----------	k	O
8	ní	P5FS3--3--------	on	O
9	přistoupil	VpIS---3R-AA---P	přistoupit	O
10	jste	VB-P---2P-AA---I	být	O
11	rozčilena	VsNP---3R-AP---P	rozčílit	O
12	zdá	VB-S---3P-AA---I	zdát	O
13	se	P7-X4-----------	se	O
14	A	J^--------------	a	O
15	pláčete	VB-P---2P-AA---I	plakat	O
16	To	PDNS1-----------	ten	O
17	škodí	VB-S---3P-AA---I	škodit	O
18	vaší	PSFS3-P2--------	váš	O
19	kráse	NNFS3-----A-----	krása	O
20	Jste	VB-P---2P-AA---I	být	O
21	nemocna	ACNP------A-----	nemocný	O
22	Jsem	VB-S---1P-AA---I	být	O
23	o	RR--6-----------	o	O
24	vás	PP-P6--2--------	vy	O
25	ve	RV--6-----------	v	O
26	starosti	NNFS6-----A-----	starost	O

