1	Pak	Db--------------	pak	O
2	zoufati	Vf--------A---2I	zoufat	O
3	sám	PLMS1-----------	sám	O
4	budeš	VB-S---2F-AA---I	být	O
5	nad	RR--7-----------	nad	O
6	sebou	P6-X7-----------	se	O
7	až	TT--------------	až	O
8	pochybnosti	NNFP1-----A-----	pochybnost	O
9	v	RR--4-----------	v	O
10	skráň	NNFS4-----A-----	skráň	O
11	ti	PH-S3--2--------	ty	O
12	zazebou	VB-P---3P-AA---P	zazábst	O
13	zda	J,--------------	zda	O
14	vystačí	VB-S---3P-AA---P	vystačit	O
15	ti	PH-S3--2--------	ty	O
16	síla	NNFS1-----A-----	síla	O
17	k	RR--3-----------	k	O
18	té	PDFS3-----------	ten	O
19	hrozné	AAFS3----1A-----	hrozný	O
20	pouti	NNFS3-----A-----	pouť	O
21	tmou	NNFS7-----A-----	tma	O
22	a	J^--------------	a	O
23	bez	RR--2-----------	bez	O
24	světla	NNNS2-----A-----	světlo	O
25	tmou	NNFS7-----A-----	tma	O
26	z	RR--2-----------	z	O
27	které	P4FS2-----------	který	O
28	dávno	Dg-------1A-----	dávno	O
29	víra	NNFS1-----A-----	víra	O
30	ulétla	VpFS---3R-AA--1P	ulétnout	O
31	ta	PDFS1-----------	ten	O
32	holubička	NNFS1-----A-----	holubička	O
33	bílá	AAFS1----1A-----	bílý	O

