1	Pojď	Vi-S---2--A---1I	jít	O
2	jen	TT--------------	jen	O
3	pojď	Vi-S---2--A---1I	jít	O
4	mé	PSNS1-S1------1-	můj	O
5	zlaté	AANS1----1A-----	zlatý	O
6	dítě	NNNS1-----A-----	dítě	O
7	Či	J^--------------	či	O
8	ples	NNIS1-----A-----	ples	O
9	záře	NNFS1-----A-----	záře	O
10	hry	NNFP1-----A-----	hra	O
11	ni	J^--------------	ni	O
12	hvězda	NNFS1-----A-----	hvězda	O
13	růže	NNFS1-----A-----	růže	O
14	nevábí	VB-S---3P-NA---I	vábit	O
15	tě	PH-S4--2--------	ty	O
16	více	Dg-------2A-----	hodně	O
17	nyní	Db--------------	nyní	O

