1	A	J^--------------	a	O
2	přijde	VB-S---3P-AA---P	přijít	O
3	den	NNIS4-----A-----	den	O
4	kdy	Db--------------	kdy	O
5	vzpomínati	Vf--------A---2I	vzpomínat	O
6	budem	VB-P---1F-AA--6I	být	O
7	všech	PLNP2-----------	všechen	O
8	zašlých	AANP2----1A-----	zašlý	O
9	utrpení	NNNP2-----A-----	utrpení	O
10	kéž	TT--------------	kéž	O
11	nám	PP-P3--1--------	my	O
12	přáno	VsNS---3F-AP---I	přát	O
13	by	Vc-------------I	být	O
14	vzpomínky	NNFP1-----A-----	vzpomínka	O
15	nás	PP-P4--1--------	my	O
16	nebodaly	VpFP---3R-NA---I	bodat	O
17	studem	NNIS7-----A-----	stud	O

