1	Tak	Db--------------	tak	O
2	velké	AANS1----1A-----	velký	O
3	město	NNNS1-----A-----	město	O
4	zvolna	Db--------------	zvolna	O
5	živne	VB-S---3P-AA---I	živnout	O
6	Ospalý	AAMS1----1A-----	ospalý	O
7	strážník	NNMS1-----A-----	strážník	O
8	líně	Dg-------1A-----	líně	O
9	zívne	VB-S---3P-AA---P	zívnout	O
10	a	J^--------------	a	O
11	nač	PY--------------	nač	O
12	si	P7-X3-----------	se	O
13	myslí	VB-S---3P-AA---I	myslet	O
14	neví	VB-S---3P-NA---I	vědět	O
15	sám	PLIS1-----------	sám	O
16	Jde	VB-S---3P-AA---I	jít	O
17	sem	Db--------------	sem	O
18	a	J^--------------	a	O
19	tam	Db--------------	tam	O
20	jen	TT--------------	jen	O
21	tím	PDMS7-----------	ten	O
22	se	P7-X4-----------	se	O
23	bavě	VeIS------A----I	bavit	O
24	že	J,--------------	že	O
25	chvíli	NNFS3-----A-----	chvíle	O
26	hledí	VB-S---3P-AA---I	hledět	O
27	přemítavě	Dg-------1A-----	přemítavě	O
28	výš	Dg-------2A-----	vysoko	O
29	ke	RV--3-----------	k	O
30	průsvitným	AAFP3----1A-----	průsvitný	O
31	hodinám	NNFP3-----A-----	hodina	O

