1	a	J^--------------	a	O
2	bílé	AANS1----1A-----	bílý	O
3	čelo	NNNS1-----A-----	čelo	O
4	malé	AAFP1----1A-----	malý	O
5	ruce	NNFP1-----A-----	ruka	O
6	bílé	AAFP1----1A-----	bílý	O
7	a	J^--------------	a	O
8	ústa	NNNP1-----A-----	ústa	O
9	která	P4NP1-----------	který	O
10	lásku	NNFS4-----A-----	láska	O
11	znala	VpFS---3R-AA---I	znát	O
12	jen	TT--------------	jen	O
13	to	PDNS1-----------	ten	O
14	všecko	PLNS1-----------	všecek	O
15	všecko	PLNS1-----------	všecek	O
16	v	RR--6-----------	v	O
17	kouzlu	NNNS6-----A---1-	kouzlo	O
18	divné	AAFS2----1A-----	divný	O
19	chvíle	NNFS2-----A-----	chvíle	O
20	tak	Db--------------	tak	O
21	sám	PLIS1-----------	sám	O
22	a	J^--------------	a	O
23	sám	PLMS1-----------	sám	O
24	smím	VB-S---1P-AA---I	smět	O
25	líbat	Vf--------A----I	líbat	O
26	opojen	VsMS---1P-AP---P	opojit	O

