1	Kdože	PZM-1-----------	kdože	O
2	to	PDNS4-----------	ten	O
3	v	RR--6-----------	v	O
4	řadách	NNFP6-----A-----	řada	O
5	pravil	VpMS---3R-AA---P	pravit	O
6	Vzdát	Vf--------A----P	vzdát	O
7	se	P7-X4-----------	se	O
8	Ven	Db--------------	ven	O
9	z	RR--2-----------	z	O
10	našich	PSFP2-P1--------	náš	O
11	řad	NNFP2-----A-----	řada	O
12	ten	PDIS1-----------	ten	O
13	prokletý	AAMS1----1A-----	prokletý	O
14	zde	Db--------------	zde	O
15	není	VB-S---3P-NA---I	být	O
16	místa	NNNP1-----A-----	místo	O
17	pro	RR--4-----------	pro	O
18	skety	NNIP4-----A-----	sket	O
19	je	VB-S---3P-AA---I	být	O
20	slaboch	NNMS1-----A-----	slaboch	O
21	totéž	PDNS1-----------	tentýž	O
22	jako	J,--------------	jako	O
23	zrádce	NNMS1-----A-----	zrádce	O

