1	A	J^--------------	a	O
2	silou	NNFS7-----A-----	síla	O
3	zvýšenou	AAFS7----1A-----	zvýšený	O
4	můj	PSIS1-S1--------	můj	O
5	obdař	Vi-S---2--A----P	obdařit	O
6	lidský	AAIS4----1A-----	lidský	O
7	sluch	NNIS4-----A-----	sluch	O
8	ať	J^--------------	ať	O
9	v	RR--4-----------	v	O
10	resonanční	AAIS4----1A-----	resonanční	O
11	nástroj	NNIS4-----A-----	nástroj	O
12	se	P7-X4-----------	se	O
13	mi	PH-S3--1--------	já	O
14	promění	VB-S---3P-AA---P	proměnit	O
15	jímž	PJIS7-----------	jenž	O
16	přelévání	NNNS1-----A-----	přelévání	O
17	šťáv	NNFP2-----A-----	šťáva	O
18	a	J^--------------	a	O
19	vzrůstu	NNIS2-----A-----	vzrůst	O
20	skrytý	AAIS1----1A-----	skrytý	O
21	ruch	NNIS1-----A-----	ruch	O
22	jak	Db--------------	jak	O
23	hudby	NNFP4-----A-----	hudba	O
24	tajemné	AAFS2----1A-----	tajemný	O
25	zázračné	AAFS2----1A-----	zázračný	O
26	slyším	VB-S---1P-AA---I	slyšet	O
27	vlnění	NNNS4-----A-----	vlnění	O
28	ať	J^--------------	ať	O
29	cítím	VB-S---1P-AA---I	cítit	O
30	rostlin	NNFP2-----A-----	rostlina	O
31	puls	NNIS4-----A-----	puls	O
32	i	J^--------------	i	O
33	hudbu	NNFS4-----A-----	hudba	O
34	hvězdných	AAMP2----1A-----	hvězdný	O
35	dráh	X24-------------	dráh	O
36	paprsků	NNIP2-----A-----	paprsek	O
37	světla	NNNS2-----A-----	světlo	O
38	lom	NNIS1-----A-----	lom	O
39	a	J^--------------	a	O
40	vzduchu	NNIS2-----A-----	vzduch	O
41	ráz	NNIS1-----A-----	ráz	O
42	a	J^--------------	a	O
43	šum	NNIS1-----A-----	šum	O
44	motýlů	NNMP2-----A-----	motýl	O
45	tichý	AAIS1----1A-----	tichý	O
46	let	NNIS1-----A-----	let	O
47	a	J^--------------	a	O
48	v	RR--6-----------	v	O
49	duší	NNFP2-----A-----	duše	O
50	hlubinách	NNFP6-----A-----	hlubina	O
51	myšlének	NNFP2-----A-----	myšlénka	O
52	tajný	AAIS1----1A-----	tajný	O
53	vznik	NNIS1-----A-----	vznik	O
54	a	J^--------------	a	O
55	zápas	NNIS1-----A-----	zápas	O
56	vír	NNIS1-----A-----	vír	O
57	a	J^--------------	a	O
58	tlum	NNIS1-----A-----	tlum	O

