1	Tak	Db--------------	tak	O
2	bez	RR--2-----------	bez	O
3	oddechu	NNIS2-----A-----	oddech	O
4	pachtím	VB-S---1P-AA---I	pachtit	O
5	se	P7-X4-----------	se	O
6	jdu	VB-S---1P-AA---I	jít	O
7	dnem	NNIS7-----A-----	den	O
8	i	J^--------------	i	O
9	nocí	NNFS7-----A-----	noc	O
10	s	RR--7-----------	s	O
11	listem	NNIS7-----A-----	list	O
12	tvým	PSIS7-S2--------	tvůj	O
13	však	J^--------------	však	O
14	cos	X24-------------	co´s	O
15	mi	PH-S3--1--------	já	O
16	říci	Vf--------A---1P	říci	O
17	chtěl	VpMS---3R-AA---I	chtít	O
18	ó	II--------------	ó	O
19	žal	NNIS4-----A-----	žal	O
20	to	PDNS1-----------	ten	O
21	zůstalo	VpNS---3R-AA---P	zůstat	O
22	mi	PH-S3--1--------	já	O
23	tajemstvím	NNNS7-----A-----	tajemství	O

