1	Hlas	NNIS1-----A-----	hlas	O
2	zvonů	NNIP2-----A-----	zvon	O
3	do	RR--2-----------	do	O
4	dálky	NNFS2-----A-----	dálka	O
5	zní	VB-S---3P-AA---I	znít	O
6	temně	Dg-------1A-----	temně	O
7	černé	AAFP1----1A-----	černý	O
8	látky	NNFP1-----A-----	látka	O
9	smuteční	AAFP1----1A-----	smuteční	O
10	obálky	NNFP1-----A-----	obálka	O
11	i	J^--------------	i	O
12	kravaty	NNFP1-----A-----	kravata	O
13	i	J^--------------	i	O
14	šátky	NNIP1-----A-----	šátek	O
15	i	J^--------------	i	O
16	šperky	NNIP4-----A-----	šperk	O
17	v	RR--6-----------	v	O
18	každé	PLFS6-----------	každý	O
19	skříni	NNFS6-----A-----	skříň	O
20	A	J^--------------	a	O
21	v	RR--6-----------	v	O
22	každé	PLFS6-----------	každý	O
23	tmavý	AAFS6----1A---6-	tmavý	O
24	šlář	X24-------------	šlář	O
25	jenž	PJIS1-----------	jenž	O
26	truchle	Dg-------1A-----	truchle	O
27	tmavě	Dg-------1A-----	tmavě	O
28	stíní	VB-S---3P-AA---I	stínit	O
29	tu	Db------------1-	tu	O
30	zemřelého	AAMS4----1A-----	zemřelý	O
31	tvář	NNFS1-----A-----	tvář	O

