1	Šel	VpMS---3R-AA---I	jít	O
2	hledat	Vf--------A----I	hledat	O
3	štěstí	NNNS4-----A-----	štěstí	O
4	v	RR--4-----------	v	O
5	cizí	AAFS4----1A-----	cizí	O
6	zem	NNFS4-----A---1-	země	O
7	za	RR--4-----------	za	O
8	moře	NNNS4-----A-----	moře	O
9	hory	NNFP1-----A-----	hora	O
10	v	RR--6-----------	v	O
11	dáli	NNFS6-----A-----	dál	O
12	však	J^--------------	však	O
13	štěstí	NNNS1-----A-----	štěstí	O
14	štěstí	NNNS1-----A-----	štěstí	O
15	bylo	VpNS---3R-AA---I	být	O
16	snem	NNIS7-----A-----	sen	O
17	jen	TT--------------	jen	O
18	slzy	NNFP1-----A-----	slza	O
19	v	RR--6-----------	v	O
20	očích	NNFP6-----A-----	oko	O
21	stály	VpFP---3R-AA---B	stát	O

