1	Panské	AAFP4----1A-----	panský	O
2	choutky	NNFP4-----A-----	choutka	O
3	měl	VpMS---3R-AA---I	mít	O
4	i	J^--------------	i	O
5	mravy	NNIP4-----A-----	mrav	O
6	takto	Db--------------	takto	O
7	ale	J^--------------	ale	O
8	vrták	NNMS1-----A-----	vrták	O
9	pravý	AAMS1----1A-----	pravý	O
10	na	RR--4-----------	na	O
11	rozum	NNIS4-----A-----	rozum	O
12	si	P7-X3-----------	se	O
13	sed	X24-------------	sed´	O

