1	Že	J,--------------	že	O
2	trnul	VpIS---3R-AA---I	trnout	O
3	měsíc	NNIS1-----A-----	měsíc	O
4	jenž	PJIS1-----------	jenž	O
5	ti	PH-S3--2--------	ty	O
6	plál	VpIS---3R-AA---I	planout	O
7	v	RR--6-----------	v	O
8	čele	NNNS6-----A-----	čelo	O
9	snivém	AANS6----1A-----	snivý	O
10	oblém	AANS6----1A-----	oblý	O
11	kde	Db--------------	kde	O
12	nekonečných	AAIP2----1N-----	konečný	O
13	tajů	NNIP2-----A-----	taj	O
14	spal	VpIS---3R-AA---I	spát	O
15	rozluštěný	AAIS1----1A-----	rozluštěný	O
16	problém	NNIS1-----A-----	problém	O

