1	Ó	II--------------	ó	O
2	jděte	Vi-P---2--A----I	jít	O
3	jste	VB-P---2P-AA---I	být	O
4	tu	Db------------1-	tu	O
5	všichni	PLMP1-----------	všechen	O
6	lháři	NNMP1-----A-----	lhář	O
7	vy	PP-P1--2--------	vy	O
8	poeti	NNMP1-----A---1-	poeta	O
9	jste	VB-P---2P-AA---I	být	O
10	chudí	AAMP1----1A-----	chudý	O
11	prázdní	AAMP1----1A-----	prázdný	O
12	pohádkáři	NNMP1-----A-----	pohádkář	O
13	již	Db--------------	již	O
14	píší	VB-P---3P-AA--1I	psát	O
15	verše	NNIP4-----A-----	verš	O
16	pro	RR--4-----------	pro	O
17	děti	NNFP4-----A-----	dítě	O

