1	Má	VB-S---3P-AA---I	mít	O
2	temnou	AAFS4----1A-----	temný	O
3	pleť	NNFS4-----A-----	pleť	O
4	a	J^--------------	a	O
5	tmavé	AAIP4----1A-----	tmavý	O
6	vlasy	NNIP4-----A-----	vlas	O
7	a	J^--------------	a	O
8	dlouhý	AAIS4----1A-----	dlouhý	O
9	plášť	NNIS4-----A-----	plášť	O
10	v	RR--6-----------	v	O
11	němž	P9IS6-----------	jenž	O
12	zdá	VB-S---3P-AA---I	zdát	O
13	se	P7-X4-----------	se	O
14	malá	AAFS1----1A-----	malý	O
15	a	J^--------------	a	O
16	klobouk	NNIS1-----A-----	klobouk	O
17	jejž	PJIS4---------1-	jenž	O
18	jí	PPFS3--3--------	ona	O
19	paní	NNFS1-----A-----	paní	O
20	dala	VpFS---3R-AA---P	dát	O
21	a	J^--------------	a	O
22	který	P4NP1---------6-	který	O
23	ona	PPFS1--3--------	ona	O
24	přešila	VpNP---3R-AA---P	přešít	O
25	si	P7-X3-----------	se	O

