1	Ach	II--------------	ach	O
2	tatíčku	NNMS3-----A---1-	tatíček	O
3	srdce	NNNS4-----A-----	srdce	O
4	zlaté	AANS4----1A-----	zlatý	O
5	pospal	VpMS---2R-AA---P	pospat	O
6	jste	VB-P---2P-AA---I	být	O
7	si	P7-X3-----------	se	O
8	věru	Db--------------	věru	O
9	hleďte	Vi-P---2--A----I	hledět	O
10	skály	NNFP1-----A-----	skála	O
11	hluboko	Dg-------1A-----	hluboko	O
12	již	Db--------------	již	O
13	ztrácejí	VB-P---3P-AA---I	ztrácet	O
14	se	P7-X4-----------	se	O
15	v	RR--6-----------	v	O
16	šeru	NNNS6-----A-----	šero	O

