1	Tak	Db--------------	tak	O
2	už	Db--------------	už	O
3	si	P7-X3-----------	se	O
4	tě	PH-S4--2--------	ty	O
5	od	RR--2-----------	od	O
6	oltáře	NNIS2-----A-----	oltář	O
7	jiný	AAMS1----1A-----	jiný	O
8	domů	Db--------------	domů	O
9	vede	VB-S---3P-AA---I	vést	O
10	ale	J^--------------	ale	O
11	jak	Db--------------	jak	O
12	já	PP-S1--1--------	já	O
13	miloval	VpMS---3R-AA---I	milovat	O
14	tě	PH-S4--2--------	ty	O
15	věř	Vi-S---2--A----I	věřit	O
16	tak	Db--------------	tak	O
17	nedovede	VB-S---3P-NA---P	dovést	O

