1	A	J^--------------	a	O
2	oko	NNNS1-----A-----	oko	O
3	zvedne	VB-S---3P-AA---P	zvednout	O
4	zticha	Db--------------	zticha	O
5	ah	X24-------------	ah	O
6	slyš	Vi-S---2--A----I	slyšet	O
7	co	PQ--1-----------	co	O
8	chřastí	VB-S---3P-AA---I	chřastit	O
9	to	PDNS1-----------	ten	O
10	tam	Db--------------	tam	O
11	v	RR--6-----------	v	O
12	mlází	NNNS6-----A-----	mlází	O
13	Jen	TT--------------	jen	O
14	kolouch	NNMS1-----A-----	kolouch	O
15	matku	NNFS4-----A-----	matka	O
16	doprovází	VB-S---3P-AA---I	doprovázet	O
17	a	J^--------------	a	O
18	potok	NNIS1-----A-----	potok	O
19	ze	RV--2-----------	z	O
20	sna	NNIS2-----A---1-	sen	O
21	šplíchá	VB-S---3P-AA---I	šplíchat	O

