1	Však	J^--------------	však	O
2	ona	PPFS1--3--------	ona	O
3	měla	VpFS---3R-AA---I	mít	O
4	training	X24-------------	training	O
5	jen	TT--------------	jen	O
6	prý	TT--------------	prý	O
7	v	RR--6-----------	v	O
8	nevěře	NNFS6-----A-----	nevěra	O
9	Tož	TT--------------	tož	O
10	spokojen	ACIS------A-----	spokojený	O
11	prý	TT--------------	prý	O
12	nebyl	VpMS---3R-NA---I	být	O
13	Vůbec	Db--------------	vůbec	O
14	bylo	VpNS---3R-AA---I	být	O
15	zle	Dg-------1A-----	zle	O
16	mu	PHNS3--3--------	on	O
17	on	PPMS1--3--------	on	O
18	čehý	II--------------	čehý	O
19	šel	VpMS---3R-AA---I	jít	O
20	a	J^--------------	a	O
21	ona	PPFS1--3--------	ona	O
22	hot	XX--------------	hot	O
23	až	J,--------------	až	O
24	zadali	VpMP---3R-AA---P	zadat	O
25	si	P7-X3-----------	se	O
26	za	RR--4-----------	za	O
27	rozvod	NNIS4-----A-----	rozvod	O
28	od	RR--2-----------	od	O
29	stolu	NNIS2-----A-----	stůl	O
30	lože	NNNS1-----A-----	lože	O
31	od	RR--2-----------	od	O
32	tandemu	NNIS2-----A-----	tandem	O

