1	Dvě	ClFP1-----------	dva	O
2	hvězdy	NNFP1-----A-----	hvězda	O
3	podle	RR--2-----------	podle	O
4	sebe	P6-X2-----------	se	O
5	jdou	VB-P---3P-AA---I	jít	O
6	a	J^--------------	a	O
7	dívají	VB-P---3P-AA---I	dívat	O
8	se	P7-X4-----------	se	O
9	dolů	Db--------------	dolů	O
10	tak	Db--------------	tak	O
11	od	RR--2-----------	od	O
12	věčna	NNNS2-----A-----	věčno	O
13	do	RR--2-----------	do	O
14	věčnosti	NNFS2-----A-----	věčnost	O
15	ty	PDFP1-----------	ten	O
16	hvězdy	NNFP1-----A-----	hvězda	O
17	dvě	ClFP1-----------	dva	O
18	jdou	VB-P---3P-AA---I	jít	O
19	spolu	Db--------------	spolu	O

