1	Kynula	VpNP---3R-AA---I	kynout	O
2	rukou	NNFS7-----A-----	ruka	O
3	usmála	VpFS---3R-AA---P	usmát	O
4	se	P7-X4-----------	se	O
5	znova	Db--------------	znova	O
6	a	J^--------------	a	O
7	zmizela	VpNP---3R-AA---P	zmizet	O
8	Po	RR--6-----------	po	O
9	boku	NNIS6-----A-----	bok	O
10	svojí	P8FS2-----------	svůj	O
11	máti	NNFS2-----A-----	máť	O
12	jež	PJNS1-----------	jenž	O
13	ji	PPFS4--3--------	ona	O
14	jak	Db--------------	jak	O
15	zřítelnici	NNFS4-----A-----	zřítelnice	O
16	oka	NNNS2-----A-----	oko	O
17	chová	VB-S---3P-AA---I	chovat	O
18	pak	Db--------------	pak	O
19	vyšla	VpFS---3R-AA---P	vyjít	O
20	ven	Db--------------	ven	O
21	Jak	Db--------------	jak	O
22	uměla	VpFS---3R-AA---B	umět	O
23	se	P7-X4-----------	se	O
24	smáti	Vf--------A---2I	smát	O
25	tak	Db--------------	tak	O
26	žádný	PWIP1---------6-	žádný	O
27	jiný	AAMS1----1A-----	jiný	O
28	nedoved	X24-------------	nedoved´	O
29	by	Vc-------------I	být	O
30	po	RR--6-----------	po	O
31	ní	P5FS6--3--------	on	O
32	A	J^--------------	a	O
33	bylo	VpNS---3R-AA---I	být	O
34	tady	Db--------------	tady	O
35	věru	Db--------------	věru	O
36	čemu	PQ--3-----------	co	O
37	smát	Vf--------A----I	smát	O
38	se	P7-X4-----------	se	O
39	Lázeňští	AAMP1----1A-----	lázeňský	O
40	hosté	NNMP1-----A-----	host	O
41	hluboce	Dg-------1A-----	hluboce	O
42	se	P7-X4-----------	se	O
43	kloní	VB-P---3P-AA---I	klonit	O
44	jak	Db--------------	jak	O
45	šel	VpMS---3R-AA---I	jít	O
46	by	Vc-------------I	být	O
47	kolem	Db--------------	kolem	O
48	svrchovaný	AAMS1----1A-----	svrchovaný	O
49	vládce	NNMS1-----A-----	vládce	O

