1	A	J^--------------	a	O
2	než	J,--------------	než	O
3	třetího	CrMS4-----------	třetí	O
4	snad	TT--------------	snad	O
5	lapí	VB-P---3P-AA---P	lapit	O
6	zříte	VB-P---2P-AA---I	zřít	O
7	jak	Db--------------	jak	O
8	ta	PDFS1-----------	ten	O
9	boží	AAFS1----1A-----	boží	O
10	metla	NNFS1-----A-----	metla	O
11	před	RR--7-----------	před	O
12	krámem	NNIS7-----A-----	krám	O
13	kde	Db--------------	kde	O
14	více	Dg-------2A-----	hodně	O
15	světla	NNNS2-----A-----	světlo	O
16	rozprostírá	VB-S---3P-AA---I	rozprostírat	O
17	tytéž	PDFP4-----------	tentýž	O
18	mapy	NNFP4-----A-----	mapa	O

