1	Otázka	NNFS1-----A-----	otázka	O
2	chví	VB-S---3P-AA--2I	chvět	O
3	se	P7-X4-----------	se	O
4	v	RR--4-----------	v	O
5	ret	NNIS4-----A-----	ret	O
6	V	RR--4-----------	v	O
7	tlum	NNIS4-----A-----	tlum	O
8	kupili	VpMP---3R-AA---I	kupit	O
9	se	P7-X4-----------	se	O
10	jedni	ChMP1-----------	jeden	O
11	kol	RR--2-----------	kol	O
12	hloučku	NNIS2-----A-----	hlouček	O
13	který	P4IS1-----------	který	O
14	čet	X24-------------	čet´	O
15	co	PQ--4-----------	co	O
16	listy	NNIP1-----A-----	list	O
17	odpolední	AAIP1----1A-----	odpolední	O
18	přinesly	VpIP---3R-AA---P	přinést	O
19	v	RR--6-----------	v	O
20	černých	AAIP6----1A-----	černý	O
21	rámech	NNIP6-----A-----	rám	O
22	A	J^--------------	a	O
23	ráno	Db--------------	ráno	O
24	druhý	CrIS4-----------	druhý	O
25	den	NNIS4-----A-----	den	O
26	hle	II--------------	hle	O
27	vystaveno	VsNS---3R-AP---P	vystavit	O
28	v	RR--6-----------	v	O
29	krámech	NNIP6-----A-----	krám	O
30	smuteční	AANS4----1A-----	smuteční	O
31	zboží	NNNS4-----A-----	zboží	O
32	jen	TT--------------	jen	O

