1	Tak	Db--------------	tak	O
2	míjela	VpFS---3R-AA---I	míjet	O
3	mi	PH-S3--1--------	já	O
4	léta	NNNP4-----A---2-	rok	O
5	trudná	AAFS1----1A-----	trudný	O
6	kdy	Db--------------	kdy	O
7	život	NNIS1-----A-----	život	O
8	se	P7-X4-----------	se	O
9	tak	Db--------------	tak	O
10	marným	AAIS7----1A-----	marný	O
11	zdál	VpIS---3R-AA---I	zdát	O
12	jen	TT--------------	jen	O
13	v	RR--6-----------	v	O
14	srdci	NNNS6-----A-----	srdce	O
15	hluboko	Dg-------1A-----	hluboko	O
16	kdes	Db--------------	kdes	O
17	u	RR--2-----------	u	O
18	dna	NNNS2-----A-----	dno	O
19	má	PSFS1-S1------1-	můj	O
20	hvězdná	AAFS1----1A-----	hvězdný	O
21	touha	NNFS1-----A-----	touha	O
22	žila	VpFS---3R-AA---I	žít	O
23	dál	Db--------------	dále	O

