1	Zmučeni	VsMP---3R-AP---P	zmučit	O
2	dlouhé	AAFP4----1A-----	dlouhý	O
3	cesty	NNFP4-----A-----	cesta	O
4	strázní	NNFS7-----A-----	strázeň	O
5	mnohou	AAFS7----1A-----	mnohý	O
6	na	RR--6-----------	na	O
7	vzduchu	NNIS6-----A-----	vzduch	O
8	chvíli	NNFS4-----A-----	chvíle	O
9	okřáti	Vf--------A---2P	okřát	O
10	zde	Db--------------	zde	O
11	mohou	VB-P---3P-AA--1I	moci	O

