1	Což	TT--------------	což	O
2	vy	PP-P1--2--------	vy	O
3	jen	TT--------------	jen	O
4	sebe	P6-X4-----------	se	O
5	na	RR--6-----------	na	O
6	zřeteli	NNIS6-----A-----	zřetel	O
7	máte	VB-P---2P-AA---I	mít	O
8	a	J^--------------	a	O
9	jak	Db--------------	jak	O
10	byste	Vc-P---2-------I	být	O
11	se	P7-X4-----------	se	O
12	ujedl	VpMS---2R-AA---P	ujíst	O
13	a	J^--------------	a	O
14	upil	VpMS---3R-AA---P	upít	O
15	A	J^--------------	a	O
16	nebylo	VpNS---3R-NA---I	být	O
17	by	Vc-------------I	být	O
18	hezké	AANS1----1A-----	hezký	O
19	jedenkráte	Cv------------1-	jedenkrát	O
20	děl	NNNP2-----A-----	dílo	O
21	on	PPMS1--3--------	on	O
22	jenž	PJIS1-----------	jenž	O
23	kolem	RR--2-----------	kolem	O
24	sebe	P6-X2-----------	se	O
25	druhé	AAFS2----1A-----	druhý	O
26	skupil	X24-------------	skupil	O
27	když	J,--------------	když	O
28	nejmladší	AAFS1----3A-----	mladý	O
29	k	RR--3-----------	k	O
30	nám	PP-P3--1--------	my	O
31	host	NNMS1-----A-----	host	O
32	by	Vc-------------I	být	O
33	přibyl	VpMS---3R-AA---P	přibýt	O
34	milý	AAIS1----1A-----	milý	O
35	abychom	J,-P---1--------	aby	O
36	k	RR--3-----------	k	O
37	poctě	NNFS3-----A-----	pocta	O
38	mladičkého	AAMS2----1A-----	mladičký	O
39	pána	NNMS2-----A-----	pán	O
40	křtinami	NNFP7-----A-----	křtiny	O
41	fádní	AAIS4----1A-----	fádní	O
42	program	NNIS4-----A-----	program	O
43	oslavili	VpMP---3R-AA---P	oslavit	O
44	přece	Db--------------	přece	O
45	jednou	Db--------------	jednou	O
46	zas	Db--------------	zas	O
47	až	TT--------------	až	O
48	do	RR--2-----------	do	O
49	bílého	AANS2----1A-----	bílý	O
50	rána	NNNS2-----A-----	ráno	O

