1	Dny	NNIP1-----A-----	den	O
2	jasné	AAIP1----1A-----	jasný	O
3	říjnové	AAIP1----1A-----	říjnový	O
4	v	RR--6-----------	v	O
5	nichž	P9FP6-----------	jenž	O
6	září	NNNS2-----A-----	září	O
7	azur	NNIS1-----A-----	azur	O
8	čistý	AAIS1----1A-----	čistý	O
9	a	J^--------------	a	O
10	s	RR--7-----------	s	O
11	větví	NNFS7-----A-----	větev	O
12	bronzových	AAFP2----1A-----	bronzový	O
13	se	P7-X4-----------	se	O
14	nítí	VB-P---3P-AA---I	nítit	O
15	rudé	AAIP1----1A-----	rudý	O
16	listy	NNIP1-----A-----	list	O
17	jež	PJFS1-----------	jenž	O
18	sváty	VsIP---3R-AP---P	svát	O
19	ostrým	AAIS7----1A-----	ostrý	O
20	vanem	NNIS7-----A-----	van	O
21	podzimního	AAIS2----1A-----	podzimní	O
22	dechu	NNIS2-----A-----	dech	O
23	se	P7-X4-----------	se	O
24	stkví	VB-P---3P-AA---I	skvít	O
25	jak	Db--------------	jak	O
26	vyráženy	VsFP---3R-AP---I	vyrážet	O
27	ze	RV--2-----------	z	O
28	zlatého	AAIS2----1A-----	zlatý	O
29	plechu	NNIS2-----A-----	plech	O
30	Ve	RV--6-----------	v	O
31	vaší	PSFS6-P2--------	váš	O
32	vůni	NNFS6-----A-----	vůně	O
33	chladné	AANS1----1A-----	chladný	O
34	cítím	VB-S---1P-AA---I	cítit	O
35	tát	Vf--------A----I	tát	O
36	a	J^--------------	a	O
37	sálat	Vf--------A----I	sálat	O
38	dech	NNIS1-----A-----	dech	O
39	jiter	NNNP2-----A-----	jitro	O
40	zemřelých	AAMP2----1A-----	zemřelý	O
41	a	J^--------------	a	O
42	dávno	Dg-------1A-----	dávno	O
43	mrtvých	AAFP2----1A-----	mrtvý	O
44	nálad	NNFP2-----A-----	nálada	O
45	blesk	NNIS1-----A-----	blesk	O
46	žlutých	AAFP2----1A-----	žlutý	O
47	polední	AAFS2----1A-----	polední	O
48	kdy	Db--------------	kdy	O
49	slunce	NNNS1-----A-----	slunce	O
50	žhavý	AAIS1----1A-----	žhavý	O
51	oddech	NNIS1-----A-----	oddech	O
52	na	RR--4-----------	na	O
53	šťávu	NNFS4-----A-----	šťáva	O
54	sladnoucí	X24-------------	sladnoucí	O
55	se	P7-X4-----------	se	O
56	srážel	VpIS---3R-AA---I	srážet	O
57	v	RR--6-----------	v	O
58	zralých	AAIP6----1A-----	zralý	O
59	plodech	NNIP6-----A-----	plod	O
60	a	J^--------------	a	O
61	duše	NNFS1-----A-----	duše	O
62	vonných	AAIP2----1A-----	vonný	O
63	večerů	NNIP2-----A-----	večer	O
64	jež	PJIP1-----------	jenž	O
65	uhořely	VpIP---3R-AA---P	uhořet	O
66	v	RR--6-----------	v	O
67	purpurných	X24-------------	purpurných	O
68	ohních	NNIP6-----A-----	oheň	O
69	západu	NNIS2-----A-----	západ	O
70	Z	RR--2-----------	z	O
71	vás	PP-P2--2--------	vy	O
72	oněmělý	AAMS1----1A-----	oněmělý	O
73	sbor	NNIS1-----A-----	sbor	O
74	ptáků	NNMP2-----A-----	pták	O
75	odletlých	X24-------------	odletlých	O
76	mi	PH-S3--1--------	já	O
77	kvílí	VB-S---3P-AA---I	kvílet	O
78	jásá	VB-S---3P-AA---I	jásat	O
79	zpívá	VB-S---3P-AA---I	zpívat	O
80	orchestrem	NNIS7-----A-----	orchestr	O
81	tonů	NNIP2-----A-----	tonus	O
82	Ve	RV--6-----------	v	O
83	vás	PP-P6--2--------	vy	O
84	mísí	VB-P---3P-AA---I	mísit	O
85	se	P7-X4-----------	se	O
86	a	J^--------------	a	O
87	splývá	VB-S---3P-AA---I	splývat	O
88	sen	NNIS1-----A-----	sen	O
89	květův	X24-------------	květův	O
90	uvadlých	AAMP2----1A-----	uvadlý	O
91	šum	NNIS1-----A-----	šum	O
92	pokosených	AAIP2----1A-----	pokosený	O
93	klasů	NNIP2-----A-----	klas	O
94	svit	NNIS1-----A-----	svit	O
95	zhaslých	AAFP2----1A-----	zhaslý	O
96	barev	NNFP2-----A-----	barva	O
97	smytých	AAFP2----1A-----	smytý	O
98	nuancí	NNFP2-----A-----	nuance	O
99	a	J^--------------	a	O
100	jasů	NNIP2-----A-----	jas	O
101	let	NNNP2-----A-----	rok	O
102	mrtvých	AAMP2----1A-----	mrtvý	O
103	motýlův	AUMS1M----------	motýlův	O
104	a	J^--------------	a	O
105	kolotavých	AANP2----1A-----	kolotavý	O
106	vření	NNNP2-----A-----	vření	O
107	tisíců	ClIP2-----------	tisíc	O
108	zhaslých	AAIP2----1A-----	zhaslý	O
109	životů	NNIP2-----A-----	život	O
110	ve	RV--6-----------	v	O
111	zlaté	AAFS6----1A-----	zlatý	O
112	lázni	NNFS6-----A-----	lázeň	O
113	denní	AAFS6----1A-----	denní	O
114	Sil	NNFP2-----A-----	síla	O
115	tajemných	AAFP2----1A-----	tajemný	O
116	když	J,--------------	když	O
117	v	RR--4-----------	v	O
118	mír	NNIS4-----A-----	mír	O
119	a	J^--------------	a	O
120	v	RR--4-----------	v	O
121	sen	NNIS4-----A-----	sen	O
122	a	J^--------------	a	O
123	v	RR--4-----------	v	O
124	klid	NNIS4-----A-----	klid	O
125	se	P7-X4-----------	se	O
126	sepnou	VB-P---3P-AA---P	sepnout	O
127	jste	VB-P---2P-AA---I	být	O
128	sesláblou	X24-------------	sesláblou	O
129	a	J^--------------	a	O
130	zmírající	AGFS7-----A-----	zmírající	O
131	tepnou	NNFS7-----A-----	tepna	O

