1	Ty	PP-S1--2--------	ty	O
2	nevíš	VB-S---2P-NA---I	vědět	O
3	mnoho	Ca--4-----------	mnoho	O
4	trpěl	VpMS---1R-AA---I	trpět	O
5	jsem	VB-S---1P-AA---I	být	O
6	a	J^--------------	a	O
7	život	NNIS1-----A-----	život	O
8	byl	VpIS---3R-AA---I	být	O
9	mi	PH-S3--1--------	já	O
10	těžkým	AAIS7----1A-----	těžký	O
11	snem	NNIS7-----A-----	sen	O
12	kde	Db--------------	kde	O
13	mrazem	NNIS7-----A-----	mráz	O
14	skráně	NNFP1-----A-----	skráň	O
15	zebou	VB-P---3P-AA---I	zábst	O
16	Teď	Db--------------	teď	O
17	není	VB-S---3P-NA---I	být	O
18	více	Dg-------2A-----	hodně	O
19	smutno	Db--------------	smutno	O
20	tak	Db--------------	tak	O
21	mně	PP-S3--1--------	já	O
22	jaro	NNNS1-----A-----	jaro	O
23	přišlo	VpNS---3R-AA---P	přijít	O
24	s	RR--7-----------	s	O
25	Tebou	PP-S7--2--------	ty	O
26	Dál	Db--------------	dále	O
27	ke	RV--3-----------	k	O
28	slunci	NNNS3-----A-----	slunce	O
29	Jen	TT--------------	jen	O
30	s	RR--7-----------	s	O
31	Tebou	PP-S7--2--------	ty	O
32	však	J^--------------	však	O
33	jen	TT--------------	jen	O
34	s	RR--7-----------	s	O
35	Tebou	PP-S7--2--------	ty	O

