1	A	J^--------------	a	O
2	já	PP-S1--1--------	já	O
3	si	P7-X3-----------	se	O
4	myslím	VB-S---1P-AA---I	myslet	O
5	na	RR--4-----------	na	O
6	ty	PDFP4-----------	ten	O
7	chvíle	NNFP4-----A-----	chvíle	O
8	když	J,--------------	když	O
9	její	PSFP1FS3--------	její	O
10	krásné	AAFP1----1A-----	krásný	O
11	ruce	NNFP1-----A-----	ruka	O
12	bílé	AAFP1----1A-----	bílý	O
13	ty	PDIP4-----------	ten	O
14	květy	NNIP4-----A-----	květ	O
15	tiskly	VpIP---3R-AA--1I	tisknout	O
16	na	RR--4-----------	na	O
17	ústa	NNNP4-----A-----	ústa	O
18	v	RR--4-----------	v	O
19	čas	NNIS4-----A-----	čas	O
20	při	RR--6-----------	při	O
21	vášnivém	AAIS6----1A-----	vášnivý	O
22	vírném	AAIS6----1A-----	vírný	O
23	tanci	NNIS6-----A-----	tanec	O
24	když	J,--------------	když	O
25	člověk	NNMS1-----A-----	člověk	O
26	myslí	VB-S---3P-AA---I	myslet	O
27	na	RR--4-----------	na	O
28	romanci	NNFS4-----A-----	romance	O
29	jež	PJFS1-----------	jenž	O
30	v	RR--6-----------	v	O
31	srdci	NNNS6-----A-----	srdce	O
32	teprv	Db--------------	teprve	O
33	vyrůstá	VB-S---3P-AA---I	vyrůstat	O

