1	A	J^--------------	a	O
2	za	RR--2-----------	za	O
3	té	PDFS2-----------	ten	O
4	chátry	NNFS2-----A-----	chátra	O
5	usmání	NNNS2-----A-----	usmání	O
6	jež	PJNS1-----------	jenž	O
7	zapomene	VB-S---3P-AA---P	zapomenout	O
8	za	RR--4-----------	za	O
9	chvíli	NNFS4-----A-----	chvíle	O
10	svůj	P8IS4-----------	svůj	O
11	čistý	AAIS4----1A-----	čistý	O
12	zjev	NNIS4-----A-----	zjev	O
13	a	J^--------------	a	O
14	spanilý	AAIS4----1A-----	spanilý	O
15	bys	Vc-S---2-------I	být	O
16	dala	VpFS---2R-AA---P	dát	O
17	v	RR--4-----------	v	O
18	pospas	NNIS4-----A-----	pospas	O
19	očím	NNFP3-----A-----	oko	O
20	zlým	AAFP3----1A-----	zlý	O
21	i	J^--------------	i	O
22	paprsk	X24-------------	paprsk	O
23	jara	NNNS2-----A-----	jaro	O
24	na	RR--6-----------	na	O
25	skráni	NNFS6-----A-----	skráň	O
26	A	J^--------------	a	O
27	za	RR--2-----------	za	O
28	té	PDFS2-----------	ten	O
29	chátry	NNFS2-----A-----	chátra	O
30	lichou	AAFS7----1A-----	lichý	O
31	frási	X24-------------	frási	O
32	květ	NNIS1-----A-----	květ	O
33	laciný	AAIS1----1A-----	laciný	O
34	jejž	PJIS4---------1-	jenž	O
35	vstříc	RR--3-----------	vstříc	O
36	ti	PH-S3--2--------	ty	O
37	hází	VB-S---3P-AA---I	házet	O
38	ty	PP-S1--2--------	ty	O
39	dala	VpFS---2R-AA---P	dát	O
40	bys	Vc-S---2-------I	být	O
41	to	PDNS1-----------	ten	O
42	nejdražší	AANS1----3A-----	drahý	O
43	své	P8NS4---------1-	svůj	O
44	nadšení	NNNS4-----A-----	nadšení	O
45	a	J^--------------	a	O
46	lásku	NNFS4-----A-----	láska	O
47	svou	P8FS7---------1-	svůj	O

