1	Tak	TT--------------	tak	O
2	jako	J,--------------	jako	O
3	paprslek	NNIS1-----A-----	papršlek	O
4	světlý	AAIS1----1A-----	světlý	O
5	v	RR--6-----------	v	O
6	duši	NNFS6-----A-----	duše	O
7	mou	PSFS4-S1------1-	můj	O
8	padla	NNFS4-----A-----	padla	O
9	tvá	PSNP1-S2------1-	tvůj	O
10	slova	NNNP1-----A-----	slovo	O
11	a	J^--------------	a	O
12	stromy	NNIP1-----A-----	strom	O
13	bíle	Dg-------1A-----	bíle	O
14	kol	NNNP2-----A-----	kolo	O
15	zkvetly	VpFP---3R-AA---P	zkvést	O
16	máj	NNIS1-----A-----	máj	O
17	k	RR--3-----------	k	O
18	zemi	NNFS3-----A-----	země	O
19	vrátil	VpIS---3R-AA---P	vrátit	O
20	se	P7-X4-----------	se	O
21	znova	Db--------------	znova	O
22	jásavé	AAFP1----1A-----	jásavý	O
23	písně	NNFP1-----A-----	píseň	O
24	kol	NNNP2-----A-----	kolo	O
25	zněly	VpFP---3R-AA---I	znít	O
26	To	PDNS1-----------	ten	O
27	pro	RR--4-----------	pro	O
28	nás	PP-P4--1--------	my	O
29	všechno	PLNS1-----------	všechen	O
30	se	P7-X4-----------	se	O
31	krášlí	VB-S---3P-AA---I	krášlit	O
32	a	J^--------------	a	O
33	my	PP-P1--1--------	my	O
34	jsme	VB-P---1P-AA---I	být	O
35	přece	Db--------------	přece	O
36	se	P7-X4-----------	se	O
37	našli	VpMP---1R-AA---P	najít	O
38	tak	Db--------------	tak	O
39	dávno	Dg-------1A-----	dávno	O
40	rádi	ACMP------A-----	rád	O
41	se	P7-X4-----------	se	O
42	měli	VpMP---3R-AA---I	mít	O

