1	To	PDNS1-----------	ten	O
2	vyfintěný	AAMS1----1A-----	vyfintěný	O
3	hloupý	AAMS1----1A-----	hloupý	O
4	hoch	NNMS1-----A-----	hoch	O
5	jenž	PJIS1-----------	jenž	O
6	hlavu	NNFS4-----A-----	hlava	O
7	plnou	AAFS4----1A-----	plný	O
8	příští	AAFS2----1A-----	příští	O
9	slávy	NNFS2-----A-----	sláva	O
10	mi	PH-S3--1--------	já	O
11	povídá	VB-S---3P-AA---I	povídat	O
12	že	J,--------------	že	O
13	letos	Db--------------	letos	O
14	moh	X24-------------	moh´	O
15	už	Db--------------	už	O
16	málem	Db--------------	málem	O
17	jíti	Vf--------A---2I	jít	O
18	do	RR--2-----------	do	O
19	oktávy	NNFS2-----A-----	oktáva	O

