1	A	J^--------------	a	O
2	nový	AAIS1----1A-----	nový	O
3	všude	Db--------------	všude	O
4	shon	NNIS1-----A-----	shon	O
5	a	J^--------------	a	O
6	v	RR--6-----------	v	O
7	smutku	NNIS6-----A-----	smutek	O
8	denní	AAIP1----1A-----	denní	O
9	listy	NNIP1-----A-----	list	O
10	Hle	II--------------	hle	O
11	přece	Db--------------	přece	O
12	mrtev	ACMS------A-----	mrtvý	O
13	on	PPMS1--3--------	on	O
14	A	J^--------------	a	O
15	všude	Db--------------	všude	O
16	jeho	PSFP1XS3--------	jeho	O
17	bysty	NNFP1-----A-----	bysta	O
18	se	P7-X4-----------	se	O
19	pod	RR--7-----------	pod	O
20	závojem	NNIS7-----A-----	závoj	O
21	tají	VB-S---3P-AA---I	tajit	O
22	a	J^--------------	a	O
23	s	RR--7-----------	s	O
24	věží	NNFS7-----A-----	věž	O
25	domů	Db--------------	domů	O
26	všech	PLMP2-----------	všechen	O
27	prapory	NNIP1-----A-----	prapor	O
28	černé	AAIP1----1A-----	černý	O
29	vlají	VB-P---3P-AA--1I	vlát	O
30	i	J^--------------	i	O
31	s	RR--2-----------	s	O
32	balkonů	NNIP2-----A-----	balkón	O
33	a	J^--------------	a	O
34	střech	NNFP2-----A-----	střecha	O

