1	Já	PP-S1--1--------	já	O
2	věřil	VpMS---1R-AA---I	věřit	O
3	že	J,--------------	že	O
4	ten	PDIS1-----------	ten	O
5	div	NNIS1-----A-----	div	O
6	se	P7-X4-----------	se	O
7	stane	VB-S---3P-AA---B	stát	O
8	že	J,--------------	že	O
9	zázrak	NNIS1-----A-----	zázrak	O
10	vejde	VB-S---3P-AA---P	vejít	O
11	v	RR--6-----------	v	O
12	duši	NNFS6-----A-----	duše	O
13	mou	PSFS7-S1------1-	můj	O
14	že	J,--------------	že	O
15	ruce	NNFP1-----A-----	ruka	O
16	drahé	AAFP1----1A-----	drahý	O
17	zbožňované	AAFP1----1A-----	zbožňovaný	O
18	mne	PP-S4--1--------	já	O
19	jednou	Db--------------	jednou	O
20	v	RR--6-----------	v	O
21	lásce	NNFS6-----A-----	láska	O
22	obejmou	VB-P---3P-AA---P	obejmout	O

