1	Vzpomíná	VB-S---3P-AA---I	vzpomínat	O
2	na	RR--4-----------	na	O
3	doby	NNFP4-----A-----	doba	O
4	zašlé	AAFP4----1A-----	zašlý	O
5	co	PQ--4-----------	co	O
6	teď	Db--------------	teď	O
7	Práce	NNFS1-----A-----	práce	O
8	Na	RR--4-----------	na	O
9	tu	PDFS4-----------	ten	O
10	kašle	VB-S---3P-AA---I	kašlat	O
11	Dřít	Vf--------A----I	dřít	O
12	se	P7-X4-----------	se	O
13	naposled	Db--------------	naposled	O

