1	Již	Db--------------	již	O
2	místy	Db--------------	místy	O
3	nám	PP-P3--1--------	my	O
4	i	J^--------------	i	O
5	břehy	NNIP1-----A-----	břeh	O
6	podervaly	X24-------------	podervaly	O
7	zde	Db--------------	zde	O
8	nedovoláš	VB-S---2P-NA---P	dovolat	O
9	pomoci	NNFS2-----A-----	pomoc	O
10	se	P7-X4-----------	se	O
11	něčí	PZFS2-----------	něčí	O
12	hřmí	VB-S---3P-AA---I	hřmít	O
13	příboj	NNIS4-----A-----	příboj	O
14	moře	NNNS2-----A-----	moře	O
15	stále	Db--------------	stále	O
16	větší	AAFS1----2A-----	velký	O
17	větší	AAFS1----2A-----	velký	O
18	co	PQ--1-----------	co	O
19	zbývá	VB-S---3P-AA---I	zbývat	O
20	Hráze	NNFP1-----A-----	hráz	O
21	upevnit	Vf--------A----P	upevnit	O
22	a	J^--------------	a	O
23	valy	NNIP4-----A-----	val	O

