1	Teď	Db--------------	teď	O
2	ze	RV--2-----------	z	O
3	všeho	PLNS2-----------	všechen	O
4	jen	TT--------------	jen	O
5	troska	NNFS1-----A-----	troska	O
6	zbyla	VpFS---3R-AA---P	zbýt	O
7	trudná	AAFS1----1A-----	trudný	O
8	tvé	PSFP4-S2------1-	tvůj	O
9	sochy	NNFP4-----A-----	socha	O
10	vzácné	AAFS2----1A-----	vzácný	O
11	pohřbeny	VsFP---3R-AP---P	pohřbít	O
12	kdes	Db--------------	kdes	O
13	u	RR--2-----------	u	O
14	dna	NNNS2-----A-----	dno	O
15	ty	PP-S1--2--------	ty	O
16	který	P4IS4-----------	který	O
17	věk	NNIS1-----A-----	věk	O
18	náš	PSIS1-P1--------	náš	O
19	s	RR--7-----------	s	O
20	věkem	NNIS7-----A-----	věk	O
21	slávy	NNFS2-----A-----	sláva	O
22	pojíš	VB-S---2P-AA---P	pojíst	O
23	o	RR--4-----------	o	O
24	sílu	NNFS4-----A-----	síla	O
25	svou	P8FS4---------1-	svůj	O
26	o	RR--4-----------	o	O
27	minulost	NNFS4-----A-----	minulost	O
28	svou	P8FS4---------1-	svůj	O
29	zchudna	VmMS------A---4P	zchudnout	O
30	jak	Db--------------	jak	O
31	žebrák	NNMS1-----A-----	žebrák	O
32	nyní	Db--------------	nyní	O
33	stojíš	VB-S---2P-AA---B	stát	O

