1	Úzkosť	X32-------------	Úzkosť	SUSPICIOUS_TYPE
2	nejistoty	NNFS2-----A-----	nejistota	O
3	tuhla	VpFS---3R-AA--1I	tuhnout	O
4	jí	PPFS3--3--------	ona	O
5	v	RR--4-----------	v	O
6	tvář	NNFS4-----A-----	tvář	O
7	a	J^--------------	a	O
8	věčných	AAIP2----1A-----	věčný	O
9	prostorů	NNIP2-----A-----	prostor	O
10	chlad	NNIS4-----A-----	chlad	O
11	na	RR--4-----------	na	O
12	zmučené	AAIP4----1A-----	zmučený	O
13	údy	NNIP4-----A-----	úd	O
14	spínal	VpIS---3R-AA---I	spínat	O
15	jí	PPFS3--3--------	ona	O
16	umdlené	AAIP1----1A-----	umdlený	O
17	kovový	AAIS1----1A-----	kovový	O
18	šat	NNIS1-----A-----	šat	O

