1	Krvavě	Dg-------1A-----	krvavě	O
2	rděl	VpIS---3R-AA---I	rdít	O
3	se	P7-X4-----------	se	O
4	obzor	NNIS1-----A-----	obzor	O
5	celý	AAIS1----1A-----	celý	O
6	požárů	NNIP2-----A-----	požár	O
7	stoupal	VpIS---3R-AA---I	stoupat	O
8	tmavý	AAIS1----1A-----	tmavý	O
9	dým	NNIS1-----A-----	dým	O
10	zlé	AAFP1----1A-----	zlý	O
11	bouře	NNFP1-----A-----	bouře	O
12	divě	Dg-------1A-----	divě	O
13	burácely	VpFP---3R-AA---I	burácet	O
14	nad	RR--7-----------	nad	O
15	krajem	NNIS7-----A-----	kraj	O
16	hrůzou	NNFS7-----A-----	hrůza	O
17	oněmlým	X24-------------	oněmlým	O
18	Jak	Db--------------	jak	O
19	zlobohů	NNMP2-----A-----	zloboh	O
20	dav	NNIS1-----A-----	dav	O
21	odpoutaný	AAMS1----1A-----	odpoutaný	O
22	letěly	VpIP---3R-AA---I	letět	O
23	v	RR--6-----------	v	O
24	širé	AAFS6----1A-----	širý	O
25	světa	NNIS2-----A-----	svět	O
26	strany	NNFS2-----A-----	strana	O
27	nad	RR--7-----------	nad	O
28	spoustami	NNFP7-----A-----	spousta	O
29	jež	PJFP1-----------	jenž	O
30	sily	NNNP7-----A-----	silo	O
31	kolem	Db--------------	kolem	O
32	nad	RR--7-----------	nad	O
33	výhní	NNFS7-----A-----	výheň	O
34	zapálených	AAFP2----1A-----	zapálený	O
35	střech	NNFP2-----A-----	střecha	O
36	nad	RR--7-----------	nad	O
37	hrůzou	NNFS7-----A-----	hrůza	O
38	zděšením	NNNS7-----A-----	zděšení	O
39	a	J^--------------	a	O
40	bolem	NNIS7-----A-----	bol	O
41	v	RR--6-----------	v	O
42	hořících	AGNP6-----A-----	hořící	O
43	městech	NNNP6-----A-----	město	O
44	mrtvých	AAMP2----1A-----	mrtvý	O
45	vsech	X24-------------	vsech	O
46	Sta	ClNP1-----------	sto	O
47	srdcí	NNNP2-----A-----	srdce	O
48	posud	Db--------------	posud	O
49	krvácí	VB-P---3P-AA--1I	krvácet	O
50	a	J^--------------	a	O
51	zapomenouti	Vf--------A---2P	zapomenout	O
52	lze	VB-S---3P-AA---I	lze	O
53	stěží	Db--------------	stěží	O
54	co	Db--------------	co	O
55	tisíců	ClIP2-----------	tisíc	O
56	i	J^--------------	i	O
57	vašich	PSFP2-P2--------	váš	O
58	leží	VB-S---3P-AA---I	ležet	O
59	tam	Db--------------	tam	O
60	bratrů	NNMP2-----A-----	bratr	O
61	bratři	NNMP1-----A-----	bratr	O
62	junáci	NNMP1-----A-----	junák	O

