1	Tak	Db--------------	tak	O
2	opatrně	Dg-------1A-----	opatrně	O
3	límec	NNIS1-----A-----	límec	O
4	zvedne	VB-S---3P-AA---P	zvednout	O
5	a	J^--------------	a	O
6	šátek	NNIS1-----A-----	šátek	O
7	dá	VB-S---3P-AA---P	dát	O
8	si	P7-X3-----------	se	O
9	na	RR--4-----------	na	O
10	ústa	NNNP4-----A-----	ústa	O
11	Leč	J^--------------	leč	O
12	mluví	VB-S---3P-AA---I	mluvit	O
13	dál	Db--------------	dále	O
14	že	J,--------------	že	O
15	v	RR--6-----------	v	O
16	chvíli	NNFS6-----A-----	chvíle	O
17	jedné	ClFS2-----------	jeden	O
18	vám	PP-P3--2--------	vy	O
19	husí	AAFS1----1A-----	husí	O
20	kůže	NNFS1-----A-----	kůže	O
21	narůstá	VB-S---3P-AA---I	narůstat	O

