1	Leč	J^--------------	leč	O
2	dorosteš	VB-S---2P-AA---P	dorůst	O
3	ne	TT--------------	ne	O
4	vědom	ACIS------A-----	vědomý	O
5	proč	Db--------------	proč	O
6	a	J^--------------	a	O
7	zač	PY--------------	zač	O
8	však	J^--------------	však	O
9	třeba	Db--------------	třeba	O
10	v	RR--6-----------	v	O
11	slávě	NNFS6-----A-----	sláva	O
12	budeš	VB-S---2F-AA---I	být	O
13	chodit	Vf--------A----I	chodit	O
14	radš	X24-------------	radš	O
15	než	J,--------------	než	O
16	v	RR--6-----------	v	O
17	dětském	AAIS6----1A-----	dětský	O
18	chudém	AAIS6----1A-----	chudý	O
19	cáru	NNIS6-----A-----	cár	O
20	snad	TT--------------	snad	O
21	ještě	Db--------------	ještě	O
22	tajně	Dg-------1A-----	tajně	O
23	schováš	VB-S---2P-AA---P	schovat	O
24	mnohý	AAIS4----1A-----	mnohý	O
25	chek	X24-------------	chek	O
26	a	J^--------------	a	O
27	rozluštíš	VB-S---2P-AA---P	rozluštit	O
28	tak	Db--------------	tak	O
29	tvrdý	AAIS4----1A-----	tvrdý	O
30	oříšek	NNIS4-----A-----	oříšek	O
31	jak	Db--------------	jak	O
32	nežebrá	VB-S---3P-NA---I	žebrat	O
33	se	P7-X4-----------	se	O
34	k	RR--3-----------	k	O
35	stáru	Db--------------	stáru	O

