1	Já	PP-S1--1--------	já	O
2	tě	PH-S4--2--------	ty	O
3	vídal	VpMS---1R-AA---I	vídat	O
4	za	RR--7-----------	za	O
5	obručí	NNFS7-----A-----	obruč	O
6	běhal	VpMS---2R-AA---I	běhat	O
7	jsi	VB-S---2P-AA---I	být	O
8	tam	Db--------------	tam	O
9	vždycky	Db--------A-----	vždycky	O
10	sám	PLMS1-----------	sám	O
11	honil	VpMS---2R-AA---I	honit	O
12	jsi	VB-S---2P-AA---I	být	O
13	se	P7-X4-----------	se	O
14	mlčky	Db--------------	mlčky	O
15	za	RR--7-----------	za	O
16	ní	P5FS7--3--------	on	O
17	vždy	Db--------A-----	vždy	O
18	se	P7-X4-----------	se	O
19	vyhnul	VpMS---3R-AA---P	vyhnout	O
20	dětí	NNFP2-----A-----	dítě	O
21	hrám	NNFP3-----A-----	hra	O

