1	By	Vc-------------I	být	O
2	tak	Db--------------	tak	O
3	tak	Db--------------	tak	O
4	příliš	Db--------------	příliš	O
5	záhy	Db--------------	záhy	O
6	noc	NNFS1-----A-----	noc	O
7	věčná	AAFS1----1A-----	věčný	O
8	nastala	VpFS---3R-AA---P	nastat	O
9	ti	PH-S3--2--------	ty	O
10	než	J,--------------	než	O
11	máj	NNFS1-----A-----	máj	O
12	než	J,--------------	než	O
13	vesna	NNFS1-----A-----	vesna	O
14	jitro	NNNS1-----A-----	jitro	O
15	ti	PH-S3--2--------	ty	O
16	štěstím	NNNS7-----A-----	štěstí	O
17	skráně	NNFS2-----A-----	skráň	O
18	zlatí	AAMP1----1A-----	zlatý	O

