1	A	J^--------------	a	O
2	malby	NNFP4-----A-----	malba	O
3	naše	PSFS1-P1--------	náš	O
4	potrhá	VB-S---3P-AA---P	potrhat	O
5	a	J^--------------	a	O
6	sboří	X24-------------	sboří	O
7	naše	PSIP4-P1--------	náš	O
8	chrámy	NNIP4-----A-----	chrám	O
9	však	J^--------------	však	O
10	přeci	TT------------6-	přece	O
11	něco	PZ--1-----------	něco	O
12	žije	VB-S---3P-AA---I	žít	O
13	v	RR--6-----------	v	O
14	nás	PP-P6--1--------	my	O
15	co	PQ--1-----------	co	O
16	nezahyne	VB-S---3P-NA---P	zahynout	O
17	s	RR--7-----------	s	O
18	námi	PP-P7--1--------	my	O

