1	Leč	J^--------------	leč	O
2	vlídná	AAFS1----1A-----	vlídný	O
3	je	VB-S---3P-AA---I	být	O
4	jak	Db--------------	jak	O
5	tiché	AANS1----1A-----	tichý	O
6	ptáče	NNNS1-----A-----	ptáče	O
7	a	J^--------------	a	O
8	davem	NNIS7-----A-----	dav	O
9	jdouc	VeFS------A----I	jít	O
10	za	RR--4-----------	za	O
11	ruku	NNFS4-----A-----	ruka	O
12	vede	VB-S---3P-AA---I	vést	O
13	po	RR--6-----------	po	O
14	jedné	ClFS6-----------	jeden	O
15	straně	NNFS6-----A-----	strana	O
16	děvče	NNNS1-----A-----	děvče	O
17	bledé	AANS1----1A-----	bledý	O
18	a	J^--------------	a	O
19	s	RR--2-----------	s	O
20	druhé	AAFS2----1A-----	druhý	O
21	hocha	NNMS2-----A-----	hoch	O
22	kudrnáče	NNMS2-----A-----	kudrnáč	O

