1	A	J^--------------	a	O
2	mít	Vf--------A----I	mít	O
3	jen	TT--------------	jen	O
4	útěchu	NNFS4-----A-----	útěcha	O
5	v	RR--4-----------	v	O
6	tu	PDFS4-----------	ten	O
7	práci	NNFS4-----A-----	práce	O
8	bědnou	AAFS4----1A-----	bědný	O
9	že	J,--------------	že	O
10	přece	Db--------------	přece	O
11	snad	TT--------------	snad	O
12	když	J,--------------	když	O
13	my	PP-P1--1--------	my	O
14	ne	TT--------------	ne	O
15	sklízet	Vf--------A----I	sklízet	O
16	budou	VB-P---3F-AA---I	být	O
17	alespoň	Db--------------	alespoň	O
18	ti	PDMP1-----------	ten	O
19	kdož	PKM-1---------2-	kdo	O
20	přijdou	VB-P---3P-AA---P	přijít	O
21	po	RR--6-----------	po	O
22	nás	PP-P6--1--------	my	O
23	jednou	Db--------------	jednou	O

