1	Pojď	Vi-S---2--A---1I	jít	O
2	stulíme	VB-P---1P-AA---P	stulit	O
3	se	P7-X4-----------	se	O
4	tiše	Dg-------1A-----	tiše	O
5	tam	Db--------------	tam	O
6	a	J^--------------	a	O
7	v	RR--6-----------	v	O
8	skráni	NNFS6-----A-----	skráň	O
9	rozervané	AAFS6----1A-----	rozervaný	O
10	vzpomínky	NNFP1-----A-----	vzpomínka	O
11	zářný	AAIS1----1A-----	zářný	O
12	drahokam	NNIS1-----A-----	drahokam	O
13	o	RR--6-----------	o	O
14	lepších	AAFP6----2A-----	dobrý	O
15	chvílích	NNFP6-----A-----	chvíle	O
16	vzplane	VB-S---3P-AA---P	vzplanout	O

