1	Mráz	NNIS4-----A-----	mráz	O
2	v	RR--6-----------	v	O
3	okně	NNNS6-----A-----	okno	O
4	divných	AAFP2----1A-----	divný	O
5	bájí	NNFP2-----A-----	báje	O
6	snuj	Vi-S---2--A----P	snout	O
7	a	J^--------------	a	O
8	květy	NNIP4-----A-----	květ	O
9	tká	VB-S---3P-AA---I	tkát	O
10	i	J^--------------	i	O
11	kreslí	VB-S---3P-AA---I	kreslit	O
12	kde	Db--------------	kde	O
13	tichý	AAMS1----1A-----	tichý	O
14	spící	AGMS5-----A-----	spící	O
15	hochu	NNMS5-----A-----	hoch	O
16	můj	PSMS5-S1--------	můj	O
17	jsi	VB-S---2P-AA---I	být	O
18	stavíval	VpMS---2R-AA---I	stavívat	O
19	svých	P8FP2-----------	svůj	O
20	jeslí	NNFP2-----A-----	jesle	O

