1	Ať	J^--------------	ať	O
2	málo	Dg-------1A-----	málo	O
3	nás	PP-P4--1--------	my	O
4	však	J^--------------	však	O
5	v	RR--6-----------	v	O
6	prsou	NNNP6-----A---1-	prsa	O
7	dříme	VB-S---3P-AA---I	dřímat	O
8	nám	PP-P3--1--------	my	O
9	víra	NNFS1-----A-----	víra	O
10	že	J,--------------	že	O
11	ten	PDIS1-----------	ten	O
12	hořký	AAIS1----1A-----	hořký	O
13	trud	NNIS1-----A-----	trud	O
14	nás	PP-P4--1--------	my	O
15	nezdolá	VB-S---3P-NA---P	zdolat	O
16	a	J^--------------	a	O
17	doposud	Db--------------	doposud	O
18	ve	RV--6-----------	v	O
19	vítězství	NNNS6-----A-----	vítězství	O
20	že	TT--------------	že	O
21	doufat	Vf--------A----I	doufat	O
22	smíme	VB-P---1P-AA---I	smět	O

