1	žen	NNFP2-----A-----	žena	
2	ohnivé	AAIP1----1A-----	ohnivý	
3	pohledy	NNIP1-----A-----	pohled	
4	jiskrami	NNFP7-----A-----	jiskra	
5	prší	VB-P---3P-AA---I	pršet	
6	do	RR--2-----------	do	
7	žádostí	NNFP2-----A-----	žádost	
8	těl	NNNP2-----A-----	tělo	
9	spálená	AAFS1----1A-----	spálený	
10	síla	NNFS1-----A-----	síla	
11	nervů	NNIP2-----A-----	nerv	
12	pod	RR--7-----------	pod	
13	lebkami	NNFP7-----A-----	lebka	
14	tlí	VB-S---3P-AA---I	tlít	
15	a	J^--------------	a	
16	v	RR--6-----------	v	
17	tisících	ClIP6-----------	tisíc	
18	illusích	X32-------------	illusích	
19	jásot	NNIS1-----A-----	jásot	
20	a	J^--------------	a	
21	úzkosť	X32-------------	úzkosť	
22	a	J^--------------	a	
23	žel	TT--------------	žel	
24	třese	VB-S---3P-AA---I	třást	
25	se	P7-X4-----------	se	
26	na	RR--6-----------	na	
27	napjatých	AAFP6----1A-----	napjatý	
28	strunách	NNFP6-----A-----	struna	
29	Tajemství	NNNS1-----A-----	tajemství	SUSPICIOUS_TYPE

