1	Tys	PP-S1--2P-AA----	ty	O
2	těšila	VpFS---2R-AA---I	těšit	O
3	je	PPFP4--3--------	oni	O
4	plamennými	AANP7----1A-----	plamenný	O
5	slovy	NNNP7-----A-----	slovo	O
6	že	J,--------------	že	O
7	v	RR--6-----------	v	O
8	tobě	PP-S6--2--------	ty	O
9	když	J,--------------	když	O
10	je	PPFP4--3--------	oni	O
11	krušil	VpMS---3R-AA---I	krušit	O
12	osud	NNIS1-----A-----	osud	O
13	zlý	AAIS1----1A-----	zlý	O
14	vždy	Db--------A-----	vždy	O
15	útěchu	NNFS4-----A-----	útěcha	O
16	i	J^--------------	i	O
17	sílu	NNFS4-----A-----	síla	O
18	nalezli	VpMP---3R-AA---P	nalézt	O
19	s	RR--7-----------	s	O
20	nadějí	NNFS7-----A-----	naděje	O
21	novou	AAFS7----1A-----	nový	O
22	dál	Db--------------	dále	O
23	jít	Vf--------A----I	jít	O
24	v	RR--4-----------	v	O
25	zápas	NNIS4-----A-----	zápas	O
26	nový	AAIS4----1A-----	nový	O
27	Od	RR--2-----------	od	O
28	srdce	NNNS2-----A-----	srdce	O
29	k	RR--3-----------	k	O
30	srdcím	NNNP3-----A-----	srdce	O
31	šlas	X24-------------	šla´s	O
32	v	RR--4-----------	v	O
33	ten	PDIS4-----------	ten	O
34	český	AAIS4----1A-----	český	O
35	lán	NNIS4-----A-----	lán	O
36	a	J^--------------	a	O
37	rostla	VpFS---3R-AA---I	růst	O
38	síla	NNFS1-----A-----	síla	O
39	v	RR--6-----------	v	O
40	ohlase	NNIS6-----A-----	ohlas	O
41	tvém	PSIS6-S2--------	tvůj	O
42	živém	AAIS6----1A-----	živý	O
43	Kdo	PKM-1-----------	kdo	O
44	malátný	AAMS1----1A-----	malátný	O
45	byl	VpMS---3R-AA---I	být	O
46	dřív	Dg-------2A---5-	brzy	O
47	hle	II--------------	hle	O
48	jako	J,--------------	jako	O
49	divem	NNIS7-----A-----	div	O
50	byl	VpMS---3R-AA---I	být	O
51	celý	AAMS1----1A-----	celý	O
52	muž	NNMS1-----A-----	muž	O
53	zas	Db--------------	zas	O
54	bít	Vf--------A----I	bít	O
55	se	P7-X4-----------	se	O
56	odhodlán	VsMS---3F-AP---P	odhodlat	O
57	a	J^--------------	a	O
58	neustoupit	Vf--------N----P	ustoupit	O
59	z	RR--2-----------	z	O
60	cesty	NNFS2-----A-----	cesta	O
61	pranikomu	X24-------------	pranikomu	O
62	Šla	VpFS---3R-AA---I	jít	O
63	před	RR--7-----------	před	O
64	ním	P5NS7--3--------	on	O
65	píseň	NNFS4-----A-----	píseň	O
66	jako	J,--------------	jako	O
67	anděl	NNMS1-----A-----	anděl	O
68	mstící	AGMS1-----A-----	mstící	O
69	a	J^--------------	a	O
70	burácelo	VpNS---3R-AA---I	burácet	O
71	vůkol	Db--------------	vůkol	O
72	hlasem	NNIS7-----A-----	hlas	O
73	hromu	NNIS2-----A-----	hrom	O
74	tím	PDIS7-----------	ten	O
75	zpěvem	NNIS7-----A-----	zpěv	O
76	Kdož	PKM-1---------2-	kdo	O
77	jste	VB-P---2P-AA---I	být	O
78	boží	AAMP1----1A-----	boží	O
79	bojovníci	NNMP1-----A-----	bojovník	O

