1	Vějíři	NNIS3-----A-----	vějíř	O
2	milý	AAIS1----1A-----	milý	O
3	krásné	AAFP1----1A-----	krásný	O
4	tvé	PSFP1-S2------1-	tvůj	O
5	paní	NNFP1-----A-----	paní	O
6	kdykoliv	Db------------1-	kdykoli	O
7	na	RR--4-----------	na	O
8	chvíli	NNFS4-----A-----	chvíle	O
9	nad	RR--7-----------	nad	O
10	tebou	PP-S7--2--------	ty	O
11	nachýlí	VB-S---3P-AA---P	nachýlit	O
12	v	RR--6-----------	v	O
13	myšlenkách	NNFP6-----A-----	myšlenka	O
14	čelo	NNNS1-----A-----	čelo	O
15	k	RR--3-----------	k	O
16	čelu	NNNS3-----A-----	čelo	O
17	i	J^--------------	i	O
18	skráni	NNFS3-----A-----	skráň	O
19	kéž	TT--------------	kéž	O
20	by	Vc-------------I	být	O
21	se	P7-X4-----------	se	O
22	schvělo	X24-------------	schvělo	O
23	v	RR--6-----------	v	O
24	tichém	AANS6----1A-----	tichý	O
25	tvém	PSNS6-S2--------	tvůj	O
26	vlání	NNNS6-----A-----	vlání	O
27	co	PQ--4-----------	co	O
28	jak	Db--------------	jak	O
29	v	RR--4-----------	v	O
30	sen	NNIS4-----A-----	sen	O
31	dětský	AAIS1----1A-----	dětský	O
32	luzný	AAMS1----1A-----	luzný	O
33	a	J^--------------	a	O
34	světlý	AAMS1----1A-----	světlý	O
35	vykouzlí	VB-S---3P-AA---P	vykouzlit	O
36	všecky	PLFP4-----------	všecek	O
37	růže	NNFP1-----A-----	růže	O
38	jež	PJFP1-----------	jenž	O
39	zkvetly	VpIP---3R-AA---P	zkvést	O
40	nádhernou	AAFS7----1A-----	nádherný	O
41	velebou	NNFS7-----A-----	veleba	O
42	v	RR--6-----------	v	O
43	životě	NNIS6-----A-----	život	O
44	pro	RR--4-----------	pro	O
45	ni	P5FS4--3--------	on	O
46	Kdykoliv	Db------------1-	kdykoli	O
47	nad	RR--7-----------	nad	O
48	tebou	PP-S7--2--------	ty	O
49	čelo	NNNS4-----A-----	čelo	O
50	své	P8FS2---------1-	svůj	O
51	skloní	VB-P---3P-AA---P	sklonit	O
52	nechť	TT--------------	nechť	O
53	ve	RV--6-----------	v	O
54	své	P8FS6---------1-	svůj	O
55	duši	NNFS6-----A-----	duše	O
56	cítí	VB-P---3P-AA---I	cítit	O
57	a	J^--------------	a	O
58	tuší	VB-P---3P-AA---I	tušit	O
59	zpívat	Vf--------A----I	zpívat	O
60	a	J^--------------	a	O
61	kvést	Vf--------A----I	kvést	O
62	vše	PLNS1---------1-	všechen	O
63	což	PE--1-----------	což	O
64	až	TT--------------	až	O
65	do	RR--2-----------	do	O
66	stáří	NNNS2-----A-----	stáří	O
67	vyzlatí	VB-S---3P-AA---P	vyzlatit	O
68	vyzáří	VB-S---3P-AA---P	vyzářit	O
69	jí	VB-S---3P-AA---I	jíst	O
70	celý	AAIS4----1A-----	celý	O
71	život	NNIS4-----A-----	život	O
72	paprskem	NNIS7-----A-----	paprsek	O
73	hvězd	NNFP2-----A-----	hvězda	O

