1	Za	RR--7-----------	za	O
2	ním	P5NS7--3--------	on	O
3	se	P7-X4-----------	se	O
4	dívala	VpNP---3R-AA---I	dívat	O
5	v	RR--6-----------	v	O
6	slzách	NNFP6-----A-----	slza	O
7	a	J^--------------	a	O
8	pláči	NNIS6-----A-----	pláč	O
9	šáteček	NNIS1-----A-----	šáteček	O
10	zaniknul	VpIS---3R-AA---P	zaniknout	O
11	v	RR--4-----------	v	O
12	dálku	NNFS4-----A-----	dálka	O
13	hoch	NNMS1-----A-----	hoch	O
14	kráčí	VB-S---3P-AA---I	kráčet	O

