1	Jsme	VB-P---1P-AA---I	být	O
2	chudí	AAMP1----1A-----	chudý	O
3	k	RR--3-----------	k	O
4	pláči	NNIS3-----A-----	pláč	O
5	Kdos	PKM-1--2--------	kdos	O
6	neznámý	AAMS1----1N-----	známý	O
7	se	P7-X4-----------	se	O
8	na	RR--4-----------	na	O
9	nás	PP-P4--1--------	my	O
10	sklání	VB-S---3P-AA---I	sklánět	O
11	a	J^--------------	a	O
12	jsme	VB-P---1P-AA---I	být	O
13	tu	PDFS4-----------	ten	O
14	chvíli	NNFS4-----A-----	chvíle	O
15	jedenkrát	Cv--------------	jedenkrát	O
16	z	RR--2-----------	z	O
17	nás	PP-P2--1--------	my	O
18	každý	PLMS1-----------	každý	O
19	se	P7-X4-----------	se	O
20	tu	PDFS4-----------	ten	O
21	chvíli	NNFS4-----A-----	chvíle	O
22	vláčí	VB-S---3P-AA---I	vláčet	O
23	a	J^--------------	a	O
24	unavený	AAMS1----1A-----	unavený	O
25	zajde	VB-S---3P-AA---P	zajít	O
26	spat	Vf--------A----I	spát	O
27	tak	Db--------------	tak	O
28	na	RR--4-----------	na	O
29	věky	NNIP4-----A-----	věk	O
30	a	J^--------------	a	O
31	bez	RR--2-----------	bez	O
32	shledání	NNNS2-----A-----	shledání	O
33	Jsme	VB-P---1P-AA---I	být	O
34	chudí	AAMP1----1A-----	chudý	O
35	k	RR--3-----------	k	O
36	pláči	NNIS3-----A-----	pláč	O
37	K	RR--3-----------	k	O
38	čemu	PQ--3-----------	co	O
39	lkát	Vf--------A----I	lkát	O

