1	Vchod	NNIS1-----A-----	vchod	O
2	veň	X24-------------	veň	O
3	růže	NNFS2-----A-----	růže	O
4	steré	CdFS2-----------	stery	O
5	tvoří	VB-P---3P-AA---I	tvořit	O
6	vůní	NNFS7-----A-----	vůně	O
7	květem	NNIS7-----A-----	květ	O
8	listem	NNIS7-----A-----	list	O
9	z	RR--2-----------	z	O
10	nichž	P9IP2-----------	jenž	O
11	v	RR--4-----------	v	O
12	zář	NNFS4-----A-----	zář	O
13	slunka	NNNS2-----A-----	slunko	O
14	každý	PLNP1---------6-	každý	O
15	hoří	VB-P---3P-AA---I	hořet	O
16	ametystem	NNIS7-----A-----	ametyst	O

