1	Byls	X24-------------	Byl´s	SUSPICIOUS_TYPE
2	hezký	AAIS1----1A-----	hezký	O
3	ze	RV--2-----------	z	O
4	statku	NNIS2-----A-----	statek	O
5	a	J^--------------	a	O
6	jenom	TT--------------	jenom	O
7	slovo	NNNS1-----A-----	slovo	O
8	říc	X24-------------	říc´	O
9	mít	Vf--------A----I	mít	O
10	mohls	X24-------------	mohl´s	O
11	nevěstu	NNFS4-----A-----	nevěsta	O
12	i	J^--------------	i	O
13	nejbohatší	AAIP4----3A-----	bohatý	O
14	v	RR--6-----------	v	O
15	kraji	NNIS6-----A-----	kraj	O
16	Ó	II--------------	ó	O
17	kamaráde	NNMS5-----A-----	kamarád	O
18	slyš	Vi-S---2--A----I	slyšet	O
19	tvou	PSFS4-S2------1-	tvůj	O
20	písničku	NNFS4-----A-----	písnička	O
21	teď	Db--------------	teď	O
22	hrají	VB-P---3P-AA--1I	hrát	O
23	sem	Db--------------	sem	O
24	zní	VB-S---3P-AA---I	znít	O
25	to	PDNS1-----------	ten	O
26	ze	RV--2-----------	z	O
27	sálu	NNIS2-----A-----	sál	O
28	ty	PP-S1--2--------	ty	O
29	nepůjdeš	VB-S---2F-NA---I	jít	O
30	tam	Db--------------	tam	O
31	víc	Dg-------2A---1-	hodně	O

