1	Když	J,--------------	když	O
2	tenkrát	Db--------------	tenkrát	O
3	poprvé	Cv--------------	poprvé	O
4	jsi	VB-S---2P-AA---I	být	O
5	z	RR--2-----------	z	O
6	města	NNNS2-----A-----	město	O
7	přišel	VpMS---2R-AA---P	přijít	O
8	zpět	Db--------------	zpět	O
9	tys	PP-S1--2P-AA----	ty	O
10	hochu	NNMS3-----A---1-	hoch	O
11	věšel	VpMS---3R-AA---I	věšet	O
12	se	P7-X4-----------	se	O
13	když	J,--------------	když	O
14	našel	VpMS---1R-AA---P	najít	O
15	jsem	VB-S---1P-AA---I	být	O
16	tě	PH-S4--2--------	ty	O
17	z	RR--2-----------	z	O
18	rána	NNNS2-----A-----	ráno	O
19	Tak	Db--------------	tak	O
20	hle	II--------------	hle	O
21	ta	PDFS1-----------	ten	O
22	oprátka	NNFS1-----A-----	oprátka	O
23	jež	PJFS1-----------	jenž	O
24	pro	RR--4-----------	pro	O
25	tě	PH-S4--2--------	ty	O
26	uchystána	VsNP---3F-AP---P	uchystat	O
27	ta	PDFS1-----------	ten	O
28	tvoje	PSFS1-S2--------	tvůj	O
29	oprátka	NNFS1-----A-----	oprátka	O
30	je	VB-S---3P-AA---I	být	O
31	stará	AAFS1----1A-----	starý	O
32	třicet	Cn-S1-----------	třicet	O
33	let	NNNP2-----A-----	rok	O

