1	Ach	II--------------	ach	O
2	odpusťte	Vi-P---2--A----P	odpustit	O
3	že	J,--------------	že	O
4	v	RR--4-----------	v	O
5	oči	NNFP4-----A-----	oko	O
6	hledím	VB-S---1P-AA---I	hledět	O
7	vám	PP-P3--2--------	vy	O
8	když	J,--------------	když	O
9	ve	RV--6-----------	v	O
10	všedním	AAIS6----1A-----	všední	O
11	vás	PP-P4--2--------	vy	O
12	davu	NNIS6-----A-----	dav	O
13	potkávám	VB-S---1P-AA---I	potkávat	O
14	jak	Db--------------	jak	O
15	chmurný	AAIS1----1A-----	chmurný	O
16	soumrak	NNIS1-----A-----	soumrak	O
17	potká	VB-S---3P-AA---P	potkat	O
18	zoři	X24-------------	zoři	O
19	rána	NNFS1-----A-----	rána	O
20	Ach	II--------------	ach	O
21	odpusťte	Vi-P---2--A----P	odpustit	O
22	že	J,--------------	že	O
23	časem	NNIS7-----A-----	čas	O
24	zachví	VB-S---3P-AA---P	zachvět	O
25	mnou	PP-S7--1--------	já	O
26	to	PDNS1-----------	ten	O
27	vaše	PSNS1-P2--------	váš	O
28	oko	NNNS1-----A-----	oko	O
29	s	RR--7-----------	s	O
30	hloubkou	NNFS7-----A-----	hloubka	O
31	tajemnou	AAFS7----1A-----	tajemný	O
32	v	RR--6-----------	v	O
33	níž	P9FS6-----------	jenž	O
34	divná	AAFS1----1A-----	divný	O
35	touha	NNFS1-----A-----	touha	O
36	na	RR--6-----------	na	O
37	dně	NNNS6-----A-----	dno	O
38	uschována	VsFS---3R-AP---P	uschovat	O

