1	Však	J^--------------	však	O
2	myšlénka	NNFS1-----A-----	myšlénka	O
3	li	J,--------------	li	O
4	bude	VB-S---3F-AA---I	být	O
5	věnem	NNNS7-----A-----	věno	O
6	tvým	PSNS7-S2--------	tvůj	O
7	štván	VsIS---3R-AP---I	štvát	O
8	tupen	VsMS---3R-AP---I	tupit	O
9	kopán	VsIS---3R-AP---I	kopat	O
10	často	Dg-------1A-----	často	O
11	zoufalstvím	NNNS7-----A-----	zoufalství	O
12	se	P7-X4-----------	se	O
13	budeš	VB-S---2F-AA---I	být	O
14	chvěti	Vf--------A---2I	chvět	O
15	v	RR--6-----------	v	O
16	pláči	NNIS6-----A-----	pláč	O
17	snad	TT--------------	snad	O
18	sobě	P6-X3-----------	se	O
19	klásti	Vf--------A---2I	klást	O
20	steré	CdFP4-----------	stery	O
21	otázky	NNFP4-----A-----	otázka	O
22	proč	Db--------------	proč	O
23	běda	II--------------	běda	O
24	proč	Db--------------	proč	O
25	tím	PDNS7-----------	ten	O
26	žitím	NNNS7-----A-----	žití	O
27	bez	RR--2-----------	bez	O
28	lásky	NNFS2-----A-----	láska	O
29	se	P7-X4-----------	se	O
30	člověk	NNMS1-----A-----	člověk	O
31	k	RR--3-----------	k	O
32	hrobu	NNIS3-----A-----	hrob	O
33	vláčí	VB-S---3P-AA---I	vláčet	O

