1	A	J^--------------	a	O
2	tak	Db--------------	tak	O
3	svět	NNIS1-----A-----	svět	O
4	vypráví	VB-S---3P-AA---I	vyprávět	O
5	si	P7-X3-----------	se	O
6	dnes	Db--------------	dnes	O
7	na	RR--4-----------	na	O
8	zjevnou	AAFS4----1A-----	zjevný	O
9	jejich	PSFS4NP3--------	jejich	O
10	škodu	NNFS4-----A-----	škoda	O
11	ty	PDMP4-----------	ten	O
12	dva	ClMP4-----------	dva	O
13	prý	TT--------------	prý	O
14	kdosi	PZM-1-----------	kdosi	O
15	viděl	VpMS---3R-AA---I	vidět	O
16	kdes	Db--------------	kdes	O
17	pít	Vf--------A----I	pít	O
18	slyšte	Vi-P---2--A----I	slyšet	O
19	čistou	AAFS4----1A-----	čistý	O
20	vodu	NNFS4-----A-----	voda	O

