1	Ty	PDFP1-----------	ten	O
2	země	NNFP1-----A-----	země	O
3	rodná	AAFS1----1A-----	rodný	O
4	jaký	P4IS4-----------	jaký	O
5	pláč	NNIS4-----A-----	pláč	O
6	by	Vc-------------I	být	O
7	oplakal	VpIS---3R-AA---P	oplakat	O
8	tvé	PSFP4-S2------1-	tvůj	O
9	všecky	PLFP4-----------	všecek	O
10	rány	NNFP4-----A-----	rána	O
11	Tvé	PSNS1-S2------1-	tvůj	O
12	čelo	NNNS1-----A-----	čelo	O
13	je	VB-S---3P-AA---I	být	O
14	tak	Db--------------	tak	O
15	zsinalé	AANS1----1A-----	zsinalý	O
16	a	J^--------------	a	O
17	skráně	NNFP1-----A-----	skráň	O
18	tvé	PSFS2-S2------1-	tvůj	O
19	tak	Db--------------	tak	O
20	rozervány	VsIP---3F-AP---P	rozervat	O
21	a	J^--------------	a	O
22	ztýrána	VsNP---3R-AP---P	ztýrat	O
23	tvá	PSFS1-S2------1-	tvůj	O
24	krásná	AAFS1----1A-----	krásný	O
25	hlava	NNFS1-----A-----	hlava	O
26	tvá	PSNP1-S2------1-	tvůj	O
27	ňadra	NNNP1-----A-----	ňadro	O
28	těžce	Dg-------1A-----	těžce	O
29	rozryta	VsNP---3F-AP---P	rozrýt	O
30	a	J^--------------	a	O
31	oči	NNFP1-----A-----	oko	O
32	rudé	AAFP1----1A-----	rudý	O
33	do	RR--2-----------	do	O
34	krvava	NNNS2-----A-----	krvavo	O
35	ó	II--------------	ó	O
36	matko	NNFS5-----A-----	matka	O
37	matko	NNFS5-----A-----	matka	O
38	matko	NNFS5-----A-----	matka	O
39	má	VB-S---3P-AA---I	mít	O

