1	Umučený	AAMS1----1A-----	umučený	O
2	stálým	AANS7----1A-----	stálý	O
3	dusnem	NNNS7-----A-----	dusno	O
4	jež	PJIP4-----------	jenž	O
5	snad	TT--------------	snad	O
6	brzy	Dg-------1A-----	brzy	O
7	změníš	VB-S---2P-AA---P	změnit	O
8	v	RR--4-----------	v	O
9	rov	NNIS4-----A-----	rov	O
10	jdeš	VB-S---2P-AA---I	jít	O
11	si	P7-X3-----------	se	O
12	bledý	AAMS1----1A-----	bledý	O
13	smutný	AAMS5----1A-----	smutný	O
14	hochu	NNMS5-----A-----	hoch	O
15	s	RR--7-----------	s	O
16	obručí	NNFS7-----A-----	obruč	O
17	hrát	Vf--------A----I	hrát	O
18	na	RR--4-----------	na	O
19	ostrov	NNIS4-----A-----	ostrov	O

