1	Na	RR--4-----------	na	O
2	prášek	NNIS4-----A-----	prášek	O
3	rozbity	VsIP---3F-AP---P	rozbít	O
4	kosmický	AAIS1----1A-----	kosmický	O
5	tělíska	NNNP1-----A-----	tělísko	O
6	v	RR--6-----------	v	O
7	prostoru	NNIS6-----A-----	prostor	O
8	mizí	VB-P---3P-AA---I	mizet	O
9	tak	Db--------------	tak	O
10	blízko	Dg-------1A-----	blízko	O
11	byly	VpFP---3R-AA---I	být	O
12	si	P7-X3-----------	se	O
13	pro	RR--4-----------	pro	O
14	vždycky	Db--------A-----	vždycky	O
15	jsou	VB-P---3P-AA---I	být	O
16	již	Db--------------	již	O
17	si	P7-X3-----------	se	O
18	nadobro	Db--------------	nadobro	O
19	cizí	AANP1----1A-----	cizí	O

