1	Že	J,--------------	že	O
2	sám	PLMS1-----------	sám	O
3	bych	Vc-S---1-------I	být	O
4	nebyl	VpMS---1R-NA---I	být	O
5	v	RR--4-----------	v	O
6	toho	PDMS4-----------	ten	O
7	žití	NNNS4-----A-----	žití	O
8	tmách	NNFP6-----A-----	tma	O
9	že	J,--------------	že	O
10	měl	VpMS---1R-AA---I	mít	O
11	bych	Vc-S---1-------I	být	O
12	koho	PKM-4-----------	kdo	O
13	kdo	PKM-1-----------	kdo	O
14	by	Vc-------------I	být	O
15	zpátky	Db--------------	zpátky	O
16	vztáh	X24-------------	vztáh´	O
17	mne	PP-S4--1--------	já	O
18	z	RR--2-----------	z	O
19	kraje	NNIS2-----A-----	kraj	O
20	tůně	NNFS2-----A-----	tůně	O
21	která	P4FS1-----------	který	O
22	tichem	NNNS7-----A-----	ticho	O
23	láká	VB-S---3P-AA---I	lákat	O
24	že	J,--------------	že	O
25	měl	VpMS---1R-AA---I	mít	O
26	bych	Vc-S---1-------I	být	O
27	ruce	NNFP4-----A-----	ruka	O
28	k	RR--3-----------	k	O
29	nimž	P9FP3-----------	jenž	O
30	bych	Vc-S---1-------I	být	O
31	čelo	NNNS4-----A-----	čelo	O
32	klad	X24-------------	klad´	O
33	když	J,--------------	když	O
34	zebe	VB-S---3P-AA---I	zábst	O
35	v	RR--4-----------	v	O
36	ně	P5IP4--3--------	oni	O
37	ten	PDIS4-----------	ten	O
38	žití	NNNS4-----A-----	žití	O
39	mráz	NNIS1-----A-----	mráz	O
40	a	J^--------------	a	O
41	chlad	NNIS1-----A-----	chlad	O
42	a	J^--------------	a	O
43	pomalu	Db--------------	pomalu	O
44	a	J^--------------	a	O
45	těžce	Dg-------1A-----	těžce	O
46	kol	NNNP2-----A-----	kolo	O
47	se	P7-X4-----------	se	O
48	smráká	VB-S---3P-AA---I	smrákat	O

