1	Už	Db--------------	už	O
2	nepřijde	VB-S---3P-NA---P	přijít	O
3	Ta	PDFS1-----------	ten	O
4	bílá	AAFS1----1A-----	bílý	O
5	skráň	NNFS1-----A-----	skráň	O
6	tam	Db--------------	tam	O
7	sama	PLFS1-----------	sám	O
8	sama	PLFS1-----------	sám	O
9	dříme	VB-S---3P-AA---I	dřímat	O
10	Už	Db--------------	už	O
11	nikdy	Db--------------	nikdy	O
12	nikdy	Db--------------	nikdy	O
13	více	Dg-------2A-----	hodně	O
14	zaň	P0--------------	zaň	O
15	už	Db--------------	už	O
16	jen	TT--------------	jen	O
17	se	P7-X4-----------	se	O
18	pomodlíme	VB-P---1P-AA---P	pomodlit	O

