1	A	J^--------------	a	O
2	vzplála	VpFS---3R-AA---P	vzplát	O
3	hranice	NNFS1-----A-----	hranice	O
4	a	J^--------------	a	O
5	mistr	NNMS1-----A-----	mistr	O
6	v	RR--6-----------	v	O
7	dýmu	NNIS6-----A-----	dým	O
8	zpíval	VpMS---3R-AA---I	zpívat	O
9	žalm	NNIS1-----A-----	žalm	O
10	jakýs	PZIS1-----------	jakýs	O
11	nábožný	AAIS1----1A-----	nábožný	O
12	výš	Dg-------2A-----	vysoko	O
13	plamen	NNIS1-----A-----	plamen	O
14	rudě	Dg-------1A-----	rudě	O
15	šleh	X24-------------	šleh´	O
16	po	RR--6-----------	po	O
17	šatě	NNIS6-----A---1-	šat	O
18	chudobném	AAIS6----1A-----	chudobný	O
19	na	RR--4-----------	na	O
20	nahé	AANS4----1A-----	nahý	O
21	tělo	NNNS4-----A-----	tělo	O
22	splýval	VpMS---3R-AA---I	splývat	O
23	že	J,--------------	že	O
24	svatý	AAMS1----1A-----	svatý	O
25	mučedník	NNMS1-----A-----	mučedník	O
26	se	P7-X4-----------	se	O
27	svíjel	VpMS---3R-AA---I	svíjet	O
28	v	RR--6-----------	v	O
29	bolestech	NNFP6-----A-----	bolest	O

