1	S	RR--7-----------	s	O
2	ním	P5NS7--3--------	on	O
3	dovedla	VpFS---2R-AA---P	dovést	O
4	jsi	VB-S---2P-AA---I	být	O
5	plakat	Vf--------A----I	plakat	O
6	i	J^--------------	i	O
7	se	P7-X4-----------	se	O
8	smát	Vf--------A----I	smát	O
9	dnes	Db--------------	dnes	O
10	chmurný	AAIS1----1A-----	chmurný	O
11	blesk	NNIS1-----A-----	blesk	O
12	a	J^--------------	a	O
13	zítra	Db--------------	zítra	O
14	úsměv	NNIS1-----A-----	úsměv	O
15	dětský	AAIS1----1A-----	dětský	O
16	Od	RR--2-----------	od	O
17	kolébky	NNFS2-----A-----	kolébka	O
18	až	TT--------------	až	O
19	po	RR--4-----------	po	O
20	hrob	NNIS4-----A-----	hrob	O
21	s	RR--7-----------	s	O
22	tebou	PP-S7--2--------	ty	O
23	rád	ACMS------A-----	rád	O
24	se	P7-X4-----------	se	O
25	sdílel	VpIS---3R-AA---I	sdílet	O
26	o	RR--4-----------	o	O
27	radost	NNFS4-----A-----	radost	O
28	i	J^--------------	i	O
29	trudy	NNIP4-----A-----	trud	O
30	všecky	PLIP4-----------	všecek	O
31	i	J^--------------	i	O
32	svátečním	AAMP3----1A-----	sváteční	O
33	jsi	VB-S---2P-AA---I	být	O
34	jemu	PPMS3--3--------	on	O
35	zněla	VpFS---2R-AA---I	znít	O
36	klidem	NNIS7-----A-----	klid	O
37	i	J^--------------	i	O
38	třeskem	NNIS7-----A-----	třesk	O
39	zbraní	NNFP2-----A-----	zbraň	O
40	Naše	PSFS5-P1--------	náš	O
41	písni	NNFS5-----A-----	píseň	O
42	sladká	AAFS5----1A-----	sladký	O
43	ty	PDFP1-----------	ten	O
44	jeho	PSFS1XS3--------	jeho	O
45	sestra	NNFS1-----A-----	sestra	O
46	milenka	NNFS1-----A-----	milenka	O
47	i	J^--------------	i	O
48	matka	NNFS1-----A-----	matka	O
49	dál	Db--------------	dále	O
50	věrně	Dg-------1A-----	věrně	O
51	buď	Vi-S---2--A----I	být	O
52	a	J^--------------	a	O
53	žij	Vi-S---2--A----I	žít	O
54	s	RR--7-----------	s	O
55	tím	PDIS7-----------	ten	O
56	věrným	AAIS7----1A-----	věrný	O
57	lidem	NNIS7-----A-----	lid	O
58	až	TT--------------	až	O
59	k	RR--3-----------	k	O
60	tomu	PDIS3-----------	ten	O
61	dni	NNIS3-----A---1-	den	O
62	kdy	Db--------------	kdy	O
63	právem	Db--------A-----	právem	O
64	bude	VB-S---3F-AA---I	být	O
65	moci	Vf--------A----I	moci	O
66	Hossana	X24-------------	Hossana	SUSPICIOUS_TYPE
67	svoje	P8NS4-----------	svůj	O
68	velkonoční	X24-------------	velkonoční	O
69	pět	Cn-S1-----------	pět	O
70	v	RR--4-----------	v	O
71	ten	PDIS4-----------	ten	O
72	velký	AAIS4----1A-----	velký	O
73	den	NNIS4-----A-----	den	O
74	o	RR--6-----------	o	O
75	jakém	P4IS6-----------	jaký	O
76	snili	VpMP---3R-AA---I	snít	O
77	otci	NNMP1-----A-----	otec	O
78	o	RR--6-----------	o	O
79	jakém	P4MS6-----------	jaký	O
80	v	RR--6-----------	v	O
81	dávných	AAIP6----1A-----	dávný	O
82	bojích	NNIP6-----A-----	boj	O
83	sníval	VpMS---3R-AA---I	snívat	O
84	děd	NNMS1-----A-----	děd	O
85	kdy	Db--------------	kdy	O
86	staneme	VB-P---1P-AA---P	stanout	O
87	u	RR--2-----------	u	O
88	cíle	NNIS2-----A-----	cíl	O
89	dlouhé	AAFS2----1A-----	dlouhý	O
90	pouti	NNFS2-----A---1-	pouť	O
91	kam	Db--------------	kam	O
92	osud	NNIS1-----A-----	osud	O
93	ved	X24-------------	ved´	O
94	nás	PP-P2--1--------	my	O
95	mnohým	AAIS7----1A-----	mnohý	O
96	bojem	NNIS7-----A-----	boj	O
97	zlým	AAIS7----1A-----	zlý	O

