1	Konec	NNIS1-----A-----	konec	O
2	románku	NNIS2-----A-----	románek	O
3	je	VB-S---3P-AA---I	být	O
4	zcela	Db--------------	zcela	O
5	všední	AAFS1----1A-----	všední	O
6	bylo	VpNS---3R-AA---I	být	O
7	po	RR--6-----------	po	O
8	lásce	NNFS6-----A-----	láska	O
9	a	J^--------------	a	O
10	bylo	VpNS---3R-AA---I	být	O
11	po	RR--6-----------	po	O
12	všem	PLNS6-----------	všechen	O
13	v	RR--6-----------	v	O
14	trudu	NNIS6-----A-----	trud	O
15	poznával	VpIS---3R-AA---I	poznávat	O
16	že	J,--------------	že	O
17	takto	Db--------------	takto	O
18	ovšem	TT--------------	ovšem	O
19	nemohl	VpIS---3R-NA---I	moci	O
20	by	Vc-------------I	být	O
21	objevit	Vf--------A----P	objevit	O
22	se	P7-X4-----------	se	O
23	před	RR--7-----------	před	O
24	Ní	P5FS7--3--------	on	O

