1	Ne	TT--------------	ne	O
2	ty	PP-S1--2--------	ty	O
3	to	PDNS4-----------	ten	O
4	nepovíš	VB-S---2P-NA---P	povědět	O
5	vždyť	J^--------------	vždyť	O
6	sama	PLFS1-----------	sám	O
7	tomus	X24-------------	tomu´s	O
8	chtěla	VpFS---2R-AA---I	chtít	O
9	by	Vc-------------I	být	O
10	rty	NNIP1-----A-----	ret	O
11	mé	PSIP1-S1------1-	můj	O
12	vylíbaly	VpIP---3R-AA---P	vylíbat	O
13	ti	PDMP1-----------	ten	O
14	třeba	TT--------------	třeba	O
15	duši	NNMP1-----A-----	duch	O
16	z	RR--2-----------	z	O
17	těla	NNNS2-----A-----	tělo	O

