1	Já	PP-S1--1--------	já	O
2	věřil	VpMS---1R-AA---I	věřit	O
3	vždy	Db--------A-----	vždy	O
4	že	J,--------------	že	O
5	darmo	Db--------------	darmo	O
6	nelká	VB-S---3P-NA---I	lkát	O
7	má	VB-S---3P-AA---I	mít	O
8	duše	NNFP4-----A-----	duše	O
9	po	RR--6-----------	po	O
10	ní	P5FS6--3--------	on	O
11	věřil	VpMS---1R-AA---I	věřit	O
12	jsem	VB-S---1P-AA---I	být	O
13	že	J,--------------	že	O
14	láska	NNFS1-----A-----	láska	O
15	krásná	AAFS1----1A-----	krásný	O
16	svatá	AAFS1----1A-----	svatý	O
17	velká	AAFS1----1A-----	velký	O
18	nebude	VB-S---3F-NA---I	být	O
19	jednou	Db--------------	jednou	O
20	marným	AAIS7----1A-----	marný	O
21	snem	NNIS7-----A-----	sen	O

