1	A	J^--------------	a	O
2	když	J,--------------	když	O
3	polomrtev	ACMS------A-----	polomrtvý	O
4	zmámen	VsMS---3F-AP---P	zmámit	O
5	jste	VB-P---2P-AA---I	být	O
6	už	Db--------------	už	O
7	všemi	PLNP7-----------	všechen	O
8	těmi	PDNP7-----------	ten	O
9	slovy	NNNP7-----A-----	slovo	O
10	aj	II--------------	aj	O
11	tu	Db------------1-	tu	O
12	jeho	PSNS1XS3--------	jeho	O
13	známý	AAIS1----1A-----	známý	O
14	nový	AAIS1----1A-----	nový	O
15	Se	RV--7-----------	s	O
16	srdce	NNNS2-----A-----	srdce	O
17	vám	PP-P3--2--------	vy	O
18	padá	VB-S---3P-AA---I	padat	O
19	kámen	NNIS1-----A-----	kámen	O

