1	A	J^--------------	a	O
2	zástup	NNIS1-----A-----	zástup	O
3	opilý	AAIS1----1A-----	opilý	O
4	a	J^--------------	a	O
5	poštvaný	AAIS1----1A-----	poštvaný	O
6	co	PQ--4-----------	co	O
7	žádal	VpIS---3R-AA---I	žádat	O
8	smrt	NNFS1-----A-----	smrt	O
9	jeho	PSIS2XS3--------	jeho	O
10	v	RR--6-----------	v	O
11	plamenech	NNIP6-----A-----	plamen	O
12	on	PPMS1--3--------	on	O
13	veliký	AAIS1----1A-----	veliký	O
14	šel	VpIS---3R-AA---I	jít	O
15	davem	NNIS7-----A-----	dav	O
16	a	J^--------------	a	O
17	bolně	Dg-------1A-----	bolně	O
18	usmál	VpIS---3R-AA---P	usmát	O
19	se	P7-X4-----------	se	O
20	když	J,--------------	když	O
21	na	RR--4-----------	na	O
22	skráň	NNFS4-----A-----	skráň	O
23	jemu	PPIS3--3--------	on	O
24	vkládal	VpMS---3R-AA---I	vkládat	O
25	z	RR--2-----------	z	O
26	papíru	NNIS2-----A-----	papír	O
27	korunu	NNFS4-----A-----	koruna	O
28	kat	NNFP2-----A-----	kata	O
29	v	RR--6-----------	v	O
30	smíchu	NNIS6-----A-----	smích	O
31	pohrdavém	AAIS6----1A-----	pohrdavý	O

