1	A	J^--------------	a	O
2	náhle	Dg-------1A-----	náhle	O
3	veřeje	NNFP1-----A-----	veřeje	O
4	u	RR--2-----------	u	O
5	brány	NNFS2-----A-----	brána	O
6	povolily	VpFP---3R-AA---P	povolit	O
7	a	J^--------------	a	O
8	kdosi	PZM-1-----------	kdosi	O
9	zářící	AGMS1-----A-----	zářící	O
10	a	J^--------------	a	O
11	veliký	AAMS1----1A-----	veliký	O
12	v	RR--6-----------	v	O
13	nich	P5MP6--3--------	oni	O
14	stál	VpIS---3R-AA---B	stát	O
15	a	J^--------------	a	O
16	slunné	AAIP1----1A-----	slunný	O
17	paprsky	NNIP1-----A-----	paprsek	O
18	se	P7-X4-----------	se	O
19	z	RR--2-----------	z	O
20	očí	NNFP2-----A-----	oko	O
21	jeho	PPMS4--3--------	on	O
22	lily	VpIP---3R-AA---I	lít	O
23	a	J^--------------	a	O
24	čelo	NNNS1-----A-----	čelo	O
25	zářilo	VpNS---3R-AA---I	zářit	O
26	tak	Db--------------	tak	O
27	svatě	Dg-------1A-----	svatě	O
28	velebné	AANS1----1A-----	velebný	O
29	A	J^--------------	a	O
30	dlouho	Dg-------1A-----	dlouho	O
31	díval	VpMS---3R-AA---I	dívat	O
32	se	P7-X4-----------	se	O
33	svým	P8IS7-----------	svůj	O
34	krásným	AANS7----1A-----	krásný	O
35	velkým	AANS7----1A-----	velký	O
36	okem	NNNS7-----A-----	oko	O
37	ni	J^--------------	ni	O
38	brvou	NNFS7-----A-----	brva	O
39	nepohnul	VpIS---3R-NA---P	pohnout	O
40	Vše	PLNS4---------1-	všechen	O
41	svatý	AAIS1----1A-----	svatý	O
42	úžas	NNIS1-----A-----	úžas	O
43	jal	VpIS---3R-AA---P	jmout	O
44	kdy	Db--------------	kdy	O
45	v	RR--6-----------	v	O
46	tiché	AAFS6----1A-----	tichý	O
47	prostotě	NNFS6-----A-----	prostota	O
48	před	RR--7-----------	před	O
49	těmi	PDIP7-----------	ten	O
50	miliony	NNIP7-----A-----	milión	O
51	těch	PDIP2-----------	ten	O
52	davů	NNIP2-----A-----	dav	O
53	nesmírných	AAFP2----1A-----	nesmírný	O
54	své	P8FP4---------1-	svůj	O
55	ruce	NNFP4-----A-----	ruka	O
56	rozepjal	VpMS---3R-AA---P	rozepnout	O

