1	Zde	Db--------------	zde	O
2	pro	RR--4-----------	pro	O
3	nás	PP-P4--1--------	my	O
4	druhé	CrMP4-----------	druhý	O
5	místa	NNNS2-----A-----	místo	O
6	není	VB-S---3P-NA---I	být	O
7	ni	J^--------------	ni	O
8	pro	RR--4-----------	pro	O
9	vás	PP-P4--2--------	vy	O
10	chodník	NNIS1-----A-----	chodník	O
11	nestačí	VB-S---3P-NA---I	stačit	O
12	nejmenší	AAMP1----3A-----	malý	O
13	naši	PSMP1-P1--------	náš	O
14	gentlemani	NNMP1-----A-----	gentleman	O
15	vy	PP-P1--2--------	vy	O
16	krásotinky	X24-------------	krásotinky	O
17	nejmladší	AAFP1----3A-----	mladý	O

