1	Já	PP-S1--1--------	já	O
2	jsem	VB-S---1P-AA---I	být	O
3	často	Dg-------1A-----	často	O
4	děl	NNNP2-----A-----	dílo	O
5	si	P7-X3-----------	se	O
6	v	RR--6-----------	v	O
7	duchu	NNIS6-----A-----	duch	O
8	těš	Vi-S---2--A----I	těšit	O
9	se	P7-X4-----------	se	O
10	tím	PDIS7-----------	ten	O
11	jen	TT--------------	jen	O
12	hochu	NNMS3-----A---1-	hoch	O
13	těš	Vi-S---2--A----I	těšit	O
14	kdo	PKM-1-----------	kdo	O
15	ví	VB-S---3P-AA---I	vědět	O
16	zdali	J,--------------	zdali	O
17	chvíle	NNFS1-----A-----	chvíle	O
18	blaha	NNNS2-----A-----	blaho	O
19	dál	Db--------------	dále	O
20	se	P7-X4-----------	se	O
21	ještě	Db--------------	ještě	O
22	dožiješ	VB-S---2P-AA---P	dožít	O

