1	V	RR--6-----------	v	O
2	hlavě	NNFS6-----A-----	hlava	O
3	to	PDNS4-----------	ten	O
4	hučelo	VpNS---3R-AA---I	hučet	O
5	sténalo	VpNS---3R-AA---I	sténat	O
6	lkalo	VpNS---3R-AA---I	lkát	O
7	staré	NNFP4-----A-----	stará	O
8	své	P8FS2---------1-	svůj	O
9	cítil	VpMS---1R-AA---I	cítit	O
10	jsem	VB-S---1P-AA---I	být	O
11	hoře	NNFS3-----A-----	hora	O
12	a	J^--------------	a	O
13	z	RR--2-----------	z	O
14	té	PDFS2-----------	ten	O
15	tmy	NNFS2-----A-----	tma	O
16	před	RR--7-----------	před	O
17	okem	NNNS7-----A-----	oko	O
18	pojednou	Db--------------	pojednou	O
19	vstalo	VpNS---3R-AA---P	vstát	O
20	nesmírné	AANS1----1A-----	nesmírný	O
21	daleké	AANS1----1A-----	daleký	O
22	moře	NNNS1-----A-----	moře	O

