1	Vůbec	Db--------------	vůbec	O
2	můj	PSMS5-S1--------	můj	O
3	synáčku	NNMS5-----A-----	synáček	O
4	tebe	PP-S4--2--------	ty	O
5	nechť	TT--------------	nechť	O
6	neláká	VB-S---3P-NA---I	lákat	O
7	nic	PW--1-----------	nic	O
8	z	RR--2-----------	z	O
9	toho	PDNS2-----------	ten	O
10	co	P4FS1-----------	co	O
11	snad	TT--------------	snad	O
12	je	VB-S---3P-AA---I	být	O
13	ozdobou	NNFS7-----A-----	ozdoba	O
14	šosáka	NNMS2-----A-----	šosák	O
15	mamutích	AAFP2----1A-----	mamutí	O
16	stvůr	NNFP2-----A-----	stvůra	O
17	vždy	Db--------A-----	vždy	O
18	pyšně	Dg-------1A-----	pyšně	O
19	ke	RV--3-----------	k	O
20	hvězdám	NNFP3-----A-----	hvězda	O
21	čelo	NNNS4-----A-----	čelo	O
22	své	P8FS2---------1-	svůj	O
23	pozvedneš	VB-S---2P-AA---P	pozvednout	O
24	to	PDNS4-----------	ten	O
25	o	RR--6-----------	o	O
26	němž	P9NS6-----------	jenž	O
27	praví	VB-S---3P-AA---P	pravit	O
28	se	P7-X4-----------	se	O
29	že	J,--------------	že	O
30	vždy	Db--------A-----	vždy	O
31	je	VB-S---3P-AA---I	být	O
32	lepší	AANS1----2A-----	dobrý	O
33	než	J,--------------	než	O
34	poplužní	AAIS1----1A-----	poplužní	O
35	dvůr	NNIS1-----A-----	dvůr	O

