1	Vše	PLNS1---------1-	všechen	O
2	jedna	ClFS1-----------	jeden	O
3	šeď	NNFS1-----A-----	šeď	O
4	Jak	Db--------------	jak	O
5	bude	VB-S---3F-AA---I	být	O
6	za	RR--2-----------	za	O
7	dne	NNIS2-----A-----	den	O
8	Je	VB-S---3P-AA---I	být	O
9	zimní	AANS1----1A-----	zimní	O
10	tmavé	AANS1----1A-----	tmavý	O
11	ráno	NNNS1-----A-----	ráno	O
12	chladné	AANS1----1A-----	chladný	O
13	jež	PJNS1-----------	jenž	O
14	ve	RV--6-----------	v	O
15	smutku	NNIS6-----A-----	smutek	O
16	se	P7-X4-----------	se	O
17	budit	Vf--------A----I	budit	O
18	zdá	VB-S---3P-AA---I	zdát	O
19	Plyn	NNIS1-----A-----	plyn	O
20	kalně	Dg-------1A-----	kalně	O
21	září	NNNS2-----A-----	září	O
22	v	RR--4-----------	v	O
23	mlhy	NNFP4-----A-----	mlha	O
24	šedé	AAFP4----1A-----	šedý	O
25	a	J^--------------	a	O
26	kolem	Db--------------	kolem	O
27	tramway	X24-------------	tramway	O
28	zvolna	Db--------------	zvolna	O
29	jede	VB-S---3P-AA---I	jet	O
30	a	J^--------------	a	O
31	kočí	NNMS1-----A-----	kočí	O
32	zdlouha	Db--------------	zdlouha	O
33	zahvízdá	VB-S---3P-AA---P	zahvízdat	O

