1	Nač	PY--------------	nač	O
2	vzdychati	Vf--------A---2I	vzdychat	O
3	že	J,--------------	že	O
4	vše	PLNS1---------1-	všechen	O
5	je	VB-S---3P-AA---I	být	O
6	darmo	Db--------------	darmo	O
7	nač	PY--------------	nač	O
8	povzdech	NNIS1-----A-----	povzdech	O
9	z	RR--2-----------	z	O
10	prsou	NNNP2-----A---1-	prsa	O
11	hluboký	AAIS1----1A-----	hluboký	O
12	že	J,--------------	že	O
13	zrozeni	VsMP---1P-AP---P	zrodit	O
14	jsme	VB-P---1P-AA---I	být	O
15	otroky	NNMP7-----A-----	otrok	O
16	vždy	Db--------A-----	vždy	O
17	odsouzeni	VsMP---3R-AP---P	odsoudit	O
18	v	RR--6-----------	v	O
19	těžko	Dg-------1A-----	těžko	O
20	jarmo	X24-------------	jarmo	O

