1	Vím	VB-S---1P-AA---I	vědět	O
2	ona	PPFS1--3--------	ona	O
3	není	VB-S---3P-NA---I	být	O
4	to	PDNS1-----------	ten	O
5	kdos	PKM-1--2--------	kdos	O
6	je	VB-S---3P-AA---I	být	O
7	to	PDNS1-----------	ten	O
8	cizí	AANS1----1A-----	cizí	O
9	však	J^--------------	však	O
10	z	RR--2-----------	z	O
11	duše	NNFS2-----A-----	duše	O
12	obraz	NNIS1-----A-----	obraz	O
13	ten	PDIS1-----------	ten	O
14	mi	PH-S3--1--------	já	O
15	nevymizí	VB-S---3P-NA---P	vymizet	O

