1	V	RR--6-----------	v	O
2	přízemním	AANS6----1A-----	přízemní	O
3	okně	NNNS6-----A-----	okno	O
4	záclony	NNFS2-----A-----	záclona	O
5	se	P7-X4-----------	se	O
6	zdvihly	VpIP---3R-AA---P	zdvihnout	O
7	a	J^--------------	a	O
8	zvědavá	AAFS1----1A-----	zvědavý	O
9	tam	Db--------------	tam	O
10	zjevila	VpFS---3R-AA---P	zjevit	O
11	se	P7-X4-----------	se	O
12	očka	NNNS2-----A-----	očko	O
13	Za	RR--4-----------	za	O
14	chvíli	NNFS4-----A-----	chvíle	O
15	doktor	NNMS1-----A-----	doktor	O
16	zdravý	AAMS1----1A-----	zdravý	O
17	mladý	AAMS1----1A-----	mladý	O
18	štíhlý	AAMS1----1A-----	štíhlý	O
19	svou	P8FS4---------1-	svůj	O
20	žínku	NNFS4-----A-----	žínka	O
21	vedl	VpMS---3R-AA---I	vést	O
22	která	P4FS1-----------	který	O
23	záhy	Db--------------	záhy	O
24	dočká	VB-S---3P-AA---P	dočkat	O
25	se	P7-X4-----------	se	O
26	největšího	AANS2----3A-----	velký	O
27	štěstí	NNNS2-----A-----	štěstí	O
28	každé	PLFS2-----------	každý	O
29	ženy	NNFS2-----A-----	žena	O
30	jež	PJNS1-----------	jenž	O
31	miluje	VB-S---3P-AA---I	milovat	O
32	a	J^--------------	a	O
33	v	RR--6-----------	v	O
34	lásce	NNFS6-----A-----	láska	O
35	život	NNIS1-----A-----	život	O
36	nový	AAIS1----1A-----	nový	O
37	dá	VB-S---3P-AA---P	dát	O
38	krvi	NNFS3-----A-----	krev	O
39	z	RR--2-----------	z	O
40	krve	NNFS2-----A-----	krev	O
41	své	P8FS2---------1-	svůj	O
42	On	PPMS1--3--------	on	O
43	přeblažený	AAMS1----1A-----	přeblažený	O
44	k	RR--3-----------	k	O
45	ní	P5FS3--3--------	on	O
46	cestou	NNFS7-----A-----	cesta	O
47	mluvil	VpIS---3R-AA---I	mluvit	O
48	nejsladšími	AANP7----3A-----	sladký	O
49	slovy	NNNP7-----A-----	slovo	O

