1	Jdu	VB-S---1P-AA---I	jít	O
2	k	RR--3-----------	k	O
3	nádraží	NNNS3-----A-----	nádraží	O
4	A	J^--------------	a	O
5	mlha	NNFS1-----A-----	mlha	O
6	padá	VB-S---3P-AA---I	padat	O
7	Kol	NNNP2-----A-----	kolo	O
8	smutně	Dg-------1A-----	smutně	O
9	září	NNNS2-----A-----	září	O
10	světel	NNNP2-----A-----	světlo	O
11	řada	NNFS1-----A-----	řada	O
12	a	J^--------------	a	O
13	pusto	Db--------------	pusto	O
14	jako	J,--------------	jako	O
15	v	RR--6-----------	v	O
16	srdci	NNNS6-----A-----	srdce	O
17	mém	PSNS6-S1--------	můj	O
18	a	J^--------------	a	O
19	v	RR--6-----------	v	O
20	hlavě	NNFS6-----A-----	hlava	O
21	kterou	P4FS4-----------	který	O
22	přelud	NNIS1-----A-----	přelud	O
23	šálí	VB-S---3P-AA---I	šálit	O
24	Té	PDFS2-----------	ten	O
25	drahé	AAFS2----1A-----	drahý	O
26	jedné	ClFS2-----------	jeden	O
27	hlavy	NNFS2-----A-----	hlava	O
28	v	RR--6-----------	v	O
29	dáli	NNFS6-----A-----	dál	O
30	v	RR--6-----------	v	O
31	tom	PDNS6-----------	ten	O
32	zimním	AANS6----1A-----	zimní	O
33	ránu	NNNS6-----A-----	ráno	O
34	osudném	AANS6----1A-----	osudný	O

