1	Já	PP-S1--1--------	já	O
2	věděl	VpMS---1R-AA---I	vědět	O
3	v	RR--6-----------	v	O
4	životě	NNIS6-----A-----	život	O
5	že	J,--------------	že	O
6	jdu	VB-S---1P-AA---I	jít	O
7	si	P7-X3-----------	se	O
8	pro	RR--4-----------	pro	O
9	chvíli	NNFS4-----A-----	chvíle	O
10	o	RR--6-----------	o	O
11	níž	P9FS6-----------	jenž	O
12	duše	NNFS1-----A-----	duše	O
13	sní	VB-S---3P-AA---I	snít	O
14	já	PP-S1--1--------	já	O
15	věřil	VpMS---1R-AA---I	věřit	O
16	ta	PDFS1-----------	ten	O
17	že	TT--------------	že	O
18	přijít	Vf--------A----P	přijít	O
19	musí	VB-S---3P-AA---I	muset	O
20	jež	PJNS1-----------	jenž	O
21	smutek	NNIS4-----A-----	smutek	O
22	dnů	NNIP2-----A-----	den	O
23	mých	PSIP2-S1--------	můj	O
24	rozjasní	VB-S---3P-AA---P	rozjasnit	O

