1	A	J^--------------	a	O
2	kdyby	J,--------------	kdyby	O
3	strážník	NNMS1-----A-----	strážník	O
4	byl	VpMS---3R-AA---I	být	O
5	na	RR--6-----------	na	O
6	blízku	NNNS6-----A-----	blízko	O
7	jistě	Dg-------1A-----	jistě	O
8	že	TT--------------	že	O
9	mezi	RR--4-----------	mezi	O
10	ně	P5FP4--3--------	oni	O
11	vletí	VB-S---3P-AA---P	vletět	O
12	po	RR--6-----------	po	O
13	boku	NNIS6-----A-----	bok	O
14	něžnému	AANS3----1A-----	něžný	O
15	tělísku	NNNS3-----A-----	tělísko	O
16	už	Db--------------	už	O
17	je	VB-S---3P-AA---I	být	O
18	tu	Db------------1-	tu	O
19	těleso	NNNS1-----A-----	těleso	O
20	třetí	CrNS1-----------	třetí	O

