1	Však	J^--------------	však	O
2	ona	PPFS1--3--------	ona	O
3	básnířkou	NNFS7-----A-----	básnířka	O
4	je	VB-S---3P-AA---I	být	O
5	prý	TT--------------	prý	O
6	a	J^--------------	a	O
7	teď	Db--------------	teď	O
8	se	P7-X4-----------	se	O
9	chystá	VB-S---3P-AA---I	chystat	O
10	à	X24-------------	à	O
11	tout	X24-------------	tout	O
12	prix	X24-------------	prix	O
13	že	J,--------------	že	O
14	drama	NNNS1-----A-----	drama	O
15	nebo	J^--------------	nebo	O
16	román	NNIS1-----A-----	román	O
17	složí	NNFP2-----A-----	slož	O
18	rány	NNFP1-----A-----	rána	O
19	boží	AAFP1----1A-----	boží	O

