1	V	RR--6-----------	v	O
2	té	PDFS6-----------	ten	O
3	zahrádce	NNFS6-----A-----	zahrádka	O
4	naší	PSFS2-P1--------	náš	O
5	kvete	VB-S---3P-AA---I	kvést	O
6	modrý	AAIS1----1A-----	modrý	O
7	bez	NNIS1-----A-----	bez	O
8	modré	AAFP1----1A-----	modrý	O
9	oči	NNFP1-----A-----	oko	O
10	hocha	NNMS2-----A-----	hoch	O
11	mého	PSMS2-S1--------	můj	O
12	kde	Db--------------	kde	O
13	ach	II--------------	ach	O
14	kde	Db--------------	kde	O
15	jste	VB-P---2P-AA---I	být	O
16	dnes	Db--------------	dnes	O

