1	Na	RR--4-----------	na	O
2	stisk	NNIS4-----A-----	stisk	O
3	té	PDFS2-----------	ten	O
4	vaší	PSFS2-P2--------	váš	O
5	ruky	NNFS2-----A-----	ruka	O
6	bílé	AAFS2----1A-----	bílý	O
7	na	RR--4-----------	na	O
8	kouzlo	NNNS4-----A-----	kouzlo	O
9	jedné	ClFS2-----------	jeden	O
10	sladké	AAFS2----1A-----	sladký	O
11	chvíle	NNFS2-----A-----	chvíle	O
12	jež	PJFS1-----------	jenž	O
13	tolik	Ca--4-----------	tolik	O
14	štěstí	NNNS2-----A-----	štěstí	O
15	dala	VpNP---3R-AA---P	dát	O
16	nám	PP-P3--1--------	my	O
17	na	RR--4-----------	na	O
18	jeden	ClIS4-----------	jeden	O
19	večer	Db--------------	večer	O
20	když	J,--------------	když	O
21	jsme	VB-P---1P-AA---I	být	O
22	sami	PLMP1-----------	sám	O
23	bloudili	VpMP---3R-AA---I	bloudit	O
24	v	RR--6-----------	v	O
25	parku	NNIS6-----A-----	park	O
26	pod	RR--7-----------	pod	O
27	hvězdami	NNFP7-----A-----	hvězda	O
28	si	P7-X3-----------	se	O
29	vždy	Db--------A-----	vždy	O
30	a	J^--------------	a	O
31	stále	Db--------------	stále	O
32	vzpomínám	VB-S---1P-AA---I	vzpomínat	O

