1	Dnes	Db--------------	dnes	O
2	ještě	Db--------------	ještě	O
3	tedy	TT--------------	tedy	O
4	o	RR--6-----------	o	O
5	půl	NNNS6-----A-----	půl	O
6	páté	CrFS2-----------	pátý	O
7	jsem	VB-S---1P-AA---I	být	O
8	srdce	NNNP4-----A-----	srdce	O
9	svého	P8MS2-----------	svůj	O
10	paní	NNFS2-----A-----	paní	O
11	zřel	VpMS---1R-AA---I	zřít	O
12	ah	X24-------------	ah	O
13	takých	PDNP6-----------	taký	O
14	málo	Dg-------1A-----	málo	O
15	uhlídáte	VB-P---2P-AA---P	uhlídat	O
16	k	RR--3-----------	k	O
17	níž	P9FS3-----------	jenž	O
18	já	PP-S1--1--------	já	O
19	jsem	VB-S---1P-AA---I	být	O
20	láskou	NNFS7-----A-----	láska	O
21	zahořel	VpMS---1R-AA---P	zahořet	O

