1	Ach	II--------------	ach	O
2	ty	PDFP1-----------	ten	O
3	dvě	ClFP1-----------	dva	O
4	malé	AAFP1----1A-----	malý	O
5	hvězdičky	NNFP1-----A-----	hvězdička	O
6	to	PDNS1-----------	ten	O
7	láska	NNFS1-----A-----	láska	O
8	naše	PSNP1-P1--------	náš	O
9	mladá	AAFS1----1A-----	mladý	O
10	a	J^--------------	a	O
11	náhle	Dg-------1A-----	náhle	O
12	jedna	ClFS1-----------	jeden	O
13	z	RR--2-----------	z	O
14	těch	PDFP2-----------	ten	O
15	dvou	ClFP2-----------	dva	O
16	hvězd	NNFP2-----A-----	hvězda	O
17	ta	PDFS1-----------	ten	O
18	jedna	ClFS1-----------	jeden	O
19	dolů	Db--------------	dolů	O
20	padá	VB-S---3P-AA---I	padat	O

