1	Ó	II--------------	ó	O
2	nevděk	NNIS1-----A-----	nevděk	O
3	dětí	NNFP2-----A-----	dítě	O
4	nejhorší	AAFS1----3A-----	špatný	O
5	co	PQ--4-----------	co	O
6	zranit	Vf--------A----P	zranit	O
7	může	VB-S---3P-AA---I	moci	O
8	srdce	NNNS4-----A-----	srdce	O
9	matky	NNFS2-----A-----	matka	O
10	tak	Db--------------	tak	O
11	nikde	Db--------------	nikde	O
12	jaro	NNNS1-----A-----	jaro	O
13	všude	Db--------------	všude	O
14	mráz	NNIS1-----A-----	mráz	O
15	a	J^--------------	a	O
16	nikde	Db--------------	nikde	O
17	vlídný	AAIS1----1A-----	vlídný	O
18	pohled	NNIS1-----A-----	pohled	O
19	sladký	AAIS1----1A-----	sladký	O
20	Kol	NNNP2-----A-----	kolo	O
21	oči	NNFP4-----A-----	oko	O
22	jen	TT--------------	jen	O
23	jež	PJIP1-----------	jenž	O
24	uplakány	VsIP---3F-AP---P	uplakat	O
25	Ó	II--------------	ó	O
26	země	NNFS1-----A-----	země	O
27	rodná	AAFS1----1A-----	rodný	O
28	jaký	P4IS4-----------	jaký	O
29	pláč	NNIS1-----A-----	pláč	O
30	by	Vc-------------I	být	O
31	oplakal	VpIS---3R-AA---P	oplakat	O
32	tvé	PSFP4-S2------1-	tvůj	O
33	všecky	PLFP4-----------	všecek	O
34	rány	NNFP4-----A-----	rána	O
35	ó	II--------------	ó	O
36	matko	NNFS5-----A-----	matka	O
37	matko	NNFS5-----A-----	matka	O
38	matko	NNFS5-----A-----	matka	O
39	má	VB-S---3P-AA---I	mít	O

