1	Na	RR--4-----------	na	O
2	nebe	NNNS4-----A-----	nebe	O
3	hledí	VB-S---3P-AA---I	hledět	O
4	v	RR--6-----------	v	O
5	pohnutí	NNNS6-----A-----	pohnutí	O
6	ta	PDFS1-----------	ten	O
7	noc	NNFS1-----A-----	noc	O
8	to	PDNS1-----------	ten	O
9	svaté	AANS1----1A-----	svatý	O
10	ticho	NNNS1-----A-----	ticho	O
11	vůkol	Db--------------	vůkol	O
12	mu	PHMS3--3--------	on	O
13	slzy	NNFP1-----A-----	slza	O
14	v	RR--4-----------	v	O
15	oči	NNFP4-----A-----	oko	O
16	vynutí	VB-S---3P-AA---P	vynutit	O

