1	Hleděly	VpFP---3R-AA---I	hledět	O
2	naň	P0--------------	naň	O
3	její	PSFP1FS3--------	její	O
4	oči	NNFP1-----A-----	oko	O
5	a	J^--------------	a	O
6	ten	PDIS1-----------	ten	O
7	její	PSIS1FS3--------	její	O
8	pohled	NNIS1-----A-----	pohled	O
9	dlouhý	AAIS1----1A-----	dlouhý	O
10	byl	VpIS---3R-AA---I	být	O
11	tak	Db--------------	tak	O
12	plný	AAIS1----1A-----	plný	O
13	plný	AAIS1----1A-----	plný	O
14	lásky	NNFS2-----A-----	láska	O
15	plný	AAIS1----1A-----	plný	O
16	štěstí	NNNS1-----A-----	štěstí	O
17	plný	AAIS1----1A-----	plný	O
18	touhy	NNFS2-----A-----	touha	O
19	smířený	AAIS1----1A-----	smířený	O
20	a	J^--------------	a	O
21	bez	RR--2-----------	bez	O
22	otázky	NNFS2-----A-----	otázka	O
23	proč	Db--------------	proč	O
24	tak	Db--------------	tak	O
25	mladá	AAFS1----1A-----	mladý	O
26	umřít	Vf--------A----P	umřít	O
27	má	VB-S---3P-AA---I	mít	O

